Unknown,uInChIKey,Rank,Library,Id,Mass,Lib MW,InLib,MF,Prob(%),Name,CAS,NIST r.n.,InChIKey
#1 73.1000@17.5220 MS1+,,1,mainlib,51092,569.288,569,118,958,19.2,"D-(+)-Talose, pentakis(trimethylsilyl) ether, methyloxime (syn)",0,380187,LLVFXXKDPAPSCJ-QJOMJCCJSA-N
#2 204.1000@18.1223 MS1+,,1,mainlib,233930,540.261,540,-113,934,10.7,".beta.-D-Glucopyranose, 5TMS derivative",2775908,380337,PPFHNIVPOLWPCF-UHFFFAOYSA-N
#3 73.1000@6.8315 MS1+,,1,mainlib,49957,234.111,234,165,943,76.6,"Lactic Acid, 2TMS derivative",17596962,78865,HXRGKEOWDNVHPA-UHFFFAOYSA-N
#4 73.1000@6.8441 MS1+,,1,replib,22886,234.147,234,102,871,27.4,"2,3-Butanediol, 2TMS derivative",53274854,78917,ZAPDHFWCOMITJN-UHFFFAOYSA-N
#5 290.1000@22.1632 MS1+,,1,mainlib,280239,580.249,580,515,958,96.3,"Edetic Acid, 4TMS derivative",0,366669,CRAGZODMDSNPHZ-UHFFFAOYSA-N
#6 299.0000@9.8905 MS1+,,1,replib,41975,314.095,314,281,963,83,"Silanol, trimethyl-, phosphate (3:1)",10497059,334839,QJMMCGKXBZVAEI-UHFFFAOYSA-N
#7 204.1000@18.1286 MS1+,,1,replib,36940,540.261,540,-146,967,7.5,".beta.-D-Glucopyranose, 5TMS derivative",2775908,33803,PPFHNIVPOLWPCF-UHFFFAOYSA-N
#8 204.0000@18.1163 MS1+,,1,replib,36940,540.261,540,-105,980,8.7,".beta.-D-Glucopyranose, 5TMS derivative",2775908,33803,PPFHNIVPOLWPCF-UHFFFAOYSA-N
#9 147.0000@9.7153 MS1+,,1,replib,29355,246.184,246,-175,824,44,"Disiloxane, 1,3-bis(1,1-dimethylethyl)-1,1,3,3-tetramethyl-",67875552,160413,FGTJJHCZWOVVNH-UHFFFAOYSA-N
#10 73.1000@17.3406 MS1+,,1,replib,12337,569.288,569,-258,860,33.9,"d-Mannose, 2,3,4,5,6-pentakis-O-(trimethylsilyl)-, o-methyloxyme, (1Z)-",128705679,306816,LLVFXXKDPAPSCJ-QJOMJCCJSA-N
#11 147.0000@9.6714 MS1+,,1,replib,29520,204.111,204,465,953,94.5,"Urea, 2TMS derivative",18297637,287789,MASDFXZJIDNRTR-UHFFFAOYSA-N
#12 73.1000@17.2968 MS1+,,1,mainlib,51104,569.288,569,-113,918,14,"d-Glucose, 2,3,4,5,6-pentakis-O-(trimethylsilyl)-, o-methyloxyme, (1Z)-",128705737,380329,LLVFXXKDPAPSCJ-QJOMJCCJSA-N
#13 299.0000@9.9342 MS1+,,1,replib,41973,314.095,314,312,937,82.8,"Silanol, trimethyl-, phosphate (3:1)",10497059,23324,QJMMCGKXBZVAEI-UHFFFAOYSA-N
#14 290.1000@22.1884 MS1+,,1,mainlib,280239,580.249,580,504,945,95.9,"Edetic Acid, 4TMS derivative",0,366669,CRAGZODMDSNPHZ-UHFFFAOYSA-N
#15 399.3000@24.9845 MS1+,,1,replib,43475,502.387,502,833,978,93.3,"Glycerol monostearate, 2TMS derivative",1188756,408133,DPQSOLLSNCYGEP-UHFFFAOYSA-N
#16 147.0000@9.6151 MS1+,,1,replib,29520,204.111,204,457,950,94.5,"Urea, 2TMS derivative",18297637,287789,MASDFXZJIDNRTR-UHFFFAOYSA-N
#17 73.1000@22.2448 MS1+,,1,mainlib,280239,580.249,580,233,900,91.4,"Edetic Acid, 4TMS derivative",0,366669,CRAGZODMDSNPHZ-UHFFFAOYSA-N
#18 319.1000@17.3717 MS1+,,1,mainlib,51092,569.288,569,135,908,14.7,"D-(+)-Talose, pentakis(trimethylsilyl) ether, methyloxime (syn)",0,380187,LLVFXXKDPAPSCJ-QJOMJCCJSA-N
#19 290.1000@22.1447 MS1+,,1,mainlib,280239,580.249,580,592,967,97,"Edetic Acid, 4TMS derivative",0,366669,CRAGZODMDSNPHZ-UHFFFAOYSA-N
#20 147.0000@9.5963 MS1+,,1,replib,29519,204.111,204,-201,830,72.7,"Urea, 2TMS derivative",18297637,78870,MASDFXZJIDNRTR-UHFFFAOYSA-N
#21 73.1000@17.5094 MS1+,,1,replib,12339,569.288,569,-224,863,23.7,"d-Glucose, 2,3,4,5,6-pentakis-O-(trimethylsilyl)-, o-methyloxyme, (1Z)-",128705737,306821,LLVFXXKDPAPSCJ-QJOMJCCJSA-N
#24 73.1000@18.9107 MS1+,,1,replib,42291,328.28,328,522,964,97.1,"Palmitic Acid, TMS derivative",55520893,331723,HKNNSWCACQFVIK-UHFFFAOYSA-N
#26 73.1000@19.3486 MS1+,,1,replib,12859,456.186,456,529,973,95.9,"9H-Purine, 9-(trimethylsilyl)-2,6,8-tris[(trimethylsilyl)oxy]-",959230898,465870,AFJHZOLZVMKSLY-UHFFFAOYSA-N
#27 371.2000@23.5270 MS1+,,1,mainlib,298675,474.356,474,702,974,93.3,"1-Monopalmitin, 2TMS derivative",1188745,414375,LUHPQMTVPLRAQA-UHFFFAOYSA-N
#28 73.1000@25.0032 MS1+,,1,replib,12831,502.387,502,482,910,96.5,"Glycerol monostearate, 2TMS derivative",1188756,79352,DPQSOLLSNCYGEP-UHFFFAOYSA-N
#29 174.0000@9.2712 MS1+,,1,replib,33556,277.171,277,-110,946,14.9,"Ethanolamine, 3TMS derivative",5630819,24183,MZTOEZRSUGVLOG-UHFFFAOYSA-N
#30 73.1000@22.1947 MS1+,,1,replib,4541,103.111,103,-211,845,51.1,"1,2-Ethanediamine, N-(2-aminoethyl)-",111400,215719,RPNUMPOLZDHAAY-UHFFFAOYSA-N
#31 129.1000@27.6804 MS1+,,1,mainlib,140030,458.394,458,356,984,85.5,"Cholesterol, TMS derivative",1856059,332886,CBVJJGRSRFXUPK-OCBUSCMESA-N
#32 73.1000@20.4995 MS1+,,1,mainlib,49887,354.295,354,595,970,22,"9-Octadecenoic acid, (E)-, TMS derivative",96851477,333226,GAODWSYPSJBKGB-OUKQBFOZSA-N
#33 74.1000@19.7050 MS1+,,1,mainlib,56278,298.287,298,201,943,58.9,Methyl stearate,112618,291013,HPEUJPJOZXNMSJ-UHFFFAOYSA-N
#35 73.1000@20.7310 MS1+,,1,mainlib,119422,356.311,356,506,959,96.4,"Stearic acid, TMS derivative",18748919,333710,DDLPZVTUKLKVQB-UHFFFAOYSA-N
#36 299.0000@9.8403 MS1+,,1,replib,41975,314.095,314,281,963,82.6,"Silanol, trimethyl-, phosphate (3:1)",10497059,334839,QJMMCGKXBZVAEI-UHFFFAOYSA-N
#38 74.1000@17.7597 MS1+,,1,mainlib,56253,270.256,270,192,960,73.7,"Hexadecanoic acid, methyl ester",112390,333716,FLIACVVOZYBSBS-UHFFFAOYSA-N
#39 129.0000@27.6368 MS1+,,1,mainlib,140030,458.394,458,335,979,88.6,"Cholesterol, TMS derivative",1856059,332886,CBVJJGRSRFXUPK-OCBUSCMESA-N
#40 73.1000@16.8901 MS1+,,1,mainlib,50985,452.227,452,477,978,80.8,"1,5-Anhydroglucitol, 4TMS derivative",82682675,380138,BKZSHWBRUJTUIK-UHFFFAOYSA-N
#42 147.0000@9.4400 MS1+,,1,replib,29519,204.111,204,320,948,90,"Urea, 2TMS derivative",18297637,78870,MASDFXZJIDNRTR-UHFFFAOYSA-N
#43 147.0000@8.2579 MS1+,,1,replib,29333,248.126,248,513,951,90.1,"3-Hydroxybutyric acid, 2TMS derivative",55133943,71674,YWRIHOYCAHATJN-UHFFFAOYSA-N
#45 144.0000@9.0460 MS1+,,1,mainlib,164267,261.158,261,146,962,56.8,"L-Valine, 2TMS derivative",7364445,153053,UJMRIWMQZDBOTB-JTQLQIEISA-N
#46 73.1000@16.5211 MS1+,,1,replib,12683,480.185,480,467,923,97,"Citric acid, 4TMS derivative",14330973,71548,VFGAVMGYDWDESE-UHFFFAOYSA-N
#47 73.1000@20.4495 MS1+,,1,replib,13216,352.28,352,473,929,69.3,"9,12-Octadecadienoic acid (Z,Z)-, TMS derivative",56259075,333210,MXGBYOVWUYSJSN-UTJQPWESSA-N
#49 502.4000@27.5178 MS1+,,1,mainlib,305658,502.421,502,922,983,98.1,".alpha.-Tocopherol, TMS derivative",52760335,374714,MJWXSUWKOCZGBM-NCLPYWGKSA-N
#51 147.0000@8.2891 MS1+,,1,replib,41366,384.146,384,445,940,71.7,"Pentasiloxane, dodecamethyl-",141639,52160,FBZANXDWQAVSTQ-UHFFFAOYSA-N
#53 221.0000@5.7244 MS1+,,1,replib,12605,278.136,278,298,920,89.2,"Boric acid, 3TMS derivative",4325853,366615,YZYKZHPNRDIPFA-UHFFFAOYSA-N
#54 73.1000@16.0770 MS1+,,1,replib,30959,362.188,362,671,942,97.8,"L-Glutamine, 3TMS derivative",70591285,414648,KQLPBEWWXARCMA-UHFFFAOYSA-N
#55 218.0000@17.8160 MS1+,,1,replib,38129,397.192,397,248,960,87.8,"L-Tyrosine, 3TMS derivative",51220736,79269,WMWBCQXPKSQMOK-KRWDZBQOSA-N
#56 129.1000@24.7092 MS1+,,1,mainlib,140012,502.387,502,388,938,86.4,"2-Monostearin, 2TMS derivative",53336133,18149,FSYBYYSILBLSBF-UHFFFAOYSA-N
#58 156.0000@13.1683 MS1+,,1,replib,30951,273.122,273,255,972,53.4,"L-5-Oxoproline, 2TMS",30274772,24195,QACGFKAUSXGLCU-VIFPVBQESA-N
#59 73.1000@17.9473 MS1+,,1,mainlib,54954,836.405,836,-297,876,10.2,".beta.-D-Glucopyranose, 1-[10-hydrogen (2E,4E)-8-hydroxy-2,7-dimethyl-2,4-decadienedioate]",0,481070,JTPHZTVFWCCQBH-LPDALGQBSA-N
#60 116.0000@7.4509 MS1+,,1,mainlib,118504,219.147,219,-278,835,42.6,"2-(Methylamino)ethanol, N,O-bis(trimethylsilyl)-",74982846,473058,TXTMGKHRPKCQBE-UHFFFAOYSA-N
#61 174.0000@10.3283 MS1+,,1,replib,33559,291.151,291,146,970,61.3,"Glycine, 3TMS derivative",5630820,452907,YVBMCPFZLGEMJT-UHFFFAOYSA-N
#62 441.1000@19.3611 MS1+,,1,replib,12859,456.186,456,122,831,88.7,"9H-Purine, 9-(trimethylsilyl)-2,6,8-tris[(trimethylsilyl)oxy]-",959230898,465870,AFJHZOLZVMKSLY-UHFFFAOYSA-N
#63 329.3000@27.6304 MS1+,,1,replib,26081,458.394,458,-117,864,82.5,"Cholesterol, TMS derivative",1856059,424223,CBVJJGRSRFXUPK-OCBUSCMESA-N
#64 72.1000@7.3071 MS1+,,1,mainlib,46087,189.119,189,255,979,85.6,"L-Valine, TMS derivative",7480786,333278,IJGIMCZHMYSSHY-ZETCQYMHSA-N
#65 73.1000@7.7700 MS1+,,1,replib,26330,248.126,248,197,978,78.1,"2-Hydroxybutyric acid, 2TMS",55133932,449857,NSEFDIGCPFOEIV-UHFFFAOYSA-N
#67 73.1000@17.6346 MS1+,,1,mainlib,51716,434.264,434,316,924,81,"L-Lysine, 4TMS derivative",55429077,465716,NAMWUGJQNPIVND-KRWDZBQOSA-N
#68 142.0000@10.2221 MS1+,,1,replib,12776,444.113,444,126,804,96.2,"Cyclohexasiloxane, dodecamethyl-",540976,52166,IUMSDRXLFWAGNT-UHFFFAOYSA-N
#69 73.1000@6.7252 MS1+,,1,mainlib,51708,189.082,189,278,884,88.1,"Propanoic acid, 2-(methoxyimino)-, trimethylsilyl ester",55493920,24277,RDATZQIINHXKAG-SOFGYWHQSA-N
#70 73.1000@17.1591 MS1+,,1,mainlib,50965,569.288,569,-359,834,16.6,"d-Galactose, 2,3,4,5,6-pentakis-O-(trimethylsilyl)-, o-methyloxyme, (1Z)-",128705715,380331,LLVFXXKDPAPSCJ-QJOMJCCJSA-N
#71 73.1000@19.2421 MS1+,,1,replib,12341,612.301,612,285,977,83.8,"Myo-Inositol, 6TMS",2582798,380339,FRTKXRNTVMCAKI-HPEVMFQJSA-N
#72 73.1000@18.7105 MS1+,,1,mainlib,49898,326.264,326,481,961,51.6,"Palmitelaidic acid, TMS",1206693357,473503,UNUADFKHVGBUHA-ZHACJKMWSA-N
#73 158.1000@10.1407 MS1+,,1,replib,31191,275.174,275,207,965,51.9,"L-Isoleucine, 2TMS derivative",7483923,414645,JQJPJSDLFYVVEY-QWRGUYRKSA-N
#74 73.1000@17.1966 MS1+,,1,mainlib,51104,569.288,569,101,959,21.3,"d-Glucose, 2,3,4,5,6-pentakis-O-(trimethylsilyl)-, o-methyloxyme, (1Z)-",128705737,380329,LLVFXXKDPAPSCJ-QJOMJCCJSA-N
#78 73.1000@11.3605 MS1+,,1,mainlib,49984,335.177,335,606,965,97.2,"L-Threonine, 3TMS derivative",7537022,333257,GTYBQDCOPQDAPP-NEPJUHHUSA-N
#81 73.1000@10.1595 MS1+,,1,mainlib,49928,263.137,263,976,957,95.5,"L-Threonine, 2TMS derivative",7536825,333256,CKXHAGKHQXMUJP-BDAKNGLRSA-N
#83 129.0000@24.7093 MS1+,,1,mainlib,140012,502.387,502,445,938,88.9,"2-Monostearin, 2TMS derivative",53336133,18149,FSYBYYSILBLSBF-UHFFFAOYSA-N
#84 73.1000@9.0147 MS1+,,1,mainlib,52216,231.129,231,202,876,91.8,2-Ketoisocaproic acid mo-tms,0,332234,OWRQZYHPMBQGDO-LUAWRHEFSA-N
#87 263.1000@13.4122 MS1+,,1,mainlib,269239,278.138,278,133,930,63.1,"3-Deazaadenine, 2TMS",0,499659,MBYQMJHICIDWGN-UHFFFAOYSA-N
#88 73.1000@13.5498 MS1+,,1,replib,12387,424.195,424,-103,828,86.3,"2,3,4-Trihydroxybutyric acid tetrakis(trimethylsilyl) deriv., (, (R*,R*)-)",38191887,281735,IEXXQBIANMZJJP-UHFFFAOYSA-N
#93 73.1000@16.9277 MS1+,,1,replib,11926,300.248,300,588,922,96.3,"Myristic acid, TMS derivative",18603173,78974,ZRVCKPDUOGAPSZ-UHFFFAOYSA-N
#94 204.1000@17.7095 MS1+,,1,mainlib,233878,496.253,496,-224,864,27.2,"Ethyl .alpha.-D-glucopyranoside, 4TMS derivative",0,365900,BWIOVUPDSFZRRW-UHFFFAOYSA-N
#95 246.1000@14.3192 MS1+,,1,mainlib,261023,363.172,363,351,976,94,"L-Glutamic acid, 3TMS derivative",15985076,333275,STTWTJDZFSSNFS-LBPRGKRZSA-N
#96 73.1000@8.0827 MS1+,,1,mainlib,50645,247.106,247,-151,817,73.8,"Pyruvic acid oxime, bis(trimethylsilyl)- deriv.",51621444,78885,XHLLDMDODGHULR-CSKARUKUSA-N
#97 67.0000@19.4172 MS1+,,1,mainlib,37902,294.256,294,109,866,15.7,"9,12-Octadecadienoic acid, methyl ester",2462853,158479,WTTJVINHCBCLGX-ZDVGBALWSA-N
#98 158.0000@10.1344 MS1+,,1,replib,31191,275.174,275,195,966,54,"L-Isoleucine, 2TMS derivative",7483923,414645,JQJPJSDLFYVVEY-QWRGUYRKSA-N
#99 73.1000@14.4379 MS1+,,1,mainlib,52674,309.158,309,685,977,79.8,"Phenylalanine, 2TMS derivative",2899527,333658,DWNFNBPPSFIIBG-UHFFFAOYSA-N
#100 246.0000@14.3191 MS1+,,1,mainlib,261023,363.172,363,278,960,92.2,"L-Glutamic acid, 3TMS derivative",15985076,333275,STTWTJDZFSSNFS-LBPRGKRZSA-N
#101 73.1000@18.6104 MS1+,,1,mainlib,233878,496.253,496,-407,811,5.8,"Ethyl .alpha.-D-glucopyranoside, 4TMS derivative",0,365900,BWIOVUPDSFZRRW-UHFFFAOYSA-N
#102 73.1000@8.5206 MS1+,,1,mainlib,49084,231.129,231,228,860,98.1,"Pentanoic acid, 2-(methoxyimino)-3-methyl-, trimethylsilyl ester",55494025,332241,XKLJIDRRSIIYPO-PKNBQFBNSA-N
#103 174.0000@16.9465 MS1+,,1,mainlib,203384,362.224,362,326,960,80.1,"L-Lysine, N6,N6-bis(trimethylsilyl)-, trimethylsilyl ester",0,465860,VMHBNELEAYHIPH-UHFFFAOYSA-N
#104 55.0000@19.4734 MS1+,,1,replib,5815,296.272,296,-138,894,13.8,"9-Octadecenoic acid (Z)-, methyl ester",112629,75995,QYDYPVFESGNLHU-KHPPLWFESA-N
#105 73.1000@15.8954 MS1+,,1,replib,12802,460.172,460,216,920,80.5,"Phosphoric acid, bis(trimethylsilyl) 2,3-bis[(trimethylsilyl)oxy]propyl ester",31038116,79108,OSNKBCBCOYHYNF-UHFFFAOYSA-N
#106 204.1000@11.0288 MS1+,,1,mainlib,233995,321.161,321,529,979,89,"Serine, 3TMS derivative",64625178,333286,MBEDINMZZORSJN-NSHDSACASA-N
#107 73.1000@6.9191 MS1+,,1,replib,29319,274.106,274,-275,808,45,"Itaconic acid, 2TMS derivative",55494047,30814,IYEWOPPVIQNFQO-UHFFFAOYSA-N
#114 147.0000@10.4534 MS1+,,1,mainlib,167920,262.106,262,242,914,65.4,"Butanedioic acid, 2TMS derivative",40309577,352519,QUUDZINXVRFXLB-UHFFFAOYSA-N
#118 79.1000@20.9186 MS1+,,1,replib,13882,318.256,318,201,947,52.7,"5,8,11,14-Eicosatetraenoic acid, methyl ester, (all-Z)-",2566894,336260,OFIDNKMQBYGNIW-ZKWNWVNESA-N
#120 241.0000@8.5017 MS1+,,1,replib,39606,256.072,256,542,922,93.1,"Phosphoric acid, bis(trimethylsilyl)monomethyl ester",18291811,298482,ZHSASVIHJYLKSZ-UHFFFAOYSA-N
#122 129.1000@23.2643 MS1+,,1,replib,26068,474.356,474,336,947,89.4,"2-Palmitoylglycerol, 2TMS derivative",53212978,414382,JQFYQTQNUWQLQV-UHFFFAOYSA-N
#126 218.1000@17.8095 MS1+,,1,replib,38128,397.192,397,405,952,90.8,"L-Tyrosine, 3TMS derivative",51220736,79168,WMWBCQXPKSQMOK-KRWDZBQOSA-N
#128 147.0000@7.0881 MS1+,,1,mainlib,167894,220.095,220,477,971,86.5,"Glycolic acid, 2TMS derivative",33581770,352446,MAEQOWMWOCEXKP-UHFFFAOYSA-N
#131 73.1000@19.8363 MS1+,,1,mainlib,49893,342.295,342,140,823,93.8,"Heptadecanoic acid, TMS derivative",55517583,79015,KCEZRIREPDDPDI-UHFFFAOYSA-N
#132 427.3000@26.3169 MS1+,,1,replib,43577,530.419,530,130,855,75.9,"2,3-Dihydroxypropyl icosanoate, 2TMS derivative",55517947,153825,KIQRTLCOMLAEFH-UHFFFAOYSA-N
#139 204.0000@11.0228 MS1+,,1,mainlib,233995,321.161,321,454,938,90,"Serine, 3TMS derivative",64625178,333286,MBEDINMZZORSJN-NSHDSACASA-N
#141 73.1000@12.6990 MS1+,,1,replib,12361,350.14,350,572,932,96.5,"Malic acid, 3TMS derivative",38166119,79021,QCOBWZRPFJZHGU-UHFFFAOYSA-N
#143 290.1000@16.6211 MS1+,,1,mainlib,53868,407.162,407,-151,811,84,"2,2',2''-Nitrilotriacetic acid, 3TMS derivative",0,492484,MOGXXLTUOURGPM-UHFFFAOYSA-N
#144 57.1000@9.9655 MS1+,,1,mainlib,28008,268.313,268,-151,897,11.4,Nonadecane,629925,151324,LQERIDTXQFOHKA-UHFFFAOYSA-N
#145 155.0000@6.0184 MS1+,,1,mainlib,48575,170.113,170,298,919,92,"2-Trimethylsiloxy-4-methyl-1,3-pentadiene",0,424825,DKSBCCBPNYPGQP-UHFFFAOYSA-N
#146 73.1000@7.8200 MS1+,,1,mainlib,296357,370.094,370,441,917,87.7,"Cyclopentasiloxane, decamethyl-",541026,133340,XMSXQFUHVRWGNA-UHFFFAOYSA-N
#147 179.0000@9.5776 MS1+,,1,replib,34132,194.076,194,600,973,77.2,"Benzoic Acid, TMS derivative",2078128,149534,VFFKJOXNCSJSAQ-UHFFFAOYSA-N
#152 73.1000@13.3495 MS1+,,1,replib,12387,424.195,424,413,910,90,"2,3,4-Trihydroxybutyric acid tetrakis(trimethylsilyl) deriv., (, (R*,R*)-)",38191887,281735,IEXXQBIANMZJJP-UHFFFAOYSA-N
#153 488.3000@26.5358 MS1+,,1,mainlib,305422,488.405,488,801,941,72.9,".gamma.-Tocopherol, TMS derivative",2733279,374720,PQZJQAFFNUIVLK-UHFFFAOYSA-N
#154 73.1000@21.8193 MS1+,,1,replib,11901,376.28,376,242,911,72.7,"Arachidonic acid, TMS derivative",113516180,141485,WKCGHSAPDCPZBQ-SNPVRQPZSA-N
#157 57.1000@12.8118 MS1+,,1,replib,7426,212.25,212,-217,873,13.2,Pentadecane,629629,107761,YCOZIPAWZNQLMR-UHFFFAOYSA-N
#158 73.1000@12.9055 MS1+,,1,replib,12555,410.216,410,189,941,41.2,"Erythritol, 4TMS derivative",25258020,17155,ZBFVOPVQUXWTHM-IYBDPMFKSA-N
#162 290.1000@14.8760 MS1+,,1,replib,41703,407.271,407,229,929,48.5,"1-Propanamine, 2-[(trimethylsilyl)oxy]-N,N-bis[2-[(trimethylsilyl)oxy]propyl]-",92916386,483186,JMRVEDKWNCINKB-UHFFFAOYSA-N
#163 71.1000@6.3500 MS1+,,1,mainlib,8642,156.188,156,101,952,46.8,"Nonane, 2,6-dimethyl-",17302282,61438,MGNGOEWESNDQAN-UHFFFAOYSA-N
#164 123.0000@6.6313 MS1+,,1,mainlib,130652,180.074,180,625,904,95.4,(4-Chlorobutoxy)trimethylsilane,13617191,503163,UPYSACBOPSZOMB-UHFFFAOYSA-N
#166 73.1000@14.9009 MS1+,,1,replib,12130,348.172,348,181,860,82.3,"Asparagine, 3TMS derivative",55649622,79173,XENSVLLMVLKHGJ-NSHDSACASA-N
#167 84.1000@13.2934 MS1+,,1,mainlib,67515,291.132,291,341,864,97.7,"L-Glutamic acid, bis(trimethylsilyl) ester",5269432,465340,XEXSIZUUTRLQLP-UHFFFAOYSA-N
#169 385.2000@24.2590 MS1+,,1,mainlib,300247,488.372,488,367,895,81.4,"Heptadecanoic acid, glycerine-(1)-monoester, bis-O-trimethylsilyl-",0,153632,BOADCSKKOPZYCS-UHFFFAOYSA-N
#171 217.1000@21.4065 MS1+,,1,replib,38053,604.267,604,637,956,93.3,Pseudo uridine penta-tms,53294250,465881,XHLZQKAETJELAB-UHFFFAOYSA-N
#172 174.0000@15.8516 MS1+,,1,mainlib,203209,348.208,348,473,901,82.9,"DL-Ornithine, 3TMS derivative",0,333141,DWBDHQORSKFVMK-UHFFFAOYSA-N
#175 79.1000@22.5886 MS1+,,1,mainlib,61009,342.256,342,-107,925,35.1,"4,7,10,13,16,19-Docosahexaenoic acid, methyl ester, (all-Z)-",2566907,333233,VCDLWFYODNTQOT-JDPCYWKWSA-N
#178 73.1000@10.9100 MS1+,,1,mainlib,49993,336.161,336,515,951,53,"2,3-Dihydroxybutanoic acid tritms",71294309,465390,UFQZVEYAONLNKN-UHFFFAOYSA-N
#179 129.0000@23.2582 MS1+,,1,replib,26068,474.356,474,256,926,87.8,"2-Palmitoylglycerol, 2TMS derivative",53212978,414382,JQFYQTQNUWQLQV-UHFFFAOYSA-N
#190 73.1000@24.7968 MS1+,,1,replib,25966,500.372,500,191,849,73.1,"1-Monooleoylglycerol, 2TMS derivative",54284478,465176,NWNDCIXVALUZHH-FOCLMDBBSA-N
#192 73.1000@7.5949 MS1+,,1,replib,12215,249.14,249,685,972,98.8,"Hydroxylamine, 3TMS derivative",21023201,79547,WEFDIXZMPUWSQQ-UHFFFAOYSA-N
#194 73.1000@10.7849 MS1+,,1,mainlib,49994,336.161,336,447,919,49.9,"(R*,S*)-2,3-Dihydroxybutanoic acid, tris(trimethylsilyl) deriv.",38165912,99895,UFQZVEYAONLNKN-UHFFFAOYSA-N
#195 73.1000@10.2219 MS1+,,1,replib,12776,444.113,444,909,976,97.7,"Cyclohexasiloxane, dodecamethyl-",540976,52166,IUMSDRXLFWAGNT-UHFFFAOYSA-N
#197 176.0000@13.1244 MS1+,,1,replib,33753,293.13,293,261,855,96.7,"L-Methionine, 2TMS derivative",27844106,283858,JATQZWJTOMUJCG-JTQLQIEISA-N
#198 57.1000@9.0772 MS1+,,1,mainlib,27925,184.219,184,-107,925,22.5,"Dodecane, 6-methyl-",6044719,60727,GQIFTXJDMHDJFL-UHFFFAOYSA-N
#199 73.1000@18.3601 MS1+,,1,replib,12772,628.295,628,229,929,78.8,"D-Gluconic acid, 6TMS",34290523,99903,IVIMVRAMMWQMHJ-BXXSPATCSA-N
#200 57.1000@6.2499 MS1+,,1,replib,7282,156.188,156,-217,874,17.7,"Decane, 5-methyl-",13151354,5260,QUYFPNWYGLFQQU-UHFFFAOYSA-N
#201 207.0000@6.4001 MS1+,,1,replib,12561,310.127,310,224,906,53.7,"Tetrasiloxane, decamethyl-",141628,14710,YFCGDEUVHLPRCZ-UHFFFAOYSA-N
#207 147.0000@8.7894 MS1+,,1,mainlib,167919,189.101,189,330,963,81.2,"Formamide, 2TMS derivative",15500604,368600,FRCLVJBDJNNNGI-UHFFFAOYSA-N
#208 57.1000@17.6031 MS1+,,1,mainlib,28008,268.313,268,-283,860,8,Nonadecane,629925,151324,LQERIDTXQFOHKA-UHFFFAOYSA-N
#209 73.1000@23.3518 MS1+,,1,mainlib,48930,400.28,400,112,881,55.6,"Doconexent, TMS derivative",0,333238,WKGLYXNPWPPKPA-WSDBEMKQSA-N
#210 57.1000@19.6550 MS1+,,1,replib,7722,254.297,254,-297,873,10.4,Octadecane,593453,233832,RZJRJXONCZWCBN-UHFFFAOYSA-N
#211 71.1000@15.8269 MS1+,,1,mainlib,28008,268.313,268,-151,894,14.6,Nonadecane,629925,151324,LQERIDTXQFOHKA-UHFFFAOYSA-N
#213 361.1000@24.5779 MS1+,,1,mainlib,297315,947.459,947,101,959,40.4,"Maltose, octakis(trimethylsilyl) ether, methyloxime (isomer 1)",0,380101,KNAZTEWBFRPMHZ-DZTJYMNTSA-N
#219 204.1000@30.4828 MS1+,,1,mainlib,234604,947.459,947,-134,906,16,".beta.-Gentiobiose, octakis(trimethylsilyl) ether, methyloxime (isomer 1)",0,380109,IBUWRFQPAQWUEY-DZTJYMNTSA-N
#222 75.0000@11.1041 MS1+,,1,mainlib,242181,230.17,230,103,898,74.8,"Nonanoic acid, TMS derivative",82326112,333729,ISTGUORKGWWKMI-UHFFFAOYSA-N
#223 73.1000@14.4381 MS1+,,1,mainlib,52674,309.158,309,587,957,76.7,"Phenylalanine, 2TMS derivative",2899527,333658,DWNFNBPPSFIIBG-UHFFFAOYSA-N
#224 75.0000@12.3802 MS1+,,1,replib,11916,244.186,244,109,868,87.5,"Decanoic acid, TMS derivative",55494150,30804,FGTNBYWFNITQJR-UHFFFAOYSA-N
#227 57.1000@23.2205 MS1+,,1,replib,7748,296.344,296,-503,827,9.3,Heneicosane,629947,107569,FNAZRRHPUDJQCJ-UHFFFAOYSA-N
#230 207.0000@6.6501 MS1+,,1,replib,37232,310.127,310,-105,851,75,"Tetrasiloxane, decamethyl-",141628,52159,YFCGDEUVHLPRCZ-UHFFFAOYSA-N
#231 343.2000@28.3435 MS1+,,1,mainlib,139734,472.41,472,290,895,72.1,"Campesterol, TMS derivative",55429624,331835,VWYCDHUXOZENHE-LMEMRWRUSA-N
#233 129.1000@28.9817 MS1+,,1,mainlib,141555,486.426,486,193,854,54.5,".beta.-Sitosterol, TMS derivative",2625469,331677,XEWVATFZTBNDCF-UHFFFAOYSA-N
#234 369.3000@22.4199 MS1+,,1,replib,23058,384.342,384,152,830,91,"Arachidic acid, TMS derivative",55530706,414252,AYSGFBVOWSXJCN-UHFFFAOYSA-N
#235 299.0000@16.3896 MS1+,,1,mainlib,54893,474.151,474,-158,844,70,"3,5-Dioxa-4-phospha-2-silaoctan-8-oic acid, 2,2-dimethyl-4,7-bis[(trimethylsilyl)oxy]-, trimethylsilyl ester, 4-oxide",31038138,32108,PDUHJJDSOWNSBM-UHFFFAOYSA-N
#236 71.1000@21.5065 MS1+,,1,replib,7409,380.438,380,-184,902,7.2,Heptacosane,593497,150574,BJQWYEJQWHSSCJ-UHFFFAOYSA-N
#239 73.1000@16.1206 MS1+,,1,replib,43586,666.169,666,199,892,89.2,"Cyclononasiloxane, octadecamethyl-",556718,336588,ISXOGOLHEGHGQF-UHFFFAOYSA-N