Unknown,uInChIKey,Rank,Library,Id,Mass,Lib MW,InLib,MF,Prob(%),Name,CAS,NIST r.n.,InChIKey
#1 73.1000@7.0131 MS1+,,1,replib,29328,234.111,234,195,962,61.4,"Lactic Acid, 2TMS derivative",17596962,331664,HXRGKEOWDNVHPA-UHFFFAOYSA-N
#2 73.0000@18.1350 MS1+,,1,mainlib,52337,438.211,438,-148,959,6.3,"D-Xylose, 4TMS derivative",18623228,79228,KEOUSSOURMHEKN-UHFFFAOYSA-N
#3 73.1000@7.0258 MS1+,,1,replib,12155,220.131,220,-138,877,65.4,"Propylene glycol, 2TMS derivative",17887273,149404,KNPUTZLNTMEYOY-UHFFFAOYSA-N
#4 73.0000@18.1787 MS1+,,1,mainlib,52324,918.432,918,-151,900,8.4,"3-.alpha.-Mannobiose, octakis(trimethylsilyl) ether (isomer 2)",0,380096,WXJNZFSBOWRWBP-UHFFFAOYSA-N
#5 299.0000@10.0158 MS1+,,1,replib,41975,314.095,314,416,971,87.4,"Silanol, trimethyl-, phosphate (3:1)",10497059,334839,QJMMCGKXBZVAEI-UHFFFAOYSA-N
#6 73.0000@9.9029 MS1+,,1,replib,12335,308.166,308,120,884,59.1,"Glycerol, 3TMS derivative",6787106,78985,JQUGYGVCECHKBA-UHFFFAOYSA-N
#7 299.0000@10.0031 MS1+,,1,replib,41975,314.095,314,356,983,89.5,"Silanol, trimethyl-, phosphate (3:1)",10497059,334839,QJMMCGKXBZVAEI-UHFFFAOYSA-N
#8 204.0000@18.1348 MS1+,,1,replib,36940,540.261,540,-144,979,9.6,".beta.-D-Glucopyranose, 5TMS derivative",2775908,33803,PPFHNIVPOLWPCF-UHFFFAOYSA-N
#9 299.0000@9.9030 MS1+,,1,replib,41972,314.095,314,347,970,89.2,"Silanol, trimethyl-, phosphate (3:1)",10497059,378727,QJMMCGKXBZVAEI-UHFFFAOYSA-N
#10 73.1000@17.3529 MS1+,,1,mainlib,51104,569.288,569,122,977,23.3,"d-Glucose, 2,3,4,5,6-pentakis-O-(trimethylsilyl)-, o-methyloxyme, (1Z)-",128705737,380329,LLVFXXKDPAPSCJ-QJOMJCCJSA-N
#11 73.1000@17.3468 MS1+,,1,mainlib,51092,569.288,569,120,961,18.3,"D-(+)-Talose, pentakis(trimethylsilyl) ether, methyloxime (syn)",0,380187,LLVFXXKDPAPSCJ-QJOMJCCJSA-N
#12 73.0000@17.5533 MS1+,,1,mainlib,50932,569.288,569,148,971,17.4,"D-(+)-Talose, pentakis(trimethylsilyl) ether, methyloxime (anti)",0,380188,LLVFXXKDPAPSCJ-HAVVHWLPSA-N
#13 290.1000@22.1886 MS1+,,1,mainlib,280239,580.249,580,497,944,95.9,"Edetic Acid, 4TMS derivative",0,366669,CRAGZODMDSNPHZ-UHFFFAOYSA-N
#15 290.1000@22.1573 MS1+,,1,mainlib,280239,580.249,580,454,934,95,"Edetic Acid, 4TMS derivative",0,366669,CRAGZODMDSNPHZ-UHFFFAOYSA-N
#16 290.1000@22.0946 MS1+,,1,mainlib,280239,580.249,580,513,960,96.1,"Edetic Acid, 4TMS derivative",0,366669,CRAGZODMDSNPHZ-UHFFFAOYSA-N
#17 73.1000@17.5657 MS1+,,1,mainlib,51092,569.288,569,120,961,17.3,"D-(+)-Talose, pentakis(trimethylsilyl) ether, methyloxime (syn)",0,380187,LLVFXXKDPAPSCJ-QJOMJCCJSA-N
#18 73.1000@6.9441 MS1+,,1,mainlib,49957,234.111,234,-211,849,46.5,"Lactic Acid, 2TMS derivative",17596962,78865,HXRGKEOWDNVHPA-UHFFFAOYSA-N
#19 290.1000@22.1886 MS1+,,1,mainlib,280239,580.249,580,559,933,95.9,"Edetic Acid, 4TMS derivative",0,366669,CRAGZODMDSNPHZ-UHFFFAOYSA-N
#20 147.0000@9.7967 MS1+,,1,replib,29519,204.111,204,-234,825,59.9,"Urea, 2TMS derivative",18297637,78870,MASDFXZJIDNRTR-UHFFFAOYSA-N
#22 73.0000@7.1009 MS1+,,1,mainlib,49957,234.111,234,195,963,65,"Lactic Acid, 2TMS derivative",17596962,78865,HXRGKEOWDNVHPA-UHFFFAOYSA-N
#23 147.0000@9.8030 MS1+,,1,replib,29520,204.111,204,342,951,90.9,"Urea, 2TMS derivative",18297637,287789,MASDFXZJIDNRTR-UHFFFAOYSA-N
#24 290.1000@22.0822 MS1+,,1,mainlib,280239,580.249,580,513,958,96,"Edetic Acid, 4TMS derivative",0,366669,CRAGZODMDSNPHZ-UHFFFAOYSA-N
#25 319.1000@17.3970 MS1+,,1,mainlib,51092,569.288,569,118,951,20,"D-(+)-Talose, pentakis(trimethylsilyl) ether, methyloxime (syn)",0,380187,LLVFXXKDPAPSCJ-QJOMJCCJSA-N
#27 147.0000@9.8843 MS1+,,1,replib,29520,204.111,204,465,955,94.5,"Urea, 2TMS derivative",18297637,287789,MASDFXZJIDNRTR-UHFFFAOYSA-N
#28 399.3000@24.8719 MS1+,,1,replib,43475,502.387,502,833,979,92.6,"Glycerol monostearate, 2TMS derivative",1188756,408133,DPQSOLLSNCYGEP-UHFFFAOYSA-N
#29 73.1000@17.2968 MS1+,,1,mainlib,51104,569.288,569,-197,876,18.3,"d-Glucose, 2,3,4,5,6-pentakis-O-(trimethylsilyl)-, o-methyloxyme, (1Z)-",128705737,380329,LLVFXXKDPAPSCJ-QJOMJCCJSA-N
#30 73.0000@8.0201 MS1+,,1,replib,12242,234.074,234,120,884,55.7,"Oxalic acid, 2TMS derivative",18294047,78866,DDCDOSJHFOGNRO-UHFFFAOYSA-N
#31 399.3000@24.8783 MS1+,,1,mainlib,301541,502.387,502,796,979,94.1,"Glycerol monostearate, 2TMS derivative",1188756,479358,DPQSOLLSNCYGEP-UHFFFAOYSA-N
#33 73.1000@7.9327 MS1+,,1,replib,26330,248.126,248,197,974,78,"2-Hydroxybutyric acid, 2TMS",55133932,449857,NSEFDIGCPFOEIV-UHFFFAOYSA-N
#34 147.0000@9.7030 MS1+,,1,replib,29520,204.111,204,475,957,95.3,"Urea, 2TMS derivative",18297637,287789,MASDFXZJIDNRTR-UHFFFAOYSA-N
#35 147.0000@9.7277 MS1+,,1,replib,29520,204.111,204,405,953,92.3,"Urea, 2TMS derivative",18297637,287789,MASDFXZJIDNRTR-UHFFFAOYSA-N
#36 73.1000@18.8918 MS1+,,1,mainlib,119420,328.28,328,646,961,98,"Palmitic Acid, TMS derivative",55520893,333711,HKNNSWCACQFVIK-UHFFFAOYSA-N
#37 73.1000@19.3671 MS1+,,1,replib,12859,456.186,456,600,973,95.7,"9H-Purine, 9-(trimethylsilyl)-2,6,8-tris[(trimethylsilyl)oxy]-",959230898,465870,AFJHZOLZVMKSLY-UHFFFAOYSA-N
#38 74.0000@19.6990 MS1+,,1,replib,13033,298.287,298,146,962,65.4,Methyl stearate,112618,379666,HPEUJPJOZXNMSJ-UHFFFAOYSA-N
#39 73.1000@20.6870 MS1+,,1,mainlib,119422,356.311,356,515,957,96.9,"Stearic acid, TMS derivative",18748919,333710,DDLPZVTUKLKVQB-UHFFFAOYSA-N
#40 171.0000@5.7430 MS1+,,1,replib,33167,186.101,186,603,979,96.3,"Silanamine, N,N'-methanetetraylbis[1,1,1-trimethyl-",1000700,150487,KSVMTHKYDGMXFJ-UHFFFAOYSA-N
#41 147.0000@9.6027 MS1+,,1,replib,29520,204.111,204,465,959,94.6,"Urea, 2TMS derivative",18297637,287789,MASDFXZJIDNRTR-UHFFFAOYSA-N
#42 371.2000@23.4393 MS1+,,1,mainlib,298675,474.356,474,692,961,94.3,"1-Monopalmitin, 2TMS derivative",1188745,414375,LUHPQMTVPLRAQA-UHFFFAOYSA-N
#44 73.1000@20.4681 MS1+,,1,replib,11921,354.295,354,484,939,26,"Oleic Acid, (Z)-, TMS derivative",21556263,141484,GAODWSYPSJBKGB-SEYXRHQNSA-N
#47 74.0000@17.7847 MS1+,,1,mainlib,56253,270.256,270,170,965,67.1,"Hexadecanoic acid, methyl ester",112390,333716,FLIACVVOZYBSBS-UHFFFAOYSA-N
#49 147.0000@8.3706 MS1+,,1,replib,29335,248.126,248,467,926,89.5,"3-Hydroxybutyric acid, 2TMS derivative",55133943,332958,YWRIHOYCAHATJN-UHFFFAOYSA-N
#50 174.0000@9.3461 MS1+,,1,replib,33556,277.171,277,-110,941,15.5,"Ethanolamine, 3TMS derivative",5630819,24183,MZTOEZRSUGVLOG-UHFFFAOYSA-N
#51 73.0000@16.5463 MS1+,,1,replib,12683,480.185,480,340,899,96.2,"Citric acid, 4TMS derivative",14330973,71548,VFGAVMGYDWDESE-UHFFFAOYSA-N
#52 319.1000@17.3406 MS1+,,1,mainlib,289121,671.338,671,-157,870,36.2,"Sedoheptulose, o-methyloxime, hexakis-O-(trimethylsilyl)-",0,298662,OEPFPGAZIPKWDG-HPNDGRJYSA-N
#53 129.0000@27.6245 MS1+,,1,mainlib,140030,458.394,458,335,977,87.7,"Cholesterol, TMS derivative",1856059,332886,CBVJJGRSRFXUPK-OCBUSCMESA-N
#54 129.0000@27.6182 MS1+,,1,mainlib,140030,458.394,458,265,935,82,"Cholesterol, TMS derivative",1856059,332886,CBVJJGRSRFXUPK-OCBUSCMESA-N
#55 129.0000@27.5557 MS1+,,1,replib,26081,458.394,458,216,919,82,"Cholesterol, TMS derivative",1856059,424223,CBVJJGRSRFXUPK-OCBUSCMESA-N
#56 144.0000@9.1400 MS1+,,1,mainlib,164267,261.158,261,155,906,50.6,"L-Valine, 2TMS derivative",7364445,153053,UJMRIWMQZDBOTB-JTQLQIEISA-N
#57 73.1000@16.1083 MS1+,,1,replib,30959,362.188,362,609,936,96.7,"L-Glutamine, 3TMS derivative",70591285,414648,KQLPBEWWXARCMA-UHFFFAOYSA-N
#58 75.0000@20.4243 MS1+,,1,replib,13216,352.28,352,165,909,69.5,"9,12-Octadecadienoic acid (Z,Z)-, TMS derivative",56259075,333210,MXGBYOVWUYSJSN-UTJQPWESSA-N
#59 290.0000@22.1070 MS1+,,1,mainlib,280239,580.249,580,519,963,96.4,"Edetic Acid, 4TMS derivative",0,366669,CRAGZODMDSNPHZ-UHFFFAOYSA-N
#61 73.1000@17.1969 MS1+,,1,replib,12573,512.266,512,-334,830,24.8,"Adonitol, 5TMS",32381536,149334,SUZLPERYXSOGNY-ACDBMABISA-N
#66 218.0000@17.8285 MS1+,,1,replib,38129,397.192,397,281,961,88.8,"L-Tyrosine, 3TMS derivative",51220736,79269,WMWBCQXPKSQMOK-KRWDZBQOSA-N
#67 73.0000@5.9245 MS1+,,1,replib,38384,278.136,278,301,927,88.1,"Boric acid, 3TMS derivative",4325853,465221,YZYKZHPNRDIPFA-UHFFFAOYSA-N
#69 73.1000@17.6281 MS1+,,1,mainlib,51716,434.264,434,278,953,90.3,"L-Lysine, 4TMS derivative",55429077,465716,NAMWUGJQNPIVND-KRWDZBQOSA-N
#70 174.0000@10.3786 MS1+,,1,replib,33559,291.151,291,122,975,69.7,"Glycine, 3TMS derivative",5630820,452907,YVBMCPFZLGEMJT-UHFFFAOYSA-N
#71 156.0000@13.2682 MS1+,,1,replib,30951,273.122,273,189,926,81.2,"L-5-Oxoproline, 2TMS",30274772,24195,QACGFKAUSXGLCU-VIFPVBQESA-N
#72 116.0000@7.5888 MS1+,,1,mainlib,118500,233.127,233,-219,859,44.2,"Sarcosine, 2TMS derivative",7364434,79236,NBSLFBORXHPAGU-UHFFFAOYSA-N
#73 147.0000@9.5654 MS1+,,1,mainlib,168874,204.111,204,510,915,95.6,"Urea, 2TMS derivative",18297637,149254,MASDFXZJIDNRTR-UHFFFAOYSA-N
#75 129.0000@24.5966 MS1+,,1,mainlib,140012,502.387,502,327,940,87.4,"2-Monostearin, 2TMS derivative",53336133,18149,FSYBYYSILBLSBF-UHFFFAOYSA-N
#78 72.0000@7.4825 MS1+,,1,mainlib,46087,189.119,189,210,979,85.4,"L-Valine, TMS derivative",7480786,333278,IJGIMCZHMYSSHY-ZETCQYMHSA-N
#79 73.1000@15.9208 MS1+,,1,replib,12802,460.172,460,-133,833,75.4,"Phosphoric acid, bis(trimethylsilyl) 2,3-bis[(trimethylsilyl)oxy]propyl ester",31038116,79108,OSNKBCBCOYHYNF-UHFFFAOYSA-N
#80 73.0000@6.5688 MS1+,,1,replib,37234,310.127,310,106,859,47.1,Methyltris(trimethylsiloxy)silane,17928288,404005,RGMZNZABJYWAEC-UHFFFAOYSA-N
#82 502.4000@27.4118 MS1+,,1,mainlib,305658,502.421,502,1020,980,98.1,".alpha.-Tocopherol, TMS derivative",52760335,374714,MJWXSUWKOCZGBM-NCLPYWGKSA-N
#83 73.0000@17.9535 MS1+,,1,mainlib,52602,466.206,466,-334,827,18,"Talonic acid, .gamma.-lactone, 4TMS",55515316,17883,FTOCXQVQZOFUDF-QZWWFDLISA-N
#84 73.0000@19.2546 MS1+,,1,mainlib,51083,612.301,612,289,983,79.8,"Myo-Inositol, 6TMS",2582798,498263,FRTKXRNTVMCAKI-HPEVMFQJSA-N
#85 158.1000@10.2159 MS1+,,1,replib,31191,275.174,275,207,965,71,"L-Isoleucine, 2TMS derivative",7483923,414645,JQJPJSDLFYVVEY-QWRGUYRKSA-N
#86 73.0000@11.4295 MS1+,,1,mainlib,49984,335.177,335,592,970,97.1,"L-Threonine, 3TMS derivative",7537022,333257,GTYBQDCOPQDAPP-NEPJUHHUSA-N
#87 73.0000@17.9847 MS1+,,1,mainlib,52602,466.206,466,-185,886,10.2,"Talonic acid, .gamma.-lactone, 4TMS",55515316,17883,FTOCXQVQZOFUDF-QZWWFDLISA-N
#88 73.0000@18.8605 MS1+,,1,replib,11923,328.28,328,646,964,94.9,"Palmitic Acid, TMS derivative",55520893,150381,HKNNSWCACQFVIK-UHFFFAOYSA-N
#90 151.9000@6.7380 MS1+,,1,mainlib,177055,209.124,209,-320,806,44.6,"3-Pyridinol, TBDMS derivative",0,373133,SMOBTWLYXIHVJD-UHFFFAOYSA-N
#92 73.1000@10.2406 MS1+,,1,mainlib,49928,263.137,263,1020,977,91.6,"L-Threonine, 2TMS derivative",7536825,333256,CKXHAGKHQXMUJP-BDAKNGLRSA-N
#93 73.1000@18.6982 MS1+,,1,mainlib,49898,326.264,326,526,973,63.8,"Palmitelaidic acid, TMS",1206693357,473503,UNUADFKHVGBUHA-ZHACJKMWSA-N
#96 246.0000@14.3570 MS1+,,1,mainlib,261023,363.172,363,351,974,93.5,"L-Glutamic acid, 3TMS derivative",15985076,333275,STTWTJDZFSSNFS-LBPRGKRZSA-N
#97 73.0000@14.5257 MS1+,,1,mainlib,52674,309.158,309,300,888,51.9,"Phenylalanine, 2TMS derivative",2899527,333658,DWNFNBPPSFIIBG-UHFFFAOYSA-N
#99 158.0000@10.1847 MS1+,,1,replib,31191,275.174,275,195,961,70,"L-Isoleucine, 2TMS derivative",7483923,414645,JQJPJSDLFYVVEY-QWRGUYRKSA-N
#100 147.0000@7.6201 MS1+,,1,replib,29478,162.09,162,-119,872,51.1,"Disiloxane, hexamethyl-",107460,231342,UQEAIHBTYFGYIE-UHFFFAOYSA-N
#101 73.1000@14.9760 MS1+,,1,replib,12130,348.172,348,199,891,74.5,"Asparagine, 3TMS derivative",55649622,79173,XENSVLLMVLKHGJ-NSHDSACASA-N
#102 73.1000@18.6290 MS1+,,1,mainlib,233869,482.237,482,-688,804,5.1,".alpha.-D-Galactopyranoside, methyl 2,3,4,6-tetrakis-O-(trimethylsilyl)-",4133453,25198,UIDVFSCIFIMDHO-SPOLIRPYSA-N
#103 73.1000@13.5997 MS1+,,1,mainlib,51073,424.195,424,429,923,88.6,"2,3,4-Trihydroxybutyric acid tetrakis(trimethylsilyl) deriv., (, (R*,R*)-)",38191887,352533,IEXXQBIANMZJJP-UHFFFAOYSA-N
#108 73.1000@9.1274 MS1+,,1,mainlib,52216,231.129,231,369,900,87.2,2-Ketoisocaproic acid mo-tms,0,332234,OWRQZYHPMBQGDO-LUAWRHEFSA-N
#111 263.1000@13.4875 MS1+,,1,mainlib,269239,278.138,278,133,928,71,"3-Deazaadenine, 2TMS",0,499659,MBYQMJHICIDWGN-UHFFFAOYSA-N
#112 79.0000@20.9250 MS1+,,1,replib,13882,318.256,318,205,959,49.8,"5,8,11,14-Eicosatetraenoic acid, methyl ester, (all-Z)-",2566894,336260,OFIDNKMQBYGNIW-ZKWNWVNESA-N
#117 218.1000@17.8346 MS1+,,1,replib,38128,397.192,397,285,973,81.4,"L-Tyrosine, 3TMS derivative",51220736,79168,WMWBCQXPKSQMOK-KRWDZBQOSA-N
#126 73.1000@11.0916 MS1+,,1,mainlib,233995,321.161,321,609,987,89.3,"Serine, 3TMS derivative",64625178,333286,MBEDINMZZORSJN-NSHDSACASA-N
#127 73.0000@21.7820 MS1+,,1,replib,11901,376.28,376,135,908,57,"Arachidonic acid, TMS derivative",113516180,141485,WKCGHSAPDCPZBQ-SNPVRQPZSA-N
#136 73.0000@8.4017 MS1+,,1,mainlib,50564,262.142,262,-278,837,40,"Pentanoic acid, 2-[(trimethylsilyl)oxy]-, trimethylsilyl ester",55887462,30828,ATDLRMVSNYEHLG-UHFFFAOYSA-N
#139 73.0000@7.7010 MS1+,,1,mainlib,50352,249.14,249,367,899,96.5,"Hydroxylamine, 3TMS derivative",21023201,366588,WEFDIXZMPUWSQQ-UHFFFAOYSA-N
#143 73.0000@17.7284 MS1+,,1,mainlib,233990,438.211,438,-371,817,18.6,".alpha.-Lyxopyranose, 4TMS derivative",56271671,25182,KEOUSSOURMHEKN-UHFFFAOYSA-N
#144 73.1000@10.5285 MS1+,,1,replib,29313,262.106,262,-223,816,32.3,"Butanedioic acid, 2TMS derivative",40309577,30796,QUUDZINXVRFXLB-UHFFFAOYSA-N
#145 373.2000@11.7298 MS1+,,1,replib,43258,430.327,430,-371,811,37.8,"Pregnenolone, TBDMS derivative",-352612,308845,XMTKPEYPGQAHCU-UHFFFAOYSA-N
#154 147.0000@7.2447 MS1+,,1,replib,29346,220.095,220,475,959,84.9,"Glycolic acid, 2TMS derivative",33581770,366880,MAEQOWMWOCEXKP-UHFFFAOYSA-N
#156 290.1000@16.6462 MS1+,,1,mainlib,53868,407.162,407,-148,843,85.3,"2,2',2''-Nitrilotriacetic acid, 3TMS derivative",0,492484,MOGXXLTUOURGPM-UHFFFAOYSA-N
#159 73.1000@23.1706 MS1+,,1,replib,12193,474.356,474,167,918,79.7,"2-Palmitoylglycerol, 2TMS derivative",53212978,17968,JQFYQTQNUWQLQV-UHFFFAOYSA-N
#160 73.0000@7.9514 MS1+,,1,replib,42975,370.094,370,102,874,57.4,"Cyclopentasiloxane, decamethyl-",541026,163612,XMSXQFUHVRWGNA-UHFFFAOYSA-N
#164 73.0000@12.7493 MS1+,,1,replib,12360,350.14,350,367,895,88.8,"Malic acid, 3TMS derivative",38166119,71654,QCOBWZRPFJZHGU-UHFFFAOYSA-N
#170 73.0000@19.7991 MS1+,,1,replib,42571,342.295,342,562,937,97.2,"Heptadecanoic acid, TMS derivative",55517583,414376,KCEZRIREPDDPDI-UHFFFAOYSA-N
#171 152.0000@6.7315 MS1+,,1,mainlib,177132,167.077,167,-259,818,54,"3-Pyridinol, TMS derivative",41571884,352507,KFFLURFUDWDCFK-UHFFFAOYSA-N
#172 155.0000@6.2249 MS1+,,1,mainlib,48575,170.113,170,263,904,90.5,"2-Trimethylsiloxy-4-methyl-1,3-pentadiene",0,424825,DKSBCCBPNYPGQP-UHFFFAOYSA-N
#173 297.2000@30.9085 MS1+,,1,mainlib,282519,312.121,312,-138,895,43.6,"Benzoic acid, 5-methoxy-2-[(trimethylsilyl)oxy]-, trimethylsilyl ester",55517470,24188,GUHTUWJDGSTVMZ-UHFFFAOYSA-N
#176 79.0000@22.5826 MS1+,,1,mainlib,61009,342.256,342,-151,899,29.8,"4,7,10,13,16,19-Docosahexaenoic acid, methyl ester, (all-Z)-",2566907,333233,VCDLWFYODNTQOT-JDPCYWKWSA-N
#179 357.0000@26.6111 MS1+,,1,mainlib,296766,626.362,626,106,849,83.5,"1-Palmitoyllysophosphatidic acid, 3O-TMS",91224281,465418,GZCHCRMPCKFYBX-UHFFFAOYSA-N
#181 427.3000@26.1792 MS1+,,1,replib,43577,530.419,530,196,855,88,"2,3-Dihydroxypropyl icosanoate, 2TMS derivative",55517947,153825,KIQRTLCOMLAEFH-UHFFFAOYSA-N
#184 176.0000@13.1871 MS1+,,1,mainlib,205395,293.13,293,810,914,97.8,"L-Methionine, 2TMS derivative",27844106,333292,JATQZWJTOMUJCG-JTQLQIEISA-N
#186 73.1000@24.6970 MS1+,,1,mainlib,47837,500.372,500,100,807,71.2,"1-Monooleoylglycerol, 2TMS derivative",54284478,79363,NWNDCIXVALUZHH-FOCLMDBBSA-N
#187 73.1000@23.3084 MS1+,,1,mainlib,48930,400.28,400,144,955,64.8,"Doconexent, TMS derivative",0,333238,WKGLYXNPWPPKPA-WSDBEMKQSA-N
#189 217.1000@21.3753 MS1+,,1,replib,38053,604.267,604,582,914,93.2,Pseudo uridine penta-tms,53294250,465881,XHLZQKAETJELAB-UHFFFAOYSA-N
#195 73.1000@12.9617 MS1+,,1,replib,12555,410.216,410,-133,836,27.5,"Erythritol, 4TMS derivative",25258020,17155,ZBFVOPVQUXWTHM-IYBDPMFKSA-N
#196 73.1000@16.2021 MS1+,,1,mainlib,283266,429.177,429,407,880,97.6,"Phosphorylethanolamine, 4TMS derivative",55334924,24335,ORSZFZUDJBISJA-UHFFFAOYSA-N
#199 57.0000@15.3516 MS1+,,1,replib,7402,282.329,282,-124,917,13.2,Eicosane,112958,149863,CBFCDTFDPHXCNY-UHFFFAOYSA-N
#201 57.1000@12.8428 MS1+,,1,replib,7393,254.297,254,-110,947,13.2,Octadecane,593453,150555,RZJRJXONCZWCBN-UHFFFAOYSA-N
#203 488.4000@26.4422 MS1+,,1,mainlib,305422,488.405,488,1272,972,66.8,".gamma.-Tocopherol, TMS derivative",2733279,374720,PQZJQAFFNUIVLK-UHFFFAOYSA-N
#205 123.0000@6.8003 MS1+,,1,mainlib,130652,180.074,180,152,837,94.2,(4-Chlorobutoxy)trimethylsilane,13617191,503163,UPYSACBOPSZOMB-UHFFFAOYSA-N
#206 73.0000@10.9852 MS1+,,1,mainlib,49993,336.161,336,454,934,56.1,"2,3-Dihydroxybutanoic acid tritms",71294309,465390,UFQZVEYAONLNKN-UHFFFAOYSA-N
#212 73.0000@24.4966 MS1+,,1,mainlib,297315,947.459,947,102,962,37.6,"Maltose, octakis(trimethylsilyl) ether, methyloxime (isomer 1)",0,380101,KNAZTEWBFRPMHZ-DZTJYMNTSA-N
#213 84.0000@13.3685 MS1+,,1,mainlib,67515,291.132,291,109,801,95.3,"L-Glutamic acid, bis(trimethylsilyl) ester",5269432,465340,XEXSIZUUTRLQLP-UHFFFAOYSA-N
#218 385.2000@24.1587 MS1+,,1,mainlib,300247,488.372,488,256,875,88.1,"Heptadecanoic acid, glycerine-(1)-monoester, bis-O-trimethylsilyl-",0,153632,BOADCSKKOPZYCS-UHFFFAOYSA-N
#219 79.0000@21.0750 MS1+,,1,replib,13879,320.272,320,-234,827,27,"8,11,14-Eicosatrienoic acid, methyl ester",17364328,336381,QHATYOWJCAQINT-SPOHZTNBSA-N
#221 73.0000@10.8790 MS1+,,1,mainlib,49994,336.161,336,519,961,63.5,"(R*,S*)-2,3-Dihydroxybutanoic acid, tris(trimethylsilyl) deriv.",38165912,99895,UFQZVEYAONLNKN-UHFFFAOYSA-N
#223 73.1000@6.5127 MS1+,,1,replib,37234,310.127,310,103,837,51.4,Methyltris(trimethylsiloxy)silane,17928288,404005,RGMZNZABJYWAEC-UHFFFAOYSA-N
#224 57.0000@19.6364 MS1+,,1,mainlib,28008,268.313,268,-184,902,6.5,Nonadecane,629925,151324,LQERIDTXQFOHKA-UHFFFAOYSA-N
#227 71.1000@17.6098 MS1+,,1,replib,7439,268.313,268,-359,837,15.7,Nonadecane,629925,429230,LQERIDTXQFOHKA-UHFFFAOYSA-N
#228 204.1000@30.1640 MS1+,,1,mainlib,234003,947.459,947,-124,911,12.8,"D-(+)-Cellobiose, octakis(trimethylsilyl) ether, methyloxime (isomer 1)",0,380100,KNAZTEWBFRPMHZ-DZTJYMNTSA-N
#229 385.1000@24.1528 MS1+,,1,mainlib,300247,488.372,488,418,897,81.4,"Heptadecanoic acid, glycerine-(1)-monoester, bis-O-trimethylsilyl-",0,153632,BOADCSKKOPZYCS-UHFFFAOYSA-N
#230 290.0000@14.9010 MS1+,,1,mainlib,280244,407.271,407,237,935,64,"1-Propanamine, 2-[(trimethylsilyl)oxy]-N,N-bis[2-[(trimethylsilyl)oxy]propyl]-",92916386,473369,JMRVEDKWNCINKB-UHFFFAOYSA-N
#236 73.1000@14.8199 MS1+,,1,mainlib,49503,481.253,481,-258,856,17.5,"D-Arabinose, tetrakis(trimethylsilyl) ether, ethyloxime (isomer 1)",0,394648,YYIQZXTZUAQYPO-HMMYKYKNSA-N
#237 217.0000@22.7828 MS1+,,1,mainlib,243425,438.211,438,-334,824,39.5,"Arabinofuranose, 1,2,3,5-tetrakis-O-(trimethylsilyl)-",55399490,17577,LDFPXMNJVPETIY-UHFFFAOYSA-N
#244 204.0000@30.1639 MS1+,,1,mainlib,297315,947.459,947,-151,897,14.3,"Maltose, octakis(trimethylsilyl) ether, methyloxime (isomer 1)",0,380101,KNAZTEWBFRPMHZ-DZTJYMNTSA-N
#246 129.0000@28.2935 MS1+,,1,mainlib,139734,472.41,472,200,908,80.8,"Campesterol, TMS derivative",55429624,331835,VWYCDHUXOZENHE-LMEMRWRUSA-N
#247 129.0000@28.8818 MS1+,,1,mainlib,141554,486.426,486,245,897,77.9,"Stigmast-5-ene, 3.beta.-(trimethylsiloxy)-, (24S)-",25873567,414396,XEWVATFZTBNDCF-HCSYNDFISA-N
#248 57.0000@7.2572 MS1+,,1,replib,10482,254.149,254,-359,833,5.4,"2,6-Dimethyl-6-trifluoroacetoxyoctane",61986672,215969,MQDOLKQRKBPOBK-UHFFFAOYSA-N