> MSPepSearch ver. 0.96 build Fri Feb 22 13:22:10 2019. Started 05/05/22 at 12:17:43. Command line:
> C:\MSPepSearch\2019_02_22_MSPepSearch_x64\MSPepSearch64.exe  Q /MAIN C:\NIST20\MSSEARCH\mainlib /REPL C:\NIST20\MSSEARCH\replib /MinMF 800 /MinInt 50 /HITS 1 /OutChemForm /OutCASrn /OutMW /OutIK /INP C:\Users\yliao13\Desktop\New_folder\nist_mspepsearch_files\msp_files\ST000965.msp /OUTTAB C:\Users\yliao13\Desktop\New_folder\nist_mspepsearch_files\st000965.tsv
>
Unknown	uInChIKey	Rank	Library	Id	Mass	Lib MW	InLib	MF	Prob(%)	Name	Charge	Formula	FlankRes	Mods	Pep	CAS	InChIKey	Nreps	Tfratio	Protein
#1 221.0900@4.1873 MS1+		1	mainlib	246738	320.202	320	-135	869	67.2	1,3,5-Trisiloxane, 1,1,3,3,5,5-hexamethyl-1,5-di(tert.butyl)-		C14H36O2Si3				0	IMLREYFJPXWLCY-UHFFFAOYSA-N			
#2 147.0600@6.1139 MS1+		1	replib	29531	290.173	290	251	965	87.5	Bis(tert-butyldimethylsilyl) carbonate		C13H30O3Si2				39981925	IJWRJTUXZVVLND-UHFFFAOYSA-N			
#3 145.0600@7.6903 MS1+		1	replib	11950	202.103	202	-113	939	11.2	2-Ketoisocaproic acid, TMS derivative		C9H18O3Si				74367718	MCPFMKJHOFUFFW-UHFFFAOYSA-N			
#4 260.1900@9.0726 MS1+		1	mainlib	216914	345.252	345	-186	808	39.7	L-Norvaline, N-(tert.-butyldimethylsilyl)-, tert.-butyldimethylsilyl ester		C17H39NO2Si2				0	XATDKTHYOZZXNB-UHFFFAOYSA-N			
#5 313.2700@15.6597 MS1+		1	mainlib	287328	370.327	370	146	970	69.2	Palmitic Acid, TBDMS derivative		C22H46O2Si				58160875	GPNFTJMLPUJTAA-UHFFFAOYSA-N			
#6 341.3000@17.3235 MS1+		1	mainlib	293847	398.358	398	195	968	34.0	Stearic acid, TBDMS derivative		C24H50O2Si				87020517	KQJVBEYMSUXDQG-UHFFFAOYSA-N			
#7 271.2200@20.0510 MS1+		1	mainlib	289476	466.272	466	1143	930	93.2	HEPES, 2TBDMS derivative		C20H46N2O4SSi2				0	BBEMAFORIXFEJT-UHFFFAOYSA-N			
#8 271.2200@20.0822 MS1+		1	mainlib	289476	466.272	466	224	841	97.9	HEPES, 2TBDMS derivative		C20H46N2O4SSi2				0	BBEMAFORIXFEJT-UHFFFAOYSA-N			
#9 221.1000@4.1936 MS1+		1	mainlib	246738	320.202	320	375	903	47.5	1,3,5-Trisiloxane, 1,1,3,3,5,5-hexamethyl-1,5-di(tert.butyl)-		C14H36O2Si3				0	IMLREYFJPXWLCY-UHFFFAOYSA-N			
#10 383.1800@12.0378 MS1+		1	mainlib	300047	440.236	440	150	988	50.0	Phosphoric acid, tris(tert-butyldimethylsilyl) ester		C18H45O4PSi3				85197280	XKIUTLXREGOBOW-UHFFFAOYSA-N			
#11 186.1600@9.0602 MS1+		1	mainlib	216913	345.252	345	-328	840	14.9	DL-Norvaline, 2TBDMS derivative		C17H39NO2Si2				0	XATDKTHYOZZXNB-UHFFFAOYSA-N			
#12 321.1500@20.2387 MS1+		1	mainlib	289476	466.272	466	171	874	91.3	HEPES, 2TBDMS derivative		C20H46N2O4SSi2				0	BBEMAFORIXFEJT-UHFFFAOYSA-N			
#13 441.3100@24.2857 MS1+		1	mainlib	32062	646.451	646	2031	930	96.8	Phenol, 2,4-bis(1,1-dimethylethyl)-, phosphite (3:1)		C42H63O3P				31570044	JKIJEFPNVSHHEI-UHFFFAOYSA-N			
#14 271.2200@20.1823 MS1+		1	mainlib	289476	466.272	466	137	806	95.9	HEPES, 2TBDMS derivative		C20H46N2O4SSi2				0	BBEMAFORIXFEJT-UHFFFAOYSA-N			
#19 341.2800@17.3050 MS1+		1	mainlib	293847	398.358	398	141	950	59.6	Stearic acid, TBDMS derivative		C24H50O2Si				87020517	KQJVBEYMSUXDQG-UHFFFAOYSA-N			
#21 132.0100@4.3186 MS1+		1	mainlib	143992	261.194	261	993	960	94.4	Hydroxylamine, 2TBDMS derivative		C12H31NOSi2				0	VRBTWNDXRFWKHO-UHFFFAOYSA-N			
#22 221.0700@4.2249 MS1+		1	mainlib	246738	320.202	320	-181	853	44.3	1,3,5-Trisiloxane, 1,1,3,3,5,5-hexamethyl-1,5-di(tert.butyl)-		C14H36O2Si3				0	IMLREYFJPXWLCY-UHFFFAOYSA-N			
#24 147.0500@6.1014 MS1+		1	replib	29531	290.173	290	144	958	75.5	Bis(tert-butyldimethylsilyl) carbonate		C13H30O3Si2				39981925	IJWRJTUXZVVLND-UHFFFAOYSA-N			
#25 164.9800@6.2452 MS1+		1	mainlib	191829	164.971	165	138	937	61.8	Thieno[3,2-b]thiophene-2-carbonitrile		C7H3NS2				40985588	UPRBPGCXCNBTQH-UHFFFAOYSA-N			
#26 321.1700@20.1572 MS1+		1	mainlib	289476	466.272	466	-115	817	89.6	HEPES, 2TBDMS derivative		C20H46N2O4SSi2				0	BBEMAFORIXFEJT-UHFFFAOYSA-N			
#29 383.1800@12.0691 MS1+		1	mainlib	300073	398.137	398	-181	851	20.6	Chrysophanol, 2TMS derivative		C21H26O4Si2				7336723	BJOOPYSIRYXVDH-UHFFFAOYSA-N			
#30 100.0300@5.7449 MS1+		1	mainlib	49318	157.129	157	-197	871	23.6	Silanamine, N-(2,2-dimethylpropylidene)-1,1,1-trimethyl-		C8H19NSi				61860999	XLZWOMJPTIKBOU-VQHVLOKHSA-N			
#31 164.9800@6.2829 MS1+		1	replib	15723	264.169	264	141	946	68.9	Cystamine, tetraethyl-		C12H28N2S2				589322	MNAQQAGUKWXGLG-UHFFFAOYSA-N			
#35 296.1000@12.8198 MS1+		1	mainlib	53982	353.188	353	457	943	94.4	Taurine, 2TBDMS derivative		C14H35NO3SSi2				0	PEOZIAHCNULCBU-UHFFFAOYSA-N			
#36 132.0100@4.6690 MS1+		1	replib	17252	132.044	132	-102	999	17.0	2-Amino-1,1,3-tricyanopropene		C6H4N4				868542	BNHGNFYPZNDLAF-UHFFFAOYSA-N			
#37 218.1200@8.1407 MS1+		1	mainlib	50996	303.205	303	162	881	86.1	Glycine, 2TBDMS derivative		C14H33NO2Si2				107715888	KWGCEVDISSEKES-UHFFFAOYSA-N			
#41 441.3100@24.2733 MS1+		1	mainlib	32062	646.451	646	177	898	75.7	Phenol, 2,4-bis(1,1-dimethylethyl)-, phosphite (3:1)		C42H63O3P				31570044	JKIJEFPNVSHHEI-UHFFFAOYSA-N			
#43 341.2800@17.3675 MS1+		1	mainlib	33456	341.138	341	-110	867	78.5	1-(2-Dimethylamino-ethyl)-4-(furan-2-carbonyl)-3-hydroxy-5-pyridin-4-yl-1,5-dihydro-pyrrol-2-one		C18H19N3O4				0	OMZWRPLTYLEIME-UHFFFAOYSA-N			
#44 132.0100@4.3373 MS1+		1	mainlib	143992	261.194	261	137	822	89.3	Hydroxylamine, 2TBDMS derivative		C12H31NOSi2				0	VRBTWNDXRFWKHO-UHFFFAOYSA-N			
#50 221.0700@9.1103 MS1+		1	replib	12604	278.136	278	-229	839	28.4	Boric acid, 3TMS derivative		C9H27BO3Si3				4325853	YZYKZHPNRDIPFA-UHFFFAOYSA-N			
#67 242.2200@11.4749 MS1+		1	mainlib	73837	242.094	242	-113	939	12.4	2-(Benzyloxy)-4-methoxybenzaldehyde		C15H14O3				0	NQOXTICIDSITGA-UHFFFAOYSA-N			
#73 152.0300@5.1944 MS1+		1	replib	5272	151.997	152	-140	999	7.7	1,2-Dithiane, 1,1-dioxide		C4H8O2S2				18321158	QGRBLDWNIGDYOW-UHFFFAOYSA-N			
#87 213.1600@12.3882 MS1+		1	mainlib	241102	325.237	325	-113	915	44.8	Ethyl 4-(1-(cyclopentylamino)-3-methyl-1-oxobutan-2-yl)piperazine-1-carboxylate		C17H31N3O3				0	CFZQZYJEADPAPA-UHFFFAOYSA-N			
#90 179.0200@8.3408 MS1+		1	replib	34135	236.123	236	273	948	81.4	Benzoic Acid, TBDMS derivative		C13H20O2Si				75732411	GPSVOHKZRIFVOF-UHFFFAOYSA-N			
#92 132.0200@4.6377 MS1+		1	mainlib	83581	226.084	226	-315	816	56.7	.beta.-d-Lyxofuranoside, phenyl		C11H14O5				128902567	WZMSBIOCODYZPT-VPOLOUISSA-N			
#93 321.1500@20.2198 MS1+		1	mainlib	44058	321.078	321	492	936	76.1	4-[2-(Pyrrolidin-1-ylcarbonyl)-1,3-oxazol-5-yl]benzenesulfonamide		C14H15N3O4S				0	IIFWJDALYTYTSV-UHFFFAOYSA-N			
#98 321.1700@20.4702 MS1+		1	mainlib	44058	321.078	321	178	866	72.3	4-[2-(Pyrrolidin-1-ylcarbonyl)-1,3-oxazol-5-yl]benzenesulfonamide		C14H15N3O4S				0	IIFWJDALYTYTSV-UHFFFAOYSA-N			
#99 321.1700@20.0510 MS1+		1	mainlib	289476	466.272	466	126	817	93.8	HEPES, 2TBDMS derivative		C20H46N2O4SSi2				0	BBEMAFORIXFEJT-UHFFFAOYSA-N			
#101 152.9700@5.5385 MS1+		1	mainlib	177521	168.028	168	102	969	25.0	Methanesulfonic acid, TMS derivative		C4H12O3SSi				10090058	BCHASIUOFGDRIO-UHFFFAOYSA-N			
#105 191.1200@8.9038 MS1+		1	replib	35608	206.167	206	118	953	63.9	2,4-Di-tert-butylphenol		C14H22O				96764	ICKWICRCANNIBI-UHFFFAOYSA-N			
#107 111.0800@9.8172 MS1+		1	mainlib	29160	242.261	242	-119	837	69.3	1-Decanol, 2-hexyl-		C16H34O				2425776	XULHFMYCBKQGEE-UHFFFAOYSA-N			
#108 111.0700@10.1236 MS1+		1	replib	7295	242.261	242	-259	813	54.5	1-Decanol, 2-hexyl-		C16H34O				2425776	XULHFMYCBKQGEE-UHFFFAOYSA-N			
#111 272.1300@13.2701 MS1+		1	replib	12682	357.216	357	216	915	88.8	L-Pyroglutamic acid, 2TBDMS		C17H35NO3Si2				107716030	LTQCVPWWURGDBV-ZDUSSCGKSA-N			
#114 163.0000@6.3830 MS1+		1	mainlib	189661	247.021	247	122	863	43.5	4-Chloro-3,5-difluoroaniline, N,N-bis-acetyl		C10H8ClF2NO2				0	UCUKJBXLSDMSKB-UHFFFAOYSA-N			
#122 283.1000@10.8431 MS1+		1	mainlib	73807	281.037	281	102	961	14.4	4[h]-Pyridone, 1-benzyl-3,5-dichloro-2,6-dimethyl-		C14H13Cl2NO				0	FFBVRKQWVZFJIF-UHFFFAOYSA-N			
#123 221.0700@16.9420 MS1+		1	mainlib	169110	888.225	888	-133	834	86.0	Tetracosamethyl-cyclododecasiloxane		C24H72O12Si12				18919943	SOGKSNZFDBFKCV-UHFFFAOYSA-N			
#126 277.1300@10.5053 MS1+		1	mainlib	80274	277.088	277	237	932	81.6	5-Pyrimidinamine, N-methyl-2-(methylsulfonyl)-N-(phenylmethyl)-		C13H15N3O2S				0	LKMKVJTVFFKGFV-UHFFFAOYSA-N			
#127 221.0700@16.0350 MS1+		1	mainlib	169110	888.225	888	-110	864	81.5	Tetracosamethyl-cyclododecasiloxane		C24H72O12Si12				18919943	SOGKSNZFDBFKCV-UHFFFAOYSA-N			
#128 191.1100@8.9164 MS1+		1	replib	35608	206.167	206	-157	861	30.4	2,4-Di-tert-butylphenol		C14H22O				96764	ICKWICRCANNIBI-UHFFFAOYSA-N			
#129 414.2000@14.6525 MS1+		1	mainlib	302702	414.295	414	-127	858	58.2	Silane, dimethyl(2-naphthoxy)tetradecyloxy-		C26H42O2Si				0	XNLWMYNVLQFAGQ-UHFFFAOYSA-N			
#131 153.9900@6.7145 MS1+		1	mainlib	63460	154.111	154	-320	804	42.9	3,9-Diazabicyclo[4.2.1]nonan-4-one, 9-methyl-		C8H14N2O				7309424	ZPLMTUXXQQUKDH-UHFFFAOYSA-N			
#135 285.2000@13.8581 MS1+		1	mainlib	56533	326.300	326	184	936	33.9	7-Dimethyl(prop-2-enyl)silyloxypentadecane		C20H42OSi				0	SFAGVCRKDKRBND-UHFFFAOYSA-N			
#141 404.2200@14.9966 MS1+		1	mainlib	89835	404.275	404	251	962	40.7	Spiro(1,3-dioxolane)-2,3'-(5'-androsten-16'-ol), TMS derivative		C24H40O3Si				0	VKIVVQLBOUYESG-UHFFFAOYSA-N			
#145 355.0600@7.5214 MS1+		1	mainlib	296276	592.150	592	108	814	80.8	Cyclooctasiloxane, hexadecamethyl-		C16H48O8Si8				556683	XKJMJYZFAWYREL-UHFFFAOYSA-N			
#146 355.0600@15.0717 MS1+		1	mainlib	169110	888.225	888	-225	803	80.0	Tetracosamethyl-cyclododecasiloxane		C24H72O12Si12				18919943	SOGKSNZFDBFKCV-UHFFFAOYSA-N			
#148 215.1200@8.6536 MS1+		1	replib	13384	272.217	272	-115	812	48.8	Nonanoic acid, TBDMS derivative		C15H32O2Si				104255734	UFZLLJFNHSSVAN-UHFFFAOYSA-N			
#151 221.0700@16.0350 MS1+		1	mainlib	169110	888.225	888	177	895	87.1	Tetracosamethyl-cyclododecasiloxane		C24H72O12Si12				18919943	SOGKSNZFDBFKCV-UHFFFAOYSA-N			
#154 221.0700@18.6310 MS1+		1	mainlib	169110	888.225	888	-320	801	70.0	Tetracosamethyl-cyclododecasiloxane		C24H72O12Si12				18919943	SOGKSNZFDBFKCV-UHFFFAOYSA-N			
#161 242.1100@4.8067 MS1+		1	mainlib	7827	504.236	504	102	808	93.4	3,19:14,15-Diepoxypregnan-20-one, 3,11,18-triacetoxy-		C27H36O9				0	OPNWAAOIBIVFQD-UHFFFAOYSA-N			
#164 159.0700@7.8342 MS1+		1	mainlib	94147	159.083	159	-223	820	34.3	Hydrazinecarbothioamide, 2-pentylidene-		C6H13N3S				22397199	NTQUESFHAZWZFH-VMPITWQZSA-N			
#167 111.0900@7.4276 MS1+		1	mainlib	109292	517.109	517	-181	842	40.4	7-Chloro-3-[3,4-dichlorophenyl]-1-[[1-ethyl-3-piperidinyl]imino]-10-hydroxy-1,3,4,10-tetrahydro-9(2H)-acridinone		C26H26Cl3N3O2				144128427	YAYGKGUWCYVNQE-JBASAIQMSA-N			
#176 355.0700@12.9887 MS1+		1	mainlib	169110	888.225	888	123	820	68.3	Tetracosamethyl-cyclododecasiloxane		C24H72O12Si12				18919943	SOGKSNZFDBFKCV-UHFFFAOYSA-N			
#181 221.0700@19.4067 MS1+		1	mainlib	169110	888.225	888	-183	813	77.8	Tetracosamethyl-cyclododecasiloxane		C24H72O12Si12				18919943	SOGKSNZFDBFKCV-UHFFFAOYSA-N			
#197 113.0600@5.1507 MS1+		1	mainlib	90764	302.059	302	155	842	95.9	Benzamide, 2,5-dichloro-N-[2-(4-morpholyl)ethyl]-		C13H16Cl2N2O2				328283654	LQMUIUYYANJRRA-UHFFFAOYSA-N			
#208 205.1400@8.8225 MS1+		1	mainlib	235413	220.183	220	101	952	47.9	Phenol, 2,4,6-tris(1-methylethyl)-		C15H24O				2934078	HVFKKINZIWVNQG-UHFFFAOYSA-N			
#212 158.1000@8.0344 MS1+		1	mainlib	183445	391.239	391	-359	832	22.3	Statine, 3TMS		C17H41NO3Si3				0	JZPSJPJSORXAOM-HOTGVXAUSA-N			
#213 111.0900@12.3442 MS1+		1	replib	7295	242.261	242	-320	802	69.6	1-Decanol, 2-hexyl-		C16H34O				2425776	XULHFMYCBKQGEE-UHFFFAOYSA-N			
#223 111.0700@14.2834 MS1+		1	mainlib	68234	280.240	280	-127	855	76.1	Valeric acid, tridec-2-ynyl ester		C18H32O2				0	ZQZHZXGGYFSZHR-UHFFFAOYSA-N			
#231 113.0900@6.5518 MS1+		1	mainlib	29184	352.407	352	-166	806	70.0	Pentacosane		C25H52				629992	YKNWIILGEFFOPE-UHFFFAOYSA-N			
#252 111.0700@14.3897 MS1+		1	mainlib	75187	398.376	398	-315	817	20.8	Docosyl ethyl carbonate		C25H50O3				0	XNOOMPASPXIFLV-UHFFFAOYSA-N			
#263 369.3000@18.8750 MS1+		1	mainlib	298434	727.373	727	-320	804	47.2	Salmeterol, N-trifluoroacetyl-O,O,o-tris(trimethylsilyl)deriv.		C36H60F3NO5Si3				325837001	VKNNZPKYMRDFEX-UHFFFAOYSA-N			
#289 152.0100@7.0022 MS1+		1	mainlib	177055	209.124	209	-190	863	35.2	3-Pyridinol, TBDMS derivative		C11H19NOSi				0	SMOBTWLYXIHVJD-UHFFFAOYSA-N			
#296 113.1000@6.8708 MS1+		1	replib	7379	240.282	240	-371	815	42.1	Heptadecane		C17H36				629787	NDJKXXJCMXVBJW-UHFFFAOYSA-N			
#438 113.0700@9.8547 MS1+		1	replib	7408	380.438	380	-371	811	51.6	Heptacosane		C27H56				593497	BJQWYEJQWHSSCJ-UHFFFAOYSA-N			
#458 113.0900@15.5909 MS1+		1	replib	7408	380.438	380	-151	811	52.8	Heptacosane		C27H56				593497	BJQWYEJQWHSSCJ-UHFFFAOYSA-N			
>
> Completed. 648 spectra in 48.622 sec, process time = 48.641 sec (read 0.227s print 0.272s init pio 0.001s aux 0.004s sp 0.001s, search only: 12.244s+35.873s=48.117s, 13.4671 spec/s) 13.3274 spec/s Compared 1328065 spec (27314.4 spec/s), No spectra compared 0, No hits 0, peaks/spec 115.29
