> MSPepSearch ver. 0.96 build Fri Feb 22 13:22:10 2019. Started 05/05/22 at 12:19:11. Command line:
> C:\MSPepSearch\2019_02_22_MSPepSearch_x64\MSPepSearch64.exe  Q /MAIN C:\NIST20\MSSEARCH\mainlib /REPL C:\NIST20\MSSEARCH\replib /MinMF 800 /MinInt 50 /HITS 1 /OutChemForm /OutCASrn /OutMW /OutIK /INP C:\Users\yliao13\Desktop\New_folder\nist_mspepsearch_files\msp_files\ST001190_Ileum.msp /OUTTAB C:\Users\yliao13\Desktop\New_folder\nist_mspepsearch_files\st001190_ileum.tsv
>
Unknown	uInChIKey	Rank	Library	Id	Mass	Lib MW	InLib	MF	Prob(%)	Name	Charge	Formula	FlankRes	Mods	Pep	CAS	InChIKey	Nreps	Tfratio	Protein
#1 117.0600@6.7005 MS1+		1	replib	29329	234.111	234	165	909	70.7	Lactic Acid, 2TMS derivative		C9H22O3Si2				17596962	HXRGKEOWDNVHPA-UHFFFAOYSA-N			
#3 174.1200@10.3474 MS1+		1	replib	33558	291.151	291	229	930	80.3	Glycine, 3TMS derivative		C11H29NO2Si3				5630820	YVBMCPFZLGEMJT-UHFFFAOYSA-N			
#4 399.3400@24.9788 MS1+		1	mainlib	301541	502.387	502	223	854	90.8	Glycerol monostearate, 2TMS derivative		C27H58O4Si2				1188756	DPQSOLLSNCYGEP-UHFFFAOYSA-N			
#5 232.1200@13.1373 MS1+		1	mainlib	252951	349.156	349	504	943	59.6	Aspartic acid, 3TMS derivative		C13H31NO4Si3				15985054	CTMXPIJTHHSEEF-UHFFFAOYSA-N			
#6 73.0600@14.3510 MS1+		1	mainlib	261023	363.172	363	102	809	95.2	L-Glutamic acid, 3TMS derivative		C14H33NO4Si3				15985076	STTWTJDZFSSNFS-LBPRGKRZSA-N			
#10 341.3000@20.7377 MS1+		1	replib	42802	356.311	356	449	911	96.8	Stearic acid, TMS derivative		C21H44O2Si				18748919	DDLPZVTUKLKVQB-UHFFFAOYSA-N			
#11 329.3300@27.6122 MS1+		1	replib	26081	458.394	458	-117	863	62.3	Cholesterol, TMS derivative		C30H54OSi				1856059	CBVJJGRSRFXUPK-OCBUSCMESA-N			
#13 116.0700@7.3636 MS1+		1	replib	22765	233.127	233	152	993	48.6	L-Alanine, 2TMS derivative		C9H23NO2Si2				27844071	FRWXSKQFKDEAOY-QMMMGPOBSA-N			
#16 147.0600@9.4028 MS1+		1	mainlib	168874	204.111	204	176	825	93.8	Urea, 2TMS derivative		C7H20N2OSi2				18297637	MASDFXZJIDNRTR-UHFFFAOYSA-N			
#21 313.2500@18.9237 MS1+		1	mainlib	119420	328.280	328	408	908	96.2	Palmitic Acid, TMS derivative		C19H40O2Si				55520893	HKNNSWCACQFVIK-UHFFFAOYSA-N			
#22 326.1200@14.9202 MS1+		1	mainlib	290544	341.133	341	467	928	95.9	Taurine, 3TMS derivative		C11H31NO3SSi3				0	MYBLXZCUTSINIT-UHFFFAOYSA-N			
#23 102.0600@7.6639 MS1+		1	replib	19367	219.111	219	411	966	89.6	Glycine, di-TMS		C8H21NO2Si2				7364423	SPAJELCPLFYXLX-UHFFFAOYSA-N			
#25 147.0700@10.4537 MS1+		1	mainlib	168637	204.137	204	102	961	27.6	tert-Butylpentamethyldisiloxane		C9H24OSi2				67875541	KDJUMPQFOPXSMM-UHFFFAOYSA-N			
#26 318.1500@18.6672 MS1+		1	replib	12401	612.301	612	-197	836	75.3	Scyllo-Inositol, 6TMS		C24H60O6Si6				14251184	FRTKXRNTVMCAKI-QJJHVYBSSA-N			
#28 142.0900@10.2412 MS1+		1	replib	28585	259.142	259	237	877	91.9	L-Proline, 2TMS derivative		C11H25NO2Si2				7364478	DKGIXVJPGFXLRM-UHFFFAOYSA-N			
#30 147.0700@5.8061 MS1+		1	replib	22882	220.131	220	116	905	64.3	Propylene glycol, 2TMS derivative		C9H24O2Si2				17887273	KNPUTZLNTMEYOY-UHFFFAOYSA-N			
#31 158.1200@10.1535 MS1+		1	replib	31191	275.174	275	-388	808	28.0	L-Isoleucine, 2TMS derivative		C12H29NO2Si2				7483923	JQJPJSDLFYVVEY-QWRGUYRKSA-N			
#32 319.1500@17.5600 MS1+		1	mainlib	54409	569.288	569	-138	876	13.5	D-Allose, pentakis(trimethylsilyl) ether, methyloxime (syn)		C22H55NO6Si5				0	LLVFXXKDPAPSCJ-QJOMJCCJSA-N			
#34 204.1000@11.0545 MS1+		1	mainlib	233995	321.161	321	-127	855	75.8	Serine, 3TMS derivative		C12H31NO3Si3				64625178	MBEDINMZZORSJN-NSHDSACASA-N			
#35 147.0600@7.8267 MS1+		1	mainlib	168878	246.184	246	-168	878	40.2	Disiloxane, 1,3-bis(1,1-dimethylethyl)-1,1,3,3-tetramethyl-		C12H30OSi2				67875552	FGTJJHCZWOVVNH-UHFFFAOYSA-N			
#36 134.0300@5.6559 MS1+		1	mainlib	59175	241.111	241	261	826	79.7	N-(tert-butyldimethylsilyl)-2,2,2-trifluoro-N-methylacetamide		C9H18F3NOSi				0	QRKUHYFDBWGLHJ-UHFFFAOYSA-N			
#37 156.0600@13.1811 MS1+		1	replib	30953	273.122	273	-229	839	72.8	L-5-Oxoproline, 2TMS		C11H23NO3Si2				30274772	QACGFKAUSXGLCU-VIFPVBQESA-N			
#38 144.1000@9.0463 MS1+		1	mainlib	164267	261.158	261	103	892	45.8	L-Valine, 2TMS derivative		C11H27NO2Si2				7364445	UJMRIWMQZDBOTB-JTQLQIEISA-N			
#44 218.1300@11.3982 MS1+		1	replib	12595	335.177	335	112	845	79.7	L-Threonine, 3TMS derivative		C13H33NO3Si3				7537022	GTYBQDCOPQDAPP-NEPJUHHUSA-N			
#45 179.0400@9.5717 MS1+		1	replib	34135	236.123	236	116	908	74.6	Benzoic Acid, TBDMS derivative		C13H20O2Si				75732411	GPSVOHKZRIFVOF-UHFFFAOYSA-N			
#49 130.0700@8.4022 MS1+		1	mainlib	141899	247.142	247	-113	938	18.5	2-(Ethylamino)acetic acid, N-trimethylsilyl-, trimethylsilyl ester		C10H25NO2Si2				0	MLVXKAWAZZOLAN-UHFFFAOYSA-N			
#50 218.1000@14.4699 MS1+		1	mainlib	244157	309.158	309	429	926	80.7	L-Phenylalanine, 2TMS derivative		C15H27NO2Si2				7364514	DWNFNBPPSFIIBG-UHFFFAOYSA-N			
#55 71.0900@12.4805 MS1+		1	mainlib	45044	100.010	100	290	893	76.2	1,2,3-Thiadiazole, 5-methyl-		C3H4N2S				50406547	PJBPUBIFRFCYHE-UHFFFAOYSA-N			
#56 174.1100@17.1973 MS1+		1	mainlib	203230	404.235	404	-331	844	10.2	N-.alpha.-Acetyl-L-Lysine, 3TMS derivative		C17H40N2O3Si3				0	QXVVZQYCVKTRRC-UHFFFAOYSA-N			
#66 218.1000@17.8352 MS1+		1	mainlib	244631	364.164	364	195	968	63.7	L-5-Hydroxytryptophan, 2TMS derivative		C17H28N2O3Si2				0	SCHKLMULXOHWOK-UHFFFAOYSA-N			
#74 207.0600@30.2520 MS1+		1	mainlib	52419	578.171	578	-225	808	69.1	Octasiloxane, 1,1,3,3,5,5,7,7,9,9,11,11,13,13,15,15-hexadecamethyl-		C16H50O7Si8				19095240	QXHIBROWKKWYFM-UHFFFAOYSA-N			
#105 159.1000@5.6999 MS1+		1	replib	31288	174.144	174	-278	835	39.4	1-Hexanol, TMS derivative		C9H22OSi				17888629	HNVBZKNIPZVUDV-UHFFFAOYSA-N			
#153 207.0300@6.3377 MS1+		1	replib	37233	310.127	310	-328	840	42.2	Tetrasiloxane, decamethyl-		C10H30O3Si4				141628	YFCGDEUVHLPRCZ-UHFFFAOYSA-N			
#164 218.1000@12.5118 MS1+		1	mainlib	244153	365.130	365	-331	845	14.9	3-(1-Benzothien-3-yl)alanine, 2TMS derivative		C17H27NO2SSi2				0	IPZLIFXDBHHVIO-UHFFFAOYSA-N			
#165 248.1300@11.9926 MS1+		1	replib	33582	305.166	305	-151	812	80.5	.beta.-Alanine, 3TMS derivative		C12H31NO2Si3				55255771	MKLCEJSOJVLNMP-UHFFFAOYSA-N			
#179 117.0200@16.9405 MS1+		1	replib	11926	300.248	300	201	829	94.4	Myristic acid, TMS derivative		C17H36O2Si				18603173	ZRVCKPDUOGAPSZ-UHFFFAOYSA-N			
#193 147.0400@12.9684 MS1+		1	mainlib	167840	124.050	124	-151	818	60.5	Propanoic acid, 2,2-dimethyl-, sodium salt		C5H9NaO2				1184889	SJRDNQOIQZOVQD-UHFFFAOYSA-M			
#212 147.0400@8.2270 MS1+		1	mainlib	167915	248.126	248	-201	822	74.5	4-Hydroxybutanoic acid, 2TMS derivative		C10H24O3Si2				55133954	JQUWWJZPEOMMSB-UHFFFAOYSA-N			
#214 122.9800@6.5129 MS1+		1	mainlib	130652	180.074	180	-275	801	78.9	(4-Chlorobutoxy)trimethylsilane		C7H17ClOSi				13617191	UPYSACBOPSZOMB-UHFFFAOYSA-N			
#272 147.0400@7.9953 MS1+		1	mainlib	167778	372.324	372	-501	809	23.1	1-Pentamethyldisilyloxyhexadecane		C21H48OSi2				0	SXFBPNHRSQOJFO-UHFFFAOYSA-N			
#325 299.0700@10.1912 MS1+		1	mainlib	283523	314.170	314	-315	819	33.0	Bisphenol A monomethyl ether, TMS derivative		C19H26O2Si				0	XHIWXJHWDZFPIN-UHFFFAOYSA-N			
>
> Completed. 451 spectra in 54.179 sec, process time = 54.186 sec (read 0.129s print 0.044s init pio 0.001s aux 0.003s sp 0.001s, search only: 14.590s+39.413s=54.003s, 8.35145 spec/s) 8.3243 spec/s Compared 930297 spec (17170.9 spec/s), No spectra compared 0, No hits 0, peaks/spec 88.18
