> MSPepSearch ver. 0.96 build Fri Feb 22 13:22:10 2019. Started 05/05/22 at 12:01:10. Command line:
> C:\MSPepSearch\2019_02_22_MSPepSearch_x64\MSPepSearch64.exe  Q /MAIN C:\NIST20\MSSEARCH\mainlib /REPL C:\NIST20\MSSEARCH\replib /MinMF 800 /MinInt 50 /HITS 1 /OutChemForm /OutCASrn /OutMW /OutIK /INP C:\Users\yliao13\Desktop\New_folder\nist_mspepsearch_files\msp_files\ST000054.msp /OUTTAB C:\Users\yliao13\Desktop\New_folder\nist_mspepsearch_files\st000054.tsv
>
Unknown	uInChIKey	Rank	Library	Id	Mass	Lib MW	InLib	MF	Prob(%)	Name	Charge	Formula	FlankRes	Mods	Pep	CAS	InChIKey	Nreps	Tfratio	Protein
#1 73.0000@10.3700 MS1+		1	replib	12337	569.288	569	205	951	21.2	d-Mannose, 2,3,4,5,6-pentakis-O-(trimethylsilyl)-, o-methyloxyme, (1Z)-		C22H55NO6Si5				128705679	LLVFXXKDPAPSCJ-QJOMJCCJSA-N			
#2 73.0000@11.3617 MS1+		1	replib	12342	612.301	612	195	965	78.1	Myo-Inositol, 6TMS		C24H60O6Si6				2582798	FRTKXRNTVMCAKI-HPEVMFQJSA-N			
#3 73.0000@10.4800 MS1+		1	replib	12339	569.288	569	205	955	23.4	d-Glucose, 2,3,4,5,6-pentakis-O-(trimethylsilyl)-, o-methyloxyme, (1Z)-		C22H55NO6Si5				128705737	LLVFXXKDPAPSCJ-QJOMJCCJSA-N			
#5 73.0000@5.1425 MS1+		1	replib	29328	234.111	234	195	968	74.3	Lactic Acid, 2TMS derivative		C9H22O3Si2				17596962	HXRGKEOWDNVHPA-UHFFFAOYSA-N			
#12 73.0000@5.5942 MS1+		1	replib	26330	248.126	248	-320	806	54.7	2-Hydroxybutyric acid, 2TMS		C10H24O3Si2				55133932	NSEFDIGCPFOEIV-UHFFFAOYSA-N			
#14 73.0000@10.8275 MS1+		1	mainlib	52592	362.105	362	-217	875	23.2	2-(2-Chloro-4-fluorophenoxy)acetohydrazide, 2TMS		C14H24ClFN2O2Si2				0	SBTHZJOTUUYDHP-UHFFFAOYSA-N			
#15 73.0000@6.5942 MS1+		1	mainlib	50959	308.166	308	245	898	80.3	Glycerol, 3TMS derivative		C12H32O3Si3				6787106	JQUGYGVCECHKBA-UHFFFAOYSA-N			
#16 73.0000@8.4408 MS1+		1	mainlib	51073	424.195	424	-141	809	73.9	2,3,4-Trihydroxybutyric acid tetrakis(trimethylsilyl) deriv., (, (R*,R*)-)		C16H40O5Si4				38191887	IEXXQBIANMZJJP-UHFFFAOYSA-N			
#17 100.0000@4.5175 MS1+		1	mainlib	203490	223.116	223	103	893	67.4	Triethylamine, 2-chloro-2'-hydroxy-, O-TMS		C9H22ClNOSi				959062147	QVNYSCMVVJNIHW-UHFFFAOYSA-N			
#19 73.0000@9.1533 MS1+		1	mainlib	52561	524.081	524	-503	823	7.4	.alpha.-Chloralose, 3TMS (isomer 2)		C17H35Cl3O6Si3				0	NFUFWCKSAJCLSV-BKQXGZDCSA-N			
#25 73.0000@11.0400 MS1+		1	replib	12401	612.301	612	342	952	67.4	Scyllo-Inositol, 6TMS		C24H60O6Si6				14251184	FRTKXRNTVMCAKI-QJJHVYBSSA-N			
#26 86.0000@4.2667 MS1+		1	replib	15719	191.116	191	851	914	93.4	Methoxyamine, 2TMS derivative		C7H21NOSi2				7266764	FNQBMWGJZYQTCK-UHFFFAOYSA-N			
#27 86.0000@4.4125 MS1+		1	replib	15719	191.116	191	676	920	97.3	Methoxyamine, 2TMS derivative		C7H21NOSi2				7266764	FNQBMWGJZYQTCK-UHFFFAOYSA-N			
#29 75.0000@12.0450 MS1+		1	replib	12144	356.311	356	263	909	75.3	Stearic acid, TMS derivative		C21H44O2Si				18748919	DDLPZVTUKLKVQB-UHFFFAOYSA-N			
#31 73.0000@5.8583 MS1+		1	replib	41366	384.146	384	139	872	49.4	Pentasiloxane, dodecamethyl-		C12H36O4Si5				141639	FBZANXDWQAVSTQ-UHFFFAOYSA-N			
#33 75.0000@11.1350 MS1+		1	replib	11923	328.280	328	466	949	90.4	Palmitic Acid, TMS derivative		C19H40O2Si				55520893	HKNNSWCACQFVIK-UHFFFAOYSA-N			
#37 73.0000@6.7783 MS1+		1	mainlib	49928	263.137	263	775	931	91.0	L-Threonine, 2TMS derivative		C10H25NO3Si2				7536825	CKXHAGKHQXMUJP-BDAKNGLRSA-N			
#39 73.0000@6.2008 MS1+		1	mainlib	164203	261.158	261	103	918	59.6	L-Norvaline, 2TMS derivative		C11H27NO2Si2				7364456	FPLJIDNLONPGBI-JTQLQIEISA-N			
#40 147.0000@5.8133 MS1+		1	replib	29333	248.126	248	124	860	84.8	3-Hydroxybutyric acid, 2TMS derivative		C10H24O3Si2				55133943	YWRIHOYCAHATJN-UHFFFAOYSA-N			
#43 73.0000@4.3400 MS1+		1	replib	15719	191.116	191	159	811	93.5	Methoxyamine, 2TMS derivative		C7H21NOSi2				7266764	FNQBMWGJZYQTCK-UHFFFAOYSA-N			
#46 73.0000@10.3075 MS1+		1	replib	12337	569.288	569	196	940	19.6	d-Mannose, 2,3,4,5,6-pentakis-O-(trimethylsilyl)-, o-methyloxyme, (1Z)-		C22H55NO6Si5				128705679	LLVFXXKDPAPSCJ-QJOMJCCJSA-N			
#48 73.0000@10.0192 MS1+		1	mainlib	50993	336.161	336	-407	820	16.7	d-Erythrotetrofuranose, tris-O-(trimethylsilyl)-		C13H32O4Si3				0	VZNHGEZKVDSQOS-UHFFFAOYSA-N			
#49 174.0000@6.8758 MS1+		1	mainlib	203219	291.151	291	-315	819	42.8	Glycine, 3TMS derivative		C11H29NO2Si3				5630820	YVBMCPFZLGEMJT-UHFFFAOYSA-N			
#58 84.0000@8.1842 MS1+		1	mainlib	66985	201.082	201	656	944	97.0	Pyroglutamic acid, TMS derivative		C8H15NO3Si				0	HYNVOYNMQLZSIW-UHFFFAOYSA-N			
#59 73.0000@10.6667 MS1+		1	mainlib	52555	540.261	540	-168	874	54.0	.beta.-D-Fructofuranose, 1,2,3,4,6-pentakis-O-(trimethylsilyl)-		C21H52O6Si5				53584397	PLNWQGWZBNJIQM-CGXNFDGLSA-N			
#60 73.0000@9.2875 MS1+		1	replib	11884	318.168	318	106	857	65.5	Suberic acid, 2TMS derivative		C14H30O4Si2				43199480	LWDVKORSFQXPHL-UHFFFAOYSA-N			
#61 73.0000@7.3333 MS1+		1	mainlib	167882	262.106	262	-136	824	52.9	Erythrono-1,4-lactone, (E)-, 2TMS derivative		C10H22O4Si2				55220796	ASNCBNVBJKSVIT-BDAKNGLRSA-N			
#62 74.0000@6.3167 MS1+		1	replib	12988	172.146	172	205	953	64.0	Nonanoic acid, methyl ester		C10H20O2				1731846	IJXHLVMUNBOGRR-UHFFFAOYSA-N			
#64 74.0000@8.3083 MS1+		1	replib	13054	214.193	214	-224	866	44.4	Dodecanoic acid, methyl ester		C13H26O2				111820	UQDUPQYQJKYHQI-UHFFFAOYSA-N			
#65 75.0000@11.9333 MS1+		1	replib	11921	354.295	354	165	945	44.3	Oleic Acid, (Z)-, TMS derivative		C21H42O2Si				21556263	GAODWSYPSJBKGB-SEYXRHQNSA-N			
#66 74.0000@7.0025 MS1+		1	mainlib	56294	186.162	186	-219	859	37.2	Decanoic acid, methyl ester		C11H22O2				110429	YRHYCMZPEVDGFQ-UHFFFAOYSA-N			
#70 74.0000@5.6292 MS1+		1	replib	12995	158.131	158	-109	846	77.0	Octanoic acid, methyl ester		C9H18O2				111115	JGHZJRVDZXSNKQ-UHFFFAOYSA-N			
#71 71.0000@8.7483 MS1+		1	replib	1999	114.068	114	-258	855	36.3	2,3-Hexanedione		C6H10O2				3848246	MWVFCEVNXHTDNF-UHFFFAOYSA-N			
#72 74.0000@9.4750 MS1+		1	mainlib	56298	242.225	242	141	950	39.4	Methyl tetradecanoate		C15H30O2				124107	ZAZKJZBWRNNLDS-UHFFFAOYSA-N			
#75 73.0000@15.7367 MS1+		1	replib	25958	458.394	458	-138	878	43.5	Cholesterol, TMS derivative		C30H54OSi				1856059	CBVJJGRSRFXUPK-OCBUSCMESA-N			
#80 117.0000@12.8783 MS1+		1	replib	22876	384.342	384	145	885	65.8	Arachidic acid, TMS derivative		C23H48O2Si				55530706	AYSGFBVOWSXJCN-UHFFFAOYSA-N			
#81 149.0000@10.2692 MS1+		1	mainlib	170453	365.163	365	-161	927	5.6	Phthalic acid, 4-cyanophenyl heptyl ester		C22H23NO4				0	CFYXAPZHXXMOAV-UHFFFAOYSA-N			
#83 57.0000@16.7817 MS1+		1	mainlib	32062	646.451	646	191	850	98.0	Phenol, 2,4-bis(1,1-dimethylethyl)-, phosphite (3:1)		C42H63O3P				31570044	JKIJEFPNVSHHEI-UHFFFAOYSA-N			
#84 57.0000@6.6850 MS1+		1	replib	7381	240.282	240	-110	942	11.7	Heptadecane		C17H36				629787	NDJKXXJCMXVBJW-UHFFFAOYSA-N			
#86 75.0000@11.8958 MS1+		1	replib	13215	352.280	352	160	932	70.4	9,12-Octadecadienoic acid (Z,Z)-, TMS derivative		C21H40O2Si				56259075	MXGBYOVWUYSJSN-UTJQPWESSA-N			
#88 86.0000@5.8408 MS1+		1	mainlib	69260	203.134	203	265	938	91.1	L-Leucine, TMS derivative		C9H21NO2Si				0	JZGPZUIFYWMNKG-UHFFFAOYSA-N			
#89 57.0000@8.3850 MS1+		1	replib	7439	268.313	268	-170	918	10.4	Nonadecane		C19H40				629925	LQERIDTXQFOHKA-UHFFFAOYSA-N			
#90 57.0000@9.3717 MS1+		1	replib	7402	282.329	282	-170	919	8.2	Eicosane		C20H42				112958	CBFCDTFDPHXCNY-UHFFFAOYSA-N			
#91 57.0000@9.2025 MS1+		1	replib	2668	254.297	254	-113	934	12.9	Heptadecane, 2-methyl-		C18H38				1560890	RJWUMFHQJJBBOD-UHFFFAOYSA-N			
#92 71.0000@9.7200 MS1+		1	replib	7393	254.297	254	-124	912	9.0	Octadecane		C18H38				593453	RZJRJXONCZWCBN-UHFFFAOYSA-N			
#95 71.0000@8.5208 MS1+		1	replib	7447	296.344	296	-170	914	9.9	Heneicosane		C21H44				629947	FNAZRRHPUDJQCJ-UHFFFAOYSA-N			
#96 57.0000@7.6367 MS1+		1	replib	7439	268.313	268	102	966	15.4	Nonadecane		C19H40				629925	LQERIDTXQFOHKA-UHFFFAOYSA-N			
#98 57.0000@8.5808 MS1+		1	replib	7393	254.297	254	-113	937	12.1	Octadecane		C18H38				593453	RZJRJXONCZWCBN-UHFFFAOYSA-N			
#99 57.0000@7.9475 MS1+		1	replib	7424	212.250	212	-117	924	11.9	Pentadecane		C15H32				629629	YCOZIPAWZNQLMR-UHFFFAOYSA-N			
#100 57.0000@8.4642 MS1+		1	replib	7437	268.313	268	-501	804	9.0	Nonadecane		C19H40				629925	LQERIDTXQFOHKA-UHFFFAOYSA-N			
#101 74.0000@11.5333 MS1+		1	replib	13033	298.287	298	-117	926	19.7	Methyl stearate		C19H38O2				112618	HPEUJPJOZXNMSJ-UHFFFAOYSA-N			
#102 57.0000@5.1700 MS1+		1	mainlib	27960	198.235	198	-184	909	10.0	Tetradecane		C14H30				629594	BGHCVCJVXZWKCC-UHFFFAOYSA-N			
#103 71.0000@7.1208 MS1+		1	replib	7465	226.266	226	-297	877	7.6	Hexadecane		C16H34				544763	DCAYPVUWAIABOU-UHFFFAOYSA-N			
#104 57.0000@7.0658 MS1+		1	replib	7363	184.219	184	-359	831	13.4	Tridecane		C13H28				629505	IIYFAKIEWZDVMP-UHFFFAOYSA-N			
#106 57.0000@6.8367 MS1+		1	mainlib	27982	212.250	212	-108	952	14.1	Pentadecane		C15H32				629629	YCOZIPAWZNQLMR-UHFFFAOYSA-N			
#107 57.0000@10.7383 MS1+		1	replib	7379	240.282	240	-253	888	8.1	Heptadecane		C17H36				629787	NDJKXXJCMXVBJW-UHFFFAOYSA-N			
#108 74.0000@12.4258 MS1+		1	mainlib	56268	270.256	270	-108	952	23.2	Pentadecanoic acid, 14-methyl-, methyl ester		C17H34O2				5129602	WAKCWJNDXBPEBP-UHFFFAOYSA-N			
#109 57.0000@6.7567 MS1+		1	replib	7468	226.266	226	-117	929	18.2	Hexadecane		C16H34				544763	DCAYPVUWAIABOU-UHFFFAOYSA-N			
#111 71.0000@10.8242 MS1+		1	mainlib	27889	296.344	296	-253	889	6.3	Eicosane, 2-methyl-		C21H44				1560845	MLKZKPUBHSWMNA-UHFFFAOYSA-N			
#114 74.0000@13.2350 MS1+		1	replib	12985	340.334	340	101	960	34.3	Heneicosanoic acid, methyl ester		C22H44O2				6064900	AJRICDSAJQHDSD-UHFFFAOYSA-N			
#115 57.0000@10.5250 MS1+		1	replib	7379	240.282	240	-367	825	6.6	Heptadecane		C17H36				629787	NDJKXXJCMXVBJW-UHFFFAOYSA-N			
#121 74.0000@13.9967 MS1+		1	replib	12985	340.334	340	-107	927	30.9	Heneicosanoic acid, methyl ester		C22H44O2				6064900	AJRICDSAJQHDSD-UHFFFAOYSA-N			
#122 73.0000@9.6367 MS1+		1	mainlib	50983	410.216	410	-259	811	21.9	Erythritol, 4TMS derivative		C16H42O4Si4				25258020	ZBFVOPVQUXWTHM-IYBDPMFKSA-N			
#123 57.0000@17.9325 MS1+		1	mainlib	32079	662.446	662	275	816	90.9	Tris(2,4-di-tert-butylphenyl) phosphate		C42H63O4P				95906119	AZSKHRTUXHLAHS-UHFFFAOYSA-N			
#124 117.0000@11.5967 MS1+		1	replib	11925	342.295	342	224	908	76.6	Heptadecanoic acid, TMS derivative		C20H42O2Si				55517583	KCEZRIREPDDPDI-UHFFFAOYSA-N			
#125 57.0000@11.7242 MS1+		1	replib	7368	394.454	394	-124	920	9.7	Octacosane		C28H58				630024	ZYURHZPYMFLWSH-UHFFFAOYSA-N			
#126 81.0000@6.0967 MS1+		1	mainlib	63049	206.089	206	749	909	98.1	2-Chlorocyclohexanol, TMS derivative		C9H19ClOSi				7742883	DYSPHDXPDINQKH-UHFFFAOYSA-N			
#127 74.0000@14.7108 MS1+		1	replib	12985	340.334	340	116	944	30.1	Heneicosanoic acid, methyl ester		C22H44O2				6064900	AJRICDSAJQHDSD-UHFFFAOYSA-N			
#128 75.0000@11.4558 MS1+		1	replib	11925	342.295	342	-119	835	70.7	Heptadecanoic acid, TMS derivative		C20H42O2Si				55517583	KCEZRIREPDDPDI-UHFFFAOYSA-N			
#133 57.0000@12.6375 MS1+		1	mainlib	29107	282.329	282	-184	905	11.2	Eicosane		C20H42				112958	CBFCDTFDPHXCNY-UHFFFAOYSA-N			
#134 75.0000@7.2317 MS1+		1	replib	11979	230.170	230	133	921	68.7	Nonanoic acid, TMS derivative		C12H26O2Si				82326112	ISTGUORKGWWKMI-UHFFFAOYSA-N			
#135 74.0000@15.4758 MS1+		1	replib	12925	424.428	424	141	943	30.0	Heptacosanoic acid, methyl ester		C28H56O2				55682912	SCVPLVIKFSVDDH-UHFFFAOYSA-N			
#138 57.0000@12.4792 MS1+		1	replib	7368	394.454	394	-454	845	8.6	Octacosane		C28H58				630024	ZYURHZPYMFLWSH-UHFFFAOYSA-N			
#140 74.0000@16.3933 MS1+		1	replib	12924	466.475	466	-100	942	41.9	Triacontanoic acid, methyl ester		C31H62O2				629834	BIRUBGLRQLAEFF-UHFFFAOYSA-N			
#141 57.0000@13.0317 MS1+		1	replib	7748	296.344	296	-170	919	9.6	Heneicosane		C21H44				629947	FNAZRRHPUDJQCJ-UHFFFAOYSA-N			
#142 73.0000@14.4467 MS1+		1	replib	38379	532.184	532	-328	832	52.4	Heptasiloxane, hexadecamethyl-		C16H48O6Si7				541015	NFVSFLUJRHRSJG-UHFFFAOYSA-N			
#144 57.0000@12.3092 MS1+		1	replib	7379	240.282	240	-217	874	8.3	Heptadecane		C17H36				629787	NDJKXXJCMXVBJW-UHFFFAOYSA-N			
#145 57.0000@6.1700 MS1+		1	replib	7424	212.250	212	103	976	23.7	Pentadecane		C15H32				629629	YCOZIPAWZNQLMR-UHFFFAOYSA-N			
#146 73.0000@15.3500 MS1+		1	mainlib	52724	532.184	532	-315	815	30.4	Heptasiloxane, hexadecamethyl-		C16H48O6Si7				541015	NFVSFLUJRHRSJG-UHFFFAOYSA-N			
#148 57.0000@6.4758 MS1+		1	replib	7424	212.250	212	-117	924	14.2	Pentadecane		C15H32				629629	YCOZIPAWZNQLMR-UHFFFAOYSA-N			
#149 57.0000@13.4783 MS1+		1	mainlib	28008	268.313	268	-113	932	6.4	Nonadecane		C19H40				629925	LQERIDTXQFOHKA-UHFFFAOYSA-N			
#150 69.0000@5.3175 MS1+		1	mainlib	19707	200.214	200	-493	832	5.9	2-Tridecanol		C13H28O				1653312	HKOLRKVMHVYNGG-UHFFFAOYSA-N			
#154 57.0000@13.3183 MS1+		1	mainlib	29266	520.350	520	-185	881	7.2	Octacosane, 1-iodo-		C28H57I				0	HTERHJSPVTYONY-UHFFFAOYSA-N			
#156 57.0000@14.1100 MS1+		1	mainlib	29184	352.407	352	-170	920	6.0	Pentacosane		C25H52				629992	YKNWIILGEFFOPE-UHFFFAOYSA-N			
#158 57.0000@14.2533 MS1+		1	replib	7368	394.454	394	-117	922	7.8	Octacosane		C28H58				630024	ZYURHZPYMFLWSH-UHFFFAOYSA-N			
#159 57.0000@8.6508 MS1+		1	replib	7439	268.313	268	-185	883	8.9	Nonadecane		C19H40				629925	LQERIDTXQFOHKA-UHFFFAOYSA-N			
#160 73.0000@5.0308 MS1+		1	replib	29328	234.111	234	195	970	75.4	Lactic Acid, 2TMS derivative		C9H22O3Si2				17596962	HXRGKEOWDNVHPA-UHFFFAOYSA-N			
#162 57.0000@7.5108 MS1+		1	replib	7381	240.282	240	-217	880	8.1	Heptadecane		C17H36				629787	NDJKXXJCMXVBJW-UHFFFAOYSA-N			
#164 57.0000@15.0017 MS1+		1	replib	7368	394.454	394	-161	929	7.8	Octacosane		C28H58				630024	ZYURHZPYMFLWSH-UHFFFAOYSA-N			
#167 57.0000@14.8592 MS1+		1	mainlib	29184	352.407	352	-170	920	6.4	Pentacosane		C25H52				629992	YKNWIILGEFFOPE-UHFFFAOYSA-N			
#168 71.0000@15.8442 MS1+		1	replib	7763	366.423	366	-493	839	8.8	Hexacosane		C26H54				630013	HMSWAIKSFDFLKN-UHFFFAOYSA-N			
>
> Completed. 170 spectra in 13.105 sec, process time = 13.262 sec (read 0.064s print 0.711s init pio 0.000s aux 0.001s sp 0.000s, search only: 3.305s+9.023s=12.327s, 13.7904 spec/s) 12.9724 spec/s Compared 311252 spec (23751.1 spec/s), No spectra compared 0, No hits 0, peaks/spec 122.47
