> MSPepSearch ver. 0.96 build Fri Feb 22 13:22:10 2019. Started 05/05/22 at 12:11:46. Command line:
> C:\MSPepSearch\2019_02_22_MSPepSearch_x64\MSPepSearch64.exe  Q /MAIN C:\NIST20\MSSEARCH\mainlib /REPL C:\NIST20\MSSEARCH\replib /MinMF 800 /MinInt 50 /HITS 1 /OutChemForm /OutCASrn /OutMW /OutIK /INP C:\Users\yliao13\Desktop\New_folder\nist_mspepsearch_files\msp_files\ST000548.msp /OUTTAB C:\Users\yliao13\Desktop\New_folder\nist_mspepsearch_files\st000548.tsv
>
Unknown	uInChIKey	Rank	Library	Id	Mass	Lib MW	InLib	MF	Prob(%)	Name	Charge	Formula	FlankRes	Mods	Pep	CAS	InChIKey	Nreps	Tfratio	Protein
#1 147.0000@11.5067 MS1+		1	replib	29531	290.173	290	284	920	91.5	Bis(tert-butyldimethylsilyl) carbonate		C13H30O3Si2				39981925	IJWRJTUXZVVLND-UHFFFAOYSA-N			
#2 383.0000@26.1943 MS1+		1	mainlib	300047	440.236	440	118	957	39.2	Phosphoric acid, tris(tert-butyldimethylsilyl) ester		C18H45O4PSi3				85197280	XKIUTLXREGOBOW-UHFFFAOYSA-N			
#3 149.0000@40.5382 MS1+		1	replib	29860	390.277	390	138	940	59.8	Bis(2-ethylhexyl) phthalate		C24H38O4				117817	BJQHLKABXJIVAM-UHFFFAOYSA-N			
#4 147.0000@11.5880 MS1+		1	replib	29531	290.173	290	273	948	89.5	Bis(tert-butyldimethylsilyl) carbonate		C13H30O3Si2				39981925	IJWRJTUXZVVLND-UHFFFAOYSA-N			
#6 149.0000@40.5505 MS1+		1	mainlib	172425	390.277	390	138	935	48.0	Bis(2-ethylhexyl) phthalate		C24H38O4				117817	BJQHLKABXJIVAM-UHFFFAOYSA-N			
#7 313.0000@34.5265 MS1+		1	mainlib	287328	370.327	370	248	957	88.3	Palmitic Acid, TBDMS derivative		C22H46O2Si				58160875	GPNFTJMLPUJTAA-UHFFFAOYSA-N			
#8 383.0000@26.3258 MS1+		1	mainlib	300075	398.137	398	-197	836	25.1	1,6-Dihydroxy-3-methylanthraquinone, O,O'-bis(trimethylsilyl)-		C21H26O4Si2				91701198	ZDBGLGJAGZVMGO-UHFFFAOYSA-N			
#9 147.0000@14.7159 MS1+		1	mainlib	168055	318.205	318	587	959	39.1	Lactic acid, 2TBDMS derivative		C15H34O3Si2				0	YZJJQQKVFWRPJH-UHFFFAOYSA-N			
#10 313.0000@34.5143 MS1+		1	mainlib	287322	356.311	356	-118	884	64.7	Hexadecanoic acid, dimethyl(isopropyl)silyl ester		C21H44O2Si				0	PFMJMHGXOGBHHQ-UHFFFAOYSA-N			
#11 73.0000@20.2707 MS1+		1	mainlib	49761	404.277	404	934	935	98.2	Boric acid, 3TBDMS derivative		C18H45BO3Si3				0	HURPMAKXMNYTRR-UHFFFAOYSA-N			
#12 341.0000@39.2807 MS1+		1	mainlib	293847	398.358	398	281	968	80.2	Stearic acid, TBDMS derivative		C24H50O2Si				87020517	KQJVBEYMSUXDQG-UHFFFAOYSA-N			
#13 432.0000@34.2452 MS1+		1	mainlib	55528	489.313	489	988	939	98.2	L-Glutamic acid, 3TBDMS derivative		C23H51NO4Si3				107715979	WBLAMWCQIMLWPE-SFHVURJKSA-N			
#14 200.0000@20.5147 MS1+		1	replib	36599	359.268	359	170	967	38.6	L-Leucine, 2TBDMS derivative		C18H41NO2Si2				92771658	HKPKPAQMCPAPSM-HNNXBMFYSA-N			
#15 200.0000@21.3405 MS1+		1	replib	36601	359.268	359	197	972	64.6	Isoleucine, 2TBDMS derivative		C18H41NO2Si2				107715902	YSWZBRBBXWCEQZ-GJZGRUSLSA-N			
#16 186.0000@19.3573 MS1+		1	replib	35134	345.252	345	646	968	65.9	L-Valine, 2TBDMS derivative		C17H39NO2Si2				107715899	KPMGOLUDVQVDCW-AWEZNQCLSA-N			
#17 302.0000@41.4263 MS1+		1	replib	42069	523.333	523	519	967	93.2	L-Tyrosine, 3TBDMS derivative		C27H53NO3Si3				107716018	QIFNZTAFWUSNEI-QHCPKHFHSA-N			
#18 339.0000@38.5365 MS1+		1	mainlib	293436	396.342	396	170	964	28.1	Oleic Acid, (E)-, TBDMS derivative		C24H48O2Si				0	AHEYVESKZHRBPB-CCEZHUSRSA-N			
#20 443.0000@42.4272 MS1+		1	mainlib	57970	500.441	500	587	951	60.2	Cholesterol, TBDMS derivative		C33H60OSi				-332885	CXIGRSVIJKSIQL-UHFFFAOYSA-N			
#21 300.0000@26.9138 MS1+		1	replib	12723	357.216	357	506	955	95.5	L-Pyroglutamic acid, 2TBDMS		C17H35NO3Si2				107716030	LTQCVPWWURGDBV-ZDUSSCGKSA-N			
#22 73.0000@25.8755 MS1+		1	mainlib	53982	353.188	353	631	926	97.2	Taurine, 2TBDMS derivative		C14H35NO3SSi2				0	PEOZIAHCNULCBU-UHFFFAOYSA-N			
#24 302.0000@43.1090 MS1+		1	mainlib	284254	447.338	447	-135	860	26.5	2-Amino-2-methyl-1,3-propanediol, 3TBDMS derivative		C22H53NO2Si3				0	OAQMHHBNKNLTKN-UHFFFAOYSA-N			
#25 184.0000@22.1912 MS1+		1	mainlib	213959	343.236	343	584	959	97.4	L-Proline, 2TBDMS derivative		C17H37NO2Si2				107715913	ZSQADQXTZNAIQH-AWEZNQCLSA-N			
#26 147.0000@14.8598 MS1+		1	mainlib	168055	318.205	318	418	895	37.0	Lactic acid, 2TBDMS derivative		C15H34O3Si2				0	YZJJQQKVFWRPJH-UHFFFAOYSA-N			
#27 158.0000@16.0482 MS1+		1	mainlib	183422	317.221	317	330	961	91.3	L-Alanine, 2TBDMS derivative		C15H35NO2Si2				92751150	NZMBBDALTGCDPQ-LBPRGKRZSA-N			
#29 337.0000@38.4112 MS1+		1	replib	42750	394.327	394	278	954	44.3	9,12-Octadecadienoic acid (Z,Z)-, TBDMS derivative		C24H46O2Si				58160911	RDRZXODIXADGQF-HDXUUTQWSA-N			
#30 303.0000@28.6278 MS1+		1	mainlib	54143	461.318	461	521	916	98.4	L-Threonine, 3TBDMS derivative		C22H51NO3Si3				107715946	DUARMRXEYAQNOD-MSOLQXFVSA-N			
#32 73.0000@37.5103 MS1+		1	mainlib	55513	488.329	488	901	927	95.8	L-Glutamine, 3TBDMS derivative		C23H52N2O3Si3				96381429	SCHQVORKBCRFQF-SFHVURJKSA-N			
#33 302.0000@30.0980 MS1+		1	replib	42068	393.252	393	927	927	98.6	L-Phenylalanine, 2TBDMS derivative		C21H39NO2Si2				107715957	CCHAQKAMPRPVGP-SFHVURJKSA-N			
#35 147.0000@16.7112 MS1+		1	replib	29364	303.205	303	327	936	92.0	Glycine, 2TBDMS derivative		C14H33NO2Si2				107715888	KWGCEVDISSEKES-UHFFFAOYSA-N			
#36 75.0000@41.2325 MS1+		1	mainlib	56847	418.327	418	-315	818	60.5	Arachidonic Acid, TBDMS derivative		C26H46O2Si				0	YQNWZGLWMUXCMW-FORXSXPXSA-N			
#37 433.0000@33.0503 MS1+		1	mainlib	303640	490.297	490	815	955	97.9	Pentanedioic acid, 2-[(tert-butyldimethylsilyl)oxy]-, bis(tert-butyldimethylsilyl) ester		C23H50O5Si3				0	HZEWZIFIXNHNJX-UHFFFAOYSA-N			
#39 73.0000@27.9210 MS1+		1	mainlib	300759	447.302	447	1262	927	94.5	L-Serine, 3TBDMS derivative		C21H49NO3Si3				107715935	FSJAIWAMUHRDKR-KRWDZBQOSA-N			
#44 307.0000@33.1628 MS1+		1	mainlib	285707	364.211	364	281	964	90.2	Hypoxanthine, 2TBDMS derivative		C17H32N4OSi2				0	ABJSKIUGRZSZAX-UHFFFAOYSA-N			
#46 73.0000@31.6992 MS1+		1	mainlib	55425	475.297	475	779	940	98.4	L-Aspartic acid, 3TBDMS derivative		C22H49NO4Si3				107715968	QQXNMPLNDTUYAN-KRWDZBQOSA-N			
#48 147.0000@13.8526 MS1+		1	mainlib	168975	289.226	289	504	943	96.6	Ethanolamine, 2TBDMS derivative		C14H35NOSi2				959216274	APLLTUHYOLVRJU-UHFFFAOYSA-N			
#53 73.0000@41.3263 MS1+		1	mainlib	55671	648.373	648	917	927	96.9	Citric acid, 4TBDMS derivative		C30H64O7Si4				99477482	LYMHMSBQXFZXLH-UHFFFAOYSA-N			
#54 117.0000@28.2587 MS1+		1	mainlib	119109	342.329	342	-334	828	39.7	1H-Indene, 1-hexadecyl-2,3-dihydro-		C25H42				55334297	QMGOXEWNQKNUQO-UHFFFAOYSA-N			
#56 300.0000@26.9138 MS1+		1	replib	12723	357.216	357	130	852	88.0	L-Pyroglutamic acid, 2TBDMS		C17H35NO3Si2				107716030	LTQCVPWWURGDBV-ZDUSSCGKSA-N			
#57 57.0000@45.6487 MS1+		1	replib	7749	562.642	562	-107	963	15.9	Tetracontane		C40H82				4181957	KUPLEGDPSCCPJI-UHFFFAOYSA-N			
#60 302.0000@30.1167 MS1+		1	replib	42068	393.252	393	147	805	97.9	L-Phenylalanine, 2TBDMS derivative		C21H39NO2Si2				107715957	CCHAQKAMPRPVGP-SFHVURJKSA-N			
#61 339.0000@38.7428 MS1+		1	mainlib	293439	396.342	396	160	938	31.9	13-Octadecenoic acid, (E)-, TBDMS derivative		C24H48O2Si				0	VHNVVKIRQGPQFX-ZHACJKMWSA-N			
#63 73.0000@36.5097 MS1+		1	mainlib	54082	488.365	488	1004	952	97.3	L-Lysine, 3TBDMS derivative		C24H56N2O2Si3				107715991	SDIUPMDEJJISFY-FQEVSTJZSA-N			
#65 57.0000@44.7417 MS1+		1	mainlib	29101	506.579	506	-105	977	14.4	Hexatriacontane		C36H74				630068	YDLYQMBWCWFRAI-UHFFFAOYSA-N			
#68 57.0000@43.9473 MS1+		1	replib	7749	562.642	562	-217	878	10.9	Tetracontane		C40H82				4181957	KUPLEGDPSCCPJI-UHFFFAOYSA-N			
#69 57.0000@46.7122 MS1+		1	replib	7749	562.642	562	-108	951	16.1	Tetracontane		C40H82				4181957	KUPLEGDPSCCPJI-UHFFFAOYSA-N			
#79 73.0000@16.4109 MS1+		1	mainlib	168058	318.168	318	388	940	92.2	Oxalic acid, 2TBDMS derivative		C14H30O4Si2				104255916	GNBGYVQOJXASGG-UHFFFAOYSA-N			
#82 73.0000@30.7733 MS1+		1	replib	12117	476.281	476	625	910	95.8	Malic acid, 3TBDMS derivative		C22H48O5Si3				99461866	LGKDLSNIOMYKSN-UHFFFAOYSA-N			
#83 147.0000@22.1410 MS1+		1	mainlib	279922	346.200	346	140	822	51.5	Butanedioic acid, 2TBDMS derivative		C16H34O4Si2				98847520	XQWHUDQRNDFVPG-UHFFFAOYSA-N			
#84 57.0000@43.2217 MS1+		1	mainlib	29101	506.579	506	-107	970	13.0	Hexatriacontane		C36H74				630068	YDLYQMBWCWFRAI-UHFFFAOYSA-N			
#86 386.0000@45.1672 MS1+		1	replib	2550	386.355	386	-168	882	50.9	Cholesterol		C27H46O				57885	HVYWMOMLDIMFJA-DPAQBDIFSA-N			
#89 57.0000@45.1672 MS1+		1	replib	7771	436.501	436	-493	835	8.4	Hentriacontane		C31H64				630046	IUJAMGNYPWYUPM-UHFFFAOYSA-N			
#92 179.0000@20.6147 MS1+		1	mainlib	208104	236.134	236	273	944	86.0	Niacinamide, TBDMS derivative		C12H20N2OSi				0	WYKVTPXLQWXFSC-UHFFFAOYSA-N			
#98 57.0000@41.5138 MS1+		1	replib	7749	562.642	562	-185	889	13.7	Tetracontane		C40H82				4181957	KUPLEGDPSCCPJI-UHFFFAOYSA-N			
#101 218.0000@18.9195 MS1+		1	mainlib	52671	317.221	317	237	884	93.2	.beta.-Alanine, 2TBDMS derivative		C15H35NO2Si2				110024889	GUNFYOAOWPCRHX-UHFFFAOYSA-N			
#102 75.0000@42.7025 MS1+		1	mainlib	56850	446.358	446	-109	841	90.6	cis-7,10,13,16-Docosatetraenoic acid, tert-butyldimethylsilyl ester		C28H50O2Si				0	NWXIAZMKBWSKLJ-FORXSXPXSA-N			
#121 71.0000@14.9661 MS1+		1	replib	7748	296.344	296	-338	861	9.8	Heneicosane		C21H44				629947	FNAZRRHPUDJQCJ-UHFFFAOYSA-N			
#124 56.0000@32.4623 MS1+		1	mainlib	25754	312.303	312	146	912	79.0	Hexadecanoic acid, butyl ester		C20H40O2				111068	GLYJVQDYLFAUFC-UHFFFAOYSA-N			
#127 71.0000@10.3370 MS1+		1	mainlib	27982	212.250	212	-246	863	14.2	Pentadecane		C15H32				629629	YCOZIPAWZNQLMR-UHFFFAOYSA-N			
#131 130.0000@21.8532 MS1+		1	mainlib	50239	347.231	347	772	913	97.8	L-Threonine, 2TBDMS derivative		C16H37NO3Si2				0	WXIJIVIRXUOREX-UHFFFAOYSA-N			
#132 73.0000@15.2161 MS1+		1	replib	12329	304.189	304	342	953	79.9	Glycolic acid, 2TBDMS derivative		C14H32O3Si2				67226760	OKWFJWHUFDQPSE-UHFFFAOYSA-N			
#136 71.0000@16.2546 MS1+		1	mainlib	29164	296.344	296	-253	890	8.8	Heneicosane		C21H44				629947	FNAZRRHPUDJQCJ-UHFFFAOYSA-N			
#146 184.0000@34.3577 MS1+		1	mainlib	213961	474.349	474	638	937	81.4	DL-Ornithine, 3TBDMS derivative		C23H54N2O2Si3				0	HRPHCZYAYFOBLK-UHFFFAOYSA-N			
#153 73.0000@44.7793 MS1+		1	mainlib	54111	678.413	678	192	844	51.3	Cystathionine, 4TBDMS derivative		C31H70N2O4SSi4				0	SKJDCTIDDCKYEU-UHFFFAOYSA-N			
#157 89.0000@25.2875 MS1+		1	replib	16068	434.307	434	1017	940	97.5	Glycerol, 3TBDMS derivative		C21H50O3Si3				82112230	NYTUTBJBHQVPGT-UHFFFAOYSA-N			
#164 89.0000@16.8740 MS1+		1	mainlib	49061	318.205	318	342	890	97.7	DL-Glyceraldehyde, 2TBDMS derivative		C15H34O3Si2				0	HGQDWFXAJXAVJO-UHFFFAOYSA-N			
#167 71.0000@20.9525 MS1+		1	mainlib	29184	352.407	352	-253	888	7.9	Pentacosane		C25H52				629992	YKNWIILGEFFOPE-UHFFFAOYSA-N			
#170 172.0000@18.0188 MS1+		1	replib	33265	331.236	331	273	949	77.4	2-Aminobutanoic acid, TBMS derivative		C16H37NO2Si2				82112332	JASQINIMGZVEQH-UHFFFAOYSA-N			
#173 337.0000@43.4280 MS1+		1	mainlib	293053	394.327	394	-228	800	37.4	9(E),11(E)-Conjugated linoleic acid, tert.-butyldimethylsilyl ester		C24H46O2Si				0	YCKHGAVKSRZLKC-NQDQBVNISA-N			
#176 71.0000@22.3412 MS1+		1	replib	7763	366.423	366	-217	876	14.2	Hexacosane		C26H54				630013	HMSWAIKSFDFLKN-UHFFFAOYSA-N			
#179 147.0000@12.4764 MS1+		1	mainlib	168040	290.210	290	137	898	79.7	Ethylene glycol, 2TBDMS derivative		C14H34O2Si2				66548229	LCMJZTYHSITRAQ-UHFFFAOYSA-N			
#186 73.0000@35.2022 MS1+		1	mainlib	304712	517.308	517	206	813	97.3	N-Acetylaspartic acid, 3TBDMS derivative		C24H51NO5Si3				0	CWTLUKMQFOTZND-UHFFFAOYSA-N			
#194 302.0000@45.0607 MS1+		1	mainlib	284460	515.208	515	-328	836	39.3	2-(2-chloro-3-((trimethylsilyl)oxy)phenyl)-1-(1-(4-((trimethylsilyl)oxy)pentyl)-1H-indol-3-yl)ethan-1-one		C27H38ClNO3Si2				0	VPDKESSKMJUXKJ-UHFFFAOYSA-N			
#195 313.0000@28.9657 MS1+		1	mainlib	287317	370.200	370	326	952	88.1	Kojic acid, bis(tert-butyldimethylsilyl) ether		C18H34O4Si2				500371119	BEKNWHZFCZGWCT-UHFFFAOYSA-N			
#202 56.0000@36.7412 MS1+		1	replib	6740	340.334	340	333	894	80.1	Octadecanoic acid, butyl ester		C22H44O2				123955	ULBTUVJTXULMLP-UHFFFAOYSA-N			
#203 73.0000@27.3018 MS1+		1	mainlib	53901	377.224	377	296	883	96.3	L-Methionine, 2TBDMS derivative		C17H39NO2SSi2				107715924	GFTNLYSBKQIIQN-AWEZNQCLSA-N			
#205 71.0000@10.5558 MS1+		1	mainlib	29077	226.266	226	-259	813	26.1	3-Ethyl-2,6,10-trimethylundecane		C16H34				0	OHXPAEQCBFOPSB-UHFFFAOYSA-N			
#206 73.0000@32.7625 MS1+		1	mainlib	54162	463.279	463	984	916	94.1	L-Cysteine, 3TBDMS derivative		C21H49NO2SSi3				110024947	KNTFUAXIDAVDEF-KRWDZBQOSA-N			
#210 207.0000@11.3317 MS1+		1	mainlib	236394	222.093	222	-464	800	60.8	1,1,1,3,5,5,5-Heptamethyltrisiloxane		C7H22O2Si3				1873887	QNWOFLWXQGHSRH-UHFFFAOYSA-N			
#211 147.0000@31.2300 MS1+		1	replib	42749	394.200	394	119	826	90.0	Phthalic acid, 2TBDMS derivative		C20H34O4Si2				104256000	RUGOPMVYGOPNSG-UHFFFAOYSA-N			
#213 263.0000@23.2355 MS1+		1	mainlib	269237	320.254	320	512	919	98.0	2,4-Di-tert-butylphenol, tert-butyldimethylsilyl ether		C20H36OSi				404393028	GUWIGZXTTSFNTM-UHFFFAOYSA-N			
#221 57.0000@14.1591 MS1+		1	replib	7722	254.297	254	-151	896	12.9	Octadecane		C18H38				593453	RZJRJXONCZWCBN-UHFFFAOYSA-N			
#234 159.0000@19.9892 MS1+		1	mainlib	51394	334.236	334	171	871	77.9	Diethylene glycol, 2TBDMS derivative		C16H38O3Si2				0	WLZWRMNUKGHDLB-UHFFFAOYSA-N			
#238 71.0000@15.7729 MS1+		1	mainlib	29131	604.689	604	-359	839	5.5	Tritetracontane		C43H88				7098217	PKBVGJFKBPLWOD-UHFFFAOYSA-N			
#243 147.0000@17.6623 MS1+		1	replib	12439	332.220	332	293	871	92.4	3-Hydroxybutyric acid, 2TBDMS derivative		C16H36O3Si2				91998399	MTLHHAQBPSTUCQ-UHFFFAOYSA-N			
#250 71.0000@13.9714 MS1+		1	mainlib	29077	226.266	226	-253	886	9.9	3-Ethyl-2,6,10-trimethylundecane		C16H34				0	OHXPAEQCBFOPSB-UHFFFAOYSA-N			
#253 57.0000@20.1267 MS1+		1	replib	7722	254.297	254	-454	843	9.1	Octadecane		C18H38				593453	RZJRJXONCZWCBN-UHFFFAOYSA-N			
#256 71.0000@21.1713 MS1+		1	replib	7757	352.407	352	-246	870	9.8	Pentacosane		C25H52				629992	YKNWIILGEFFOPE-UHFFFAOYSA-N			
#258 71.0000@31.3925 MS1+		1	replib	7773	450.516	450	-407	816	9.9	Dotriacontane		C32H66				544854	QHMGJGNTMQDRQA-UHFFFAOYSA-N			
#273 71.0000@22.5788 MS1+		1	replib	7393	254.297	254	-197	871	18.6	Octadecane		C18H38				593453	RZJRJXONCZWCBN-UHFFFAOYSA-N			
>
> Completed. 284 spectra in 26.237 sec, process time = 26.256 sec (read 0.181s print 0.651s init pio 0.000s aux 0.002s sp 0.000s, search only: 6.175s+19.227s=25.402s, 11.1802 spec/s) 10.8243 spec/s Compared 612990 spec (23363.4 spec/s), No spectra compared 0, No hits 0, peaks/spec 206.82
