,position,name,ms_level,polarity,retention_time,height,mz,neutral_mass,adducts,p_value,quantitation_mass,140111dlvsa01_1.cdf retention_time,140111dlvsa01_1.cdf height,140111dlvsa01_1.cdf mz,140111dlvsa02_1.cdf retention_time,140111dlvsa02_1.cdf height,140111dlvsa02_1.cdf mz,140111dlvsa03_1.cdf retention_time,140111dlvsa03_1.cdf height,140111dlvsa03_1.cdf mz,140111dlvsa04_1.cdf retention_time,140111dlvsa04_1.cdf height,140111dlvsa04_1.cdf mz,140111dlvsa05_1.cdf retention_time,140111dlvsa05_1.cdf height,140111dlvsa05_1.cdf mz,140111dlvsa06_1.cdf retention_time,140111dlvsa06_1.cdf height,140111dlvsa06_1.cdf mz,140111dlvsa08_1.cdf retention_time,140111dlvsa08_1.cdf height,140111dlvsa08_1.cdf mz,140111dlvsa09_1.cdf retention_time,140111dlvsa09_1.cdf height,140111dlvsa09_1.cdf mz,140111dlvsa11_1.cdf retention_time,140111dlvsa11_1.cdf height,140111dlvsa11_1.cdf mz,140111dlvsa12_1.cdf retention_time,140111dlvsa12_1.cdf height,140111dlvsa12_1.cdf mz,140111dlvsa13_1.cdf retention_time,140111dlvsa13_1.cdf height,140111dlvsa13_1.cdf mz,140111dlvsa14_1.cdf retention_time,140111dlvsa14_1.cdf height,140111dlvsa14_1.cdf mz,140111dlvsa15_1.cdf retention_time,140111dlvsa15_1.cdf height,140111dlvsa15_1.cdf mz,140111dlvsa16_1.cdf retention_time,140111dlvsa16_1.cdf height,140111dlvsa16_1.cdf mz,140111dlvsa17_1.cdf retention_time,140111dlvsa17_1.cdf height,140111dlvsa17_1.cdf mz,140111dlvsa18_1.cdf retention_time,140111dlvsa18_1.cdf height,140111dlvsa18_1.cdf mz,140111dlvsa19_1.cdf retention_time,140111dlvsa19_1.cdf height,140111dlvsa19_1.cdf mz,140111dlvsa20_1.cdf retention_time,140111dlvsa20_1.cdf height,140111dlvsa20_1.cdf mz,140111dlvsa21_1.cdf retention_time,140111dlvsa21_1.cdf height,140111dlvsa21_1.cdf mz,140111dlvsa22_1.cdf retention_time,140111dlvsa22_1.cdf height,140111dlvsa22_1.cdf mz,140111dlvsa23_1.cdf retention_time,140111dlvsa23_1.cdf height,140111dlvsa23_1.cdf mz,140111dlvsa24_1.cdf retention_time,140111dlvsa24_1.cdf height,140111dlvsa24_1.cdf mz,140111dlvsa25_1.cdf retention_time,140111dlvsa25_1.cdf height,140111dlvsa25_1.cdf mz,140111dlvsa26_1.cdf retention_time,140111dlvsa26_1.cdf height,140111dlvsa26_1.cdf mz,140111dlvsa27_1.cdf retention_time,140111dlvsa27_1.cdf height,140111dlvsa27_1.cdf mz,140111dlvsa28_1.cdf retention_time,140111dlvsa28_1.cdf height,140111dlvsa28_1.cdf mz,140111dlvsa29_1.cdf retention_time,140111dlvsa29_1.cdf height,140111dlvsa29_1.cdf mz,140111dlvsa30_1.cdf retention_time,140111dlvsa30_1.cdf height,140111dlvsa30_1.cdf mz,VIP
31,32,#32 117.0000@11.7994 MS1+,1,+,11.79944,153292.46292842086,117.0,,,0.0009039587603977272,117.0,11.80042,139549.0,117.0,11.79944,141721.0,117.0,11.79944,143002.0,117.0,11.8014,130675.01769183262,117.0,11.80042,167610.63198378956,117.0,11.80042,131752.35199780812,117.0,11.79944,131331.0,117.0,11.80042,151879.97325414495,117.0,11.80042,115821.0,117.0,11.80042,141068.24359182097,117.0,11.80042,155367.0,117.0,11.8014,176575.5854716713,117.0,11.79944,112025.0,117.0,11.80042,172969.0,117.0,11.79944,153292.46292842086,117.0,11.79944,131315.0,117.0,11.79944,128979.69136090444,117.0,11.80042,161347.71293469108,117.0,11.79944,135959.0,117.0,11.79748,134630.0,117.0,11.79846,165397.69532662386,117.0,11.79846,150015.01598121415,117.0,11.79944,162383.0,117.0,11.79846,140038.67244856374,117.0,11.79846,148710.6007597335,117.0,11.79846,159036.39766786457,117.0,11.79846,162545.0,117.0,11.79846,146615.7223546154,117.0,1.6432567714150952
64,65,#65 147.0000@14.4631 MS1+,1,+,14.46308,29887.0,147.0,,,0.0030609153445076,147.0,14.4621,22201.19764395377,147.0,14.4621,18655.0,147.0,14.46112,18856.27993668588,147.0,14.46406,18112.0,147.0,14.46406,19467.0,147.0,14.46308,22934.0,147.0,14.4621,17277.758820462677,147.0,14.4621,18864.82217903772,147.0,14.46308,17298.0,147.0,14.46308,24665.0,147.0,14.46308,24647.44921945985,147.0,14.46504,30779.34254375797,147.0,14.46406,31706.69091721214,147.0,14.46308,30010.0,147.0,14.4621,26526.746598046637,147.0,14.46308,19573.0,147.0,14.46308,21418.137441350045,147.0,14.46308,24807.965565982337,147.0,14.46308,20422.41631064396,147.0,14.46112,24898.0,147.0,14.4621,18931.0,147.0,14.46014,19636.45689010445,147.0,14.46308,29887.0,147.0,14.4621,28335.0,147.0,14.46112,21892.94995993835,147.0,14.46014,22577.0,147.0,14.46014,25035.529120063384,147.0,14.46014,22792.0,147.0,1.6856348576276685
0,1,#1 147.0000@5.7087 MS1+,1,+,5.708740000000001,3877108.63557502,147.0,,,7.348606897494836e-05,147.0,5.70482,4611543.1552833,147.0,5.708740000000001,2121794.5514130984,147.0,5.71168,3150675.842490679,147.0,5.70482,2488710.5428835046,147.0,5.70972,2819246.382539926,147.0,5.7058,3644262.805468875,147.0,5.706779999999999,2991665.324841467,147.0,5.708740000000001,3877108.63557502,147.0,5.706779999999999,2622765.4313980183,147.0,5.70188,3137293.224578835,147.0,5.717560000000001,4544585.014979687,147.0,5.71364,3251788.225334472,147.0,5.70972,2573510.610412268,147.0,5.71854,4388124.0,147.0,5.708740000000001,2833000.077141165,147.0,5.70972,2763962.060579473,147.0,5.7058,1794179.0885419769,147.0,5.708740000000001,4201668.521428442,147.0,5.7058,2468852.293072331,147.0,5.7107,3834769.0,147.0,5.708740000000001,1554992.457874842,147.0,5.71462,1839571.749745513,147.0,5.708740000000001,6077407.0,147.0,5.706779999999999,2602274.390660572,147.0,5.71168,1918981.3636164,147.0,5.70972,3132468.3613325846,147.0,5.71168,4221231.40201027,147.0,5.71266,1853351.278149857,147.0,1.705519519856737
30,31,#31 117.0000@12.7099 MS1+,1,+,12.70986,158206.0,117.0,,,0.0027921190141718,117.0,12.70986,136249.0,117.0,12.70888,125789.0,117.0,12.70888,120851.0,117.0,12.71084,119336.0,117.0,12.71084,156437.36223898805,117.0,12.71182,124773.34007129908,117.0,12.70888,114967.91382034976,117.0,12.70986,135698.0,117.0,12.70986,101007.38261884297,117.0,12.70986,125846.43854850395,117.0,12.71084,143560.0,117.0,12.71182,190279.38985955968,117.0,12.71084,99566.28124242809,117.0,12.71084,182794.0,117.0,12.70986,141633.0,117.0,12.71084,122484.39911609385,117.0,12.70986,118106.25900188016,117.0,12.71084,151957.0,117.0,12.70986,138506.0,117.0,12.70888,105435.0,117.0,12.70986,158206.0,117.0,12.70888,143372.9830560574,117.0,12.70986,143321.0,117.0,12.70986,130205.81240681524,117.0,12.70888,146593.7376453824,117.0,12.70888,140895.0,117.0,12.7079,145292.0,117.0,12.7079,142321.0,117.0,1.8023963018383586
72,73,#73 147.0000@13.4184 MS1+,1,+,13.4184,19519.887661451958,147.0,,,0.0012256195799177,147.0,13.41644,16175.0,147.0,13.41742,14696.882627333362,147.0,13.41644,11211.52945891141,147.0,13.4184,13524.7630397421,147.0,13.4184,18401.05776005506,147.0,13.4184,11781.509742911694,147.0,13.41546,12176.215496027567,147.0,13.4184,12028.432163737323,147.0,13.42036,11018.141485896873,147.0,13.41938,13646.625094907156,147.0,13.41938,14192.560109624852,147.0,13.42036,14970.0,147.0,13.42036,17842.439937322855,147.0,13.4184,19519.887661451958,147.0,13.4184,10643.979855378955,147.0,13.41644,12060.970268713512,147.0,13.4184,17524.86488832951,147.0,13.41938,23754.80867411764,147.0,13.41938,12931.210051905286,147.0,13.41644,19920.05647878805,147.0,13.41938,15013.29704451205,147.0,13.4135,14247.0,147.0,13.41546,21641.15862938081,147.0,13.41742,13788.0,147.0,13.41546,15493.83553969483,147.0,13.41742,14294.33781468131,147.0,13.41742,13835.397978704625,147.0,13.41546,15788.0,147.0,1.8162979760418543
67,68,#68 147.0000@14.2426 MS1+,1,+,14.24258,15794.96850505969,147.0,,,7.687819714163881e-09,147.0,14.24258,15794.96850505969,147.0,14.24258,22080.168642420023,147.0,14.241600000000002,10731.0,147.0,14.24552,18337.013640036133,147.0,14.24454,16256.762845890167,147.0,14.24356,9624.541778052517,147.0,14.24258,7806.1338345649565,147.0,14.24454,8905.59032201894,147.0,14.241600000000002,6283.086150162098,147.0,14.241600000000002,10164.311907062063,147.0,14.24552,12158.771760104495,147.0,14.2465,18413.3039355373,147.0,14.24454,18998.51059450028,147.0,14.24454,24019.705048591022,147.0,14.24454,9133.0,147.0,14.241600000000002,9598.692140961466,147.0,14.24356,16413.995701406446,147.0,14.24454,25691.06117159419,147.0,14.24356,12035.424794065304,147.0,14.24356,10997.94112011783,147.0,14.24454,10448.302206133289,147.0,14.240620000000002,19056.492472442584,147.0,14.24258,22276.444936169253,147.0,14.24356,11943.357619716246,147.0,14.24258,17609.072265446106,147.0,14.241600000000002,10047.0,147.0,14.240620000000002,11147.351971943017,147.0,14.240620000000002,13329.53598173316,147.0,1.9207851166265897
89,90,#90 264.0000@10.9645 MS1+,1,+,10.96448,6476.245301366353,264.0,,,,264.0,,,,,,,,,,,,,,,,,,,,,,,,,,,,,,,,,,,,,,,,10.9635,5629.0,264.0,,,,,,,,,,10.96448,6476.245301366353,264.0,,,,10.96644,4074.0,264.0,,,,,,,10.9635,4895.254444320377,264.0,,,,,,,10.9635,4954.101510518,264.0,10.96448,2635.5953123385907,264.0,,,,1.934040502429778
62,63,#63 169.0000@14.3798 MS1+,1,+,14.379780000000002,26682.0,169.0,,,,169.0,,,,,,,,,,,,,,,,,,,,,,,,,,,,,,,,,,14.379780000000002,24135.0,169.0,,,,14.379780000000002,26682.0,169.0,,,,,,,,,,14.380760000000002,37798.59258784104,169.0,,,,,,,,,,,,,14.378800000000002,28101.30309115775,169.0,,,,,,,,,,,,,,,,3.0996658564349837
