,position,name,ms_level,polarity,retention_time,height,mz,neutral_mass,adducts,p_value,quantitation_mass,140111dlvsa01_1.cdf retention_time,140111dlvsa01_1.cdf height,140111dlvsa01_1.cdf mz,140111dlvsa02_1.cdf retention_time,140111dlvsa02_1.cdf height,140111dlvsa02_1.cdf mz,140111dlvsa03_1.cdf retention_time,140111dlvsa03_1.cdf height,140111dlvsa03_1.cdf mz,140111dlvsa04_1.cdf retention_time,140111dlvsa04_1.cdf height,140111dlvsa04_1.cdf mz,140111dlvsa05_1.cdf retention_time,140111dlvsa05_1.cdf height,140111dlvsa05_1.cdf mz,140111dlvsa06_1.cdf retention_time,140111dlvsa06_1.cdf height,140111dlvsa06_1.cdf mz,140111dlvsa08_1.cdf retention_time,140111dlvsa08_1.cdf height,140111dlvsa08_1.cdf mz,140111dlvsa09_1.cdf retention_time,140111dlvsa09_1.cdf height,140111dlvsa09_1.cdf mz,140111dlvsa11_1.cdf retention_time,140111dlvsa11_1.cdf height,140111dlvsa11_1.cdf mz,140111dlvsa12_1.cdf retention_time,140111dlvsa12_1.cdf height,140111dlvsa12_1.cdf mz,140111dlvsa13_1.cdf retention_time,140111dlvsa13_1.cdf height,140111dlvsa13_1.cdf mz,140111dlvsa14_1.cdf retention_time,140111dlvsa14_1.cdf height,140111dlvsa14_1.cdf mz,140111dlvsa15_1.cdf retention_time,140111dlvsa15_1.cdf height,140111dlvsa15_1.cdf mz,140111dlvsa16_1.cdf retention_time,140111dlvsa16_1.cdf height,140111dlvsa16_1.cdf mz,140111dlvsa17_1.cdf retention_time,140111dlvsa17_1.cdf height,140111dlvsa17_1.cdf mz,140111dlvsa18_1.cdf retention_time,140111dlvsa18_1.cdf height,140111dlvsa18_1.cdf mz,140111dlvsa19_1.cdf retention_time,140111dlvsa19_1.cdf height,140111dlvsa19_1.cdf mz,140111dlvsa20_1.cdf retention_time,140111dlvsa20_1.cdf height,140111dlvsa20_1.cdf mz,140111dlvsa21_1.cdf retention_time,140111dlvsa21_1.cdf height,140111dlvsa21_1.cdf mz,140111dlvsa22_1.cdf retention_time,140111dlvsa22_1.cdf height,140111dlvsa22_1.cdf mz,140111dlvsa23_1.cdf retention_time,140111dlvsa23_1.cdf height,140111dlvsa23_1.cdf mz,140111dlvsa24_1.cdf retention_time,140111dlvsa24_1.cdf height,140111dlvsa24_1.cdf mz,140111dlvsa25_1.cdf retention_time,140111dlvsa25_1.cdf height,140111dlvsa25_1.cdf mz,140111dlvsa26_1.cdf retention_time,140111dlvsa26_1.cdf height,140111dlvsa26_1.cdf mz,140111dlvsa27_1.cdf retention_time,140111dlvsa27_1.cdf height,140111dlvsa27_1.cdf mz,140111dlvsa28_1.cdf retention_time,140111dlvsa28_1.cdf height,140111dlvsa28_1.cdf mz,140111dlvsa29_1.cdf retention_time,140111dlvsa29_1.cdf height,140111dlvsa29_1.cdf mz,140111dlvsa30_1.cdf retention_time,140111dlvsa30_1.cdf height,140111dlvsa30_1.cdf mz,VIP
58,59,#59 147.0000@11.0027 MS1+,1,+,11.0027,5008.455259577666,147.0,,,0.0010262565075916,147.0,11.00368,9160.228296467298,147.0,11.00172,7115.519890998081,147.0,11.00172,8533.599523538995,147.0,11.00368,7006.177705771261,147.0,11.00368,13433.122412997924,147.0,11.0027,7679.217426441121,147.0,11.00172,4354.10761158214,147.0,11.0027,3880.0,147.0,,,,11.0027,7061.030895098224,147.0,11.00368,6689.0,147.0,11.0027,6375.0,147.0,11.00172,7782.626144610827,147.0,11.00074,5908.0,147.0,11.0027,5008.455259577666,147.0,11.00172,5049.612906023305,147.0,11.00172,5217.0,147.0,11.0027,9023.586040599555,147.0,11.00172,4784.0,147.0,11.00172,3283.0,147.0,11.0027,3854.4597982148016,147.0,11.00074,6076.7948588436375,147.0,11.00074,6846.824767191056,147.0,11.00074,6932.338011648386,147.0,11.00172,6013.0,147.0,11.00074,7366.821351189006,147.0,11.00074,5391.904143334255,147.0,11.00172,5725.026044416149,147.0,0.8200802731653376
90,91,#91 167.0000@6.2134 MS1+,1,+,6.21344,4918.81907117345,167.0,,,0.042473862307339,167.0,,,,,,,,,,6.21344,5726.0,169.0,,,,,,,,,,,,,,,,,,,6.21736,5821.386592990729,167.0,,,,,,,6.21736,5463.077571411904,169.0,6.21638,5103.0,167.0,,,,,,,6.21834,4932.0,167.0,6.2154,5013.441006113614,167.0,,,,,,,6.22912,1785.8421717293302,147.0,6.21344,4918.81907117345,167.0,6.21148,5442.0,167.0,,,,,,,,,,6.21736,4988.664418336833,167.0,0.8258226989654652
92,93,#93 131.0000@13.5438 MS1+,1,+,13.54384,3235.01978067774,131.0,,,0.8271349242726993,147.0,13.54286,3596.3745630986305,131.0,13.548740000000002,1965.2622630301892,147.0,13.53992,3266.0,131.0,13.55266,4087.666290421265,147.0,13.545800000000002,3279.9381904963047,131.0,13.54188,2999.9005425440464,131.0,13.5409,3316.7752686939607,131.0,13.54188,3274.6853114479413,131.0,13.54188,2556.563565416561,131.0,13.54188,2785.0,131.0,13.54384,3658.0,131.0,13.545800000000002,3484.939206751927,131.0,13.54188,2784.398572952387,131.0,13.548740000000002,2753.2135040570006,117.0,13.54286,3247.0,131.0,13.5409,3326.0,131.0,,,,13.548740000000002,2484.0,131.0,13.54286,3533.0,285.0,13.53992,3445.0,131.0,13.5409,3428.622591883124,131.0,13.55168,5421.869202151722,147.0,13.5409,3689.280993497267,131.0,13.54188,3004.0,131.0,13.55168,2929.0,147.0,13.54188,3460.3233571419687,131.0,13.5409,3499.9397900110657,131.0,13.54384,3235.01978067774,131.0,0.8299397805584847
80,81,#81 169.0000@15.2265 MS1+,1,+,15.2265,13062.552654518871,169.0,,,0.0016697764107429,169.0,,,,15.22356,6613.825989129236,169.0,15.22258,7030.793764341968,169.0,,,,15.5695,3323.0,169.0,,,,,,,,,,,,,15.5695,3425.0,169.0,15.2265,13062.552654518871,169.0,15.228460000000002,10345.0,169.0,15.570480000000002,3474.2092544501656,169.0,15.22356,7307.296123841228,169.0,15.22356,7460.723641036533,169.0,,,,,,,15.571460000000002,5169.0,169.0,,,,,,,,,,15.218660000000002,6291.318026609428,169.0,15.22552,7352.0,169.0,,,,,,,,,,,,,,,,0.845880363976341
89,90,#90 264.0000@10.9645 MS1+,1,+,10.96448,6476.245301366353,264.0,,,,264.0,,,,,,,,,,,,,,,,,,,,,,,,,,,,,,,,,,,,,,,,10.9635,5629.0,264.0,,,,,,,,,,10.96448,6476.245301366353,264.0,,,,10.96644,4074.0,264.0,,,,,,,10.9635,4895.254444320377,264.0,,,,,,,10.9635,4954.101510518,264.0,10.96448,2635.5953123385907,264.0,,,,0.8705778589133786
74,75,#75 147.0000@9.2034 MS1+,1,+,9.20342,14118.035098624074,147.0,,,0.001786015438881,147.0,9.20734,9829.346287407112,129.0,9.20538,17583.306268955217,129.0,9.20636,7456.217254019305,129.0,9.20636,14609.0,129.0,9.20538,13521.564964927786,129.0,9.2191,15515.016803498314,147.0,,,,9.22008,12470.91092479157,147.0,9.21812,14619.466460172674,147.0,9.20342,14118.035098624074,147.0,9.22008,17838.5370879384,147.0,9.2191,14750.213394867707,147.0,9.20538,13207.0,129.0,9.22008,18581.777851603896,147.0,9.2191,7392.860383684128,147.0,9.2191,9813.195927335808,147.0,9.22008,17834.944044439868,147.0,9.20538,18045.88568288472,147.0,9.2044,9689.0,147.0,9.21714,17977.145880248558,147.0,,,,9.20342,12422.0,129.0,9.21812,21821.32296569254,147.0,9.21812,8239.319512215385,147.0,9.20244,13850.70044470284,129.0,,,,9.21812,19991.5565348527,147.0,9.20244,13801.9020883115,147.0,0.8760368467225174
14,15,#15 100.0000@8.8781 MS1+,1,+,8.878060000000001,94043.07953474628,100.0,,,0.0233691942459947,232.0,8.881,270970.16215857945,232.0,8.88002,88096.0,100.0,8.88002,203285.6109736352,232.0,8.879040000000002,91012.86204604816,100.0,8.881,530670.8902828537,232.0,8.879040000000002,94684.29015673706,100.0,8.878060000000001,69685.42452199863,100.0,8.879040000000002,54331.65780437384,232.0,8.879040000000002,41854.36226574253,100.0,8.879040000000002,160756.0,232.0,8.878060000000001,48089.0,100.0,8.878060000000001,82470.0,232.0,8.881,273644.3161972887,232.0,8.879040000000002,117456.68358825464,100.0,8.878060000000001,52758.3592589409,100.0,8.879040000000002,147693.8240461203,232.0,8.879040000000002,181216.6832670296,232.0,8.879040000000002,148636.7521494032,232.0,8.878060000000001,81448.89297068639,100.0,8.878060000000001,62627.259830744726,232.0,8.878060000000001,94043.07953474628,100.0,8.878060000000001,78613.72671978558,100.0,8.878060000000001,81284.77631939184,100.0,8.878060000000001,104251.34094300042,232.0,8.877080000000001,62418.16201028233,100.0,8.878060000000001,139077.77073945772,232.0,8.877080000000001,63383.0,100.0,8.877080000000001,109275.88744602208,100.0,0.8760671023327207
21,22,#22 144.0000@6.8485 MS1+,1,+,6.84848,199280.0,144.0,,,0.0688950527225215,144.0,6.8475,235021.693720745,144.0,6.84848,120149.21719962305,144.0,6.84946,145876.3111319008,144.0,6.8475,86066.0,144.0,6.84946,327965.7564989174,144.0,6.8475,133538.0,144.0,6.84848,206347.1221816837,144.0,6.84848,207546.5864048048,144.0,6.84848,189338.0,144.0,6.84652,188439.15693927323,144.0,6.850440000000001,131647.0,144.0,6.84848,62149.964669567664,144.0,6.84848,268104.7353851565,144.0,6.850440000000001,120748.1995223892,144.0,6.8475,77239.1868305655,144.0,6.8475,201722.63832674627,144.0,6.8475,192599.1414576498,144.0,6.8475,232389.75160731972,144.0,6.8475,74613.0,144.0,6.84946,216824.0,144.0,6.84848,199280.0,144.0,6.84946,69277.0,144.0,6.8475,118061.0,144.0,6.8475,90521.6476201516,144.0,6.84946,73683.51599321146,144.0,6.84848,270717.04658615275,144.0,6.84848,174365.39358662622,144.0,6.84946,101289.2756054238,144.0,0.9161747841616594
66,67,#67 123.0000@5.6254 MS1+,1,+,5.62544,24275.01496759536,123.0,,,0.1574913930003869,123.0,5.6274,23606.152894140974,123.0,5.62936,25228.896354707795,123.0,5.6323,25558.505495867765,123.0,5.62544,24275.01496759536,123.0,5.628380000000001,26309.190908632678,123.0,5.6274,22503.1585848102,123.0,5.63034,25927.249370412283,123.0,5.628380000000001,24398.30772092385,123.0,5.63034,24439.2275036728,123.0,5.6225000000000005,24547.696107402557,123.0,5.63524,27853.811969168008,123.0,5.63328,25353.37482731943,123.0,5.62642,25473.706696362733,123.0,5.6313200000000005,25450.079411912167,123.0,5.62936,22407.313626778563,123.0,5.628380000000001,24695.40958367814,123.0,5.6274,23110.489462891877,123.0,5.6313200000000005,17415.0,147.0,5.6274,23096.5722797598,123.0,5.6274,24932.81291495137,123.0,5.6274,24960.79808771906,123.0,5.6323,26689.097503881305,123.0,5.62642,22938.31568125699,123.0,5.62544,24794.048992117307,123.0,5.6313200000000005,25072.00859579124,123.0,5.62642,25250.117204793925,123.0,5.628380000000001,25926.562727577963,123.0,5.628380000000001,24905.027255000765,123.0,0.9846296090010921
34,35,#35 147.0000@10.5921 MS1+,1,+,10.59208,128270.31332914135,147.0,,,0.0024458823877956,147.0,10.59306,81929.04097675893,147.0,10.59306,121289.24183546544,147.0,10.59208,63143.0,147.0,10.59306,63525.09390250252,147.0,10.59306,151657.61769313028,147.0,,,,10.59208,68366.0,147.0,10.59208,67118.34593697799,147.0,10.5911,41612.38218952705,147.0,10.59208,51776.572826932745,147.0,10.59306,84676.39870112634,147.0,10.59306,115122.31119428454,147.0,10.59306,103345.12436881402,147.0,10.59208,101232.45235158187,147.0,,,,10.59208,64348.310208109615,147.0,10.59208,99044.1340525967,147.0,10.59208,128270.31332914135,147.0,,,,10.59208,74918.20411502193,147.0,10.5911,71854.6747005703,147.0,,,,10.59208,100668.07905978333,147.0,,,,10.5911,75370.60473559848,147.0,10.59208,124220.0,147.0,10.5911,82772.59800745703,147.0,,,,1.0502157394302611
26,27,#27 87.0000@10.1619 MS1+,1,+,10.16186,193063.0,87.0,,,0.0596357345936298,87.0,10.16382,193517.0,87.0,10.16284,203469.24156919456,87.0,10.16186,208528.00719790676,87.0,10.16186,193063.0,87.0,10.16186,230503.0,87.0,10.16284,194032.0,87.0,10.16186,199704.6342992228,87.0,10.16186,200444.0,87.0,10.16186,174703.0,87.0,10.16186,177459.0,87.0,10.16186,214072.0,87.0,10.16186,215840.80162328455,87.0,10.16284,225276.0077980648,87.0,10.16186,229742.0833745429,87.0,10.16186,206749.0,87.0,10.16186,197018.70759951835,87.0,10.16088,198055.4916821369,87.0,10.16186,217542.13923611672,87.0,10.16186,178174.72981994346,87.0,10.16088,196719.0,87.0,10.1599,197212.0,87.0,10.16088,207902.0,87.0,10.16088,212595.49301828985,87.0,10.16088,189409.3583855144,87.0,10.1599,210304.87879837843,87.0,10.16088,215471.0,87.0,10.1599,209328.3315415797,87.0,10.16088,212854.2788890101,87.0,1.0835033179045714
13,14,#14 117.0000@8.0078 MS1+,1,+,8.00782,245501.0,117.0,,,0.2348313835423106,117.0,8.0088,367256.0,117.0,8.00782,197172.0,117.0,8.0088,230914.0,117.0,8.00782,156350.0,117.0,8.0088,539789.0,117.0,8.00782,145814.0,117.0,8.00782,226570.0,117.0,8.00782,227393.0,117.0,8.00782,162610.0,117.0,8.00684,233243.0,117.0,8.00782,193409.42792840672,117.0,8.00684,80675.12360863204,117.0,8.0088,385133.5543235937,117.0,8.00782,181041.0,117.0,8.00586,78995.08864758495,117.0,8.00782,245501.0,117.0,8.00684,245706.3213622907,117.0,8.00684,230928.0,117.0,8.00586,117212.75376966305,117.0,8.00782,238805.0,117.0,8.00586,188258.6276314209,117.0,8.00684,117439.0,117.0,8.00684,136873.3762274198,117.0,8.00586,119216.40158983828,117.0,8.00586,111644.0,117.0,8.00782,383596.0,117.0,8.00684,208700.0,117.0,8.00684,130573.96514164784,117.0,1.0936451101604001
53,54,#54 100.0000@8.8320 MS1+,1,+,8.832,30923.0,100.0,,,6.240540840407593e-05,100.0,8.83298,44956.8809275512,100.0,8.832,8929.0,100.0,,,,8.83396,7439.0,100.0,8.83298,60417.0,100.0,,,,8.83494,13413.0,100.0,8.832,13956.0,100.0,,,,,,,8.83298,13497.876723066222,100.0,,,,8.832,30923.0,100.0,8.83298,11974.0,100.0,,,,,,,8.83298,17502.197460343115,100.0,8.83298,13853.51840330441,100.0,,,,8.83298,18662.246929010067,100.0,,,,,,,8.83396,10106.0,100.0,,,,8.832,4872.0,100.0,8.832,39746.5307897644,100.0,8.83102,18670.0,100.0,,,,1.1084056314624753
59,60,#60 149.0000@13.9868 MS1+,1,+,13.9868,36786.18558874763,149.0,,,0.1108354410371115,149.0,13.9868,40084.0,149.0,13.98582,30546.0,149.0,13.98582,36119.26652502442,149.0,13.98974,30626.56041615549,149.0,13.987780000000004,37592.57353524923,149.0,13.987780000000004,28726.206165901745,149.0,13.98582,37721.36627899936,149.0,13.9868,33712.97922391671,149.0,13.98974,29750.63904062091,149.0,13.987780000000004,35417.03024830314,149.0,13.988760000000005,40590.3960774864,149.0,13.98974,36128.47451346715,149.0,13.988760000000005,36484.90425832599,149.0,13.9868,31705.0,149.0,13.9868,36875.0,149.0,13.9868,36786.18558874763,149.0,13.988760000000005,34939.0,149.0,13.988760000000005,36577.18015615369,149.0,13.9868,30787.70864885672,149.0,13.9868,44129.862317996034,149.0,13.9868,43420.67594628001,149.0,13.98582,37542.20727777553,149.0,13.9868,32700.534792320454,149.0,13.98582,41535.14288276756,149.0,13.9868,35379.0,149.0,13.98484,43313.0,149.0,13.98484,38004.19821638405,149.0,13.98386,29796.707118202783,149.0,1.1406764915052257
81,82,#82 107.0000@6.0900 MS1+,1,+,6.0899600000000005,2306.862075500163,107.0,,,0.0073970420084207,107.0,6.090940000000001,2199.016247741152,106.0,,,,6.090940000000001,2520.394888962141,151.0,6.08702,2746.653842674869,151.0,6.082120000000001,6328.512023847839,107.0,6.08898,3110.0,151.0,6.07624,3400.14375376231,107.0,6.07526,3872.439287210672,107.0,,,,6.07722,2971.065554915177,106.0,6.08604,5730.559637642499,107.0,6.09682,2621.068631559381,107.0,6.07722,4908.4356128638565,107.0,6.09584,4059.170544990786,107.0,,,,6.07722,2784.8760871131603,106.0,6.08408,2502.0,106.0,6.08408,3941.718893351777,106.0,,,,6.07918,9985.043806958469,107.0,6.07134,5263.380637248447,107.0,6.09192,1834.0,107.0,6.10172,2951.0,107.0,6.0929,3147.684810308762,107.0,6.09192,2056.2048488840487,151.0,6.0684,11220.483165824968,107.0,6.0831,5874.457082400731,107.0,6.0899600000000005,2306.862075500163,107.0,1.181077654724215
30,31,#31 117.0000@12.7099 MS1+,1,+,12.70986,158206.0,117.0,,,0.0027921190141718,117.0,12.70986,136249.0,117.0,12.70888,125789.0,117.0,12.70888,120851.0,117.0,12.71084,119336.0,117.0,12.71084,156437.36223898805,117.0,12.71182,124773.34007129908,117.0,12.70888,114967.91382034976,117.0,12.70986,135698.0,117.0,12.70986,101007.38261884297,117.0,12.70986,125846.43854850395,117.0,12.71084,143560.0,117.0,12.71182,190279.38985955968,117.0,12.71084,99566.28124242809,117.0,12.71084,182794.0,117.0,12.70986,141633.0,117.0,12.71084,122484.39911609385,117.0,12.70986,118106.25900188016,117.0,12.71084,151957.0,117.0,12.70986,138506.0,117.0,12.70888,105435.0,117.0,12.70986,158206.0,117.0,12.70888,143372.9830560574,117.0,12.70986,143321.0,117.0,12.70986,130205.81240681524,117.0,12.70888,146593.7376453824,117.0,12.70888,140895.0,117.0,12.7079,145292.0,117.0,12.7079,142321.0,117.0,1.221245714230886
84,85,#85 103.0000@12.8823 MS1+,1,+,12.88234,9354.456493168098,103.0,,,0.0004963601627832048,103.0,12.88332,3943.0,103.0,12.86372,3676.0211434938574,147.0,12.88332,4203.9856072856055,103.0,,,,12.88234,3226.0,103.0,12.88136,2475.206624416094,103.0,12.8843,5294.0,103.0,12.88332,4373.924263461013,147.0,12.8843,4858.320952807242,103.0,12.88332,3342.8835113140585,103.0,12.88332,5860.0,103.0,12.88626,3736.6377422603623,103.0,12.867640000000002,2329.5600666808086,147.0,12.88528,4293.661455934598,147.0,12.88332,3543.6471632811727,103.0,12.88234,3531.5365178530938,147.0,12.86666,3678.589059125099,147.0,12.86568,4461.0,103.0,,,,12.88234,9354.456493168098,103.0,12.88234,4468.0,103.0,12.86274,2056.9869454951813,103.0,12.88332,5024.092120388046,103.0,12.88332,2778.0,147.0,,,,12.88332,5839.549272798769,103.0,12.88136,5454.027583973528,103.0,,,,1.246377602295513
17,18,#18 129.0000@16.4672 MS1+,1,+,16.467180000000003,220185.0,129.0,,,0.119867837264067,129.0,16.47012,455768.1998136621,129.0,16.46424,219371.7354578,129.0,16.46424,227008.0,129.0,16.4711,216161.0,129.0,16.4662,222179.147094038,129.0,16.467180000000003,220185.0,129.0,16.46424,200263.0,129.0,16.465220000000002,200074.0,129.0,16.465220000000002,169873.76987315755,129.0,16.467180000000003,197573.5619398657,129.0,16.4711,229172.0,129.0,16.47306,240123.0,129.0,16.46914,224750.0,129.0,16.467180000000003,263568.7481109843,129.0,16.467180000000003,248982.0,129.0,16.46816,217954.0,129.0,16.46816,216683.0,129.0,16.46816,214319.67731492064,129.0,16.4662,210553.0,129.0,16.4662,209183.0,129.0,16.467180000000003,231894.0,129.0,16.46424,242616.0,129.0,16.467180000000003,245651.7201095741,129.0,16.4662,240166.0,129.0,16.467180000000003,246426.0,129.0,16.46424,193891.28410703488,129.0,16.46228,215578.0,129.0,16.46228,253019.53576746583,129.0,1.2920464393008169
31,32,#32 117.0000@11.7994 MS1+,1,+,11.79944,153292.46292842086,117.0,,,0.0009039587603977272,117.0,11.80042,139549.0,117.0,11.79944,141721.0,117.0,11.79944,143002.0,117.0,11.8014,130675.01769183262,117.0,11.80042,167610.63198378956,117.0,11.80042,131752.35199780812,117.0,11.79944,131331.0,117.0,11.80042,151879.97325414495,117.0,11.80042,115821.0,117.0,11.80042,141068.24359182097,117.0,11.80042,155367.0,117.0,11.8014,176575.5854716713,117.0,11.79944,112025.0,117.0,11.80042,172969.0,117.0,11.79944,153292.46292842086,117.0,11.79944,131315.0,117.0,11.79944,128979.69136090444,117.0,11.80042,161347.71293469108,117.0,11.79944,135959.0,117.0,11.79748,134630.0,117.0,11.79846,165397.69532662386,117.0,11.79846,150015.01598121415,117.0,11.79944,162383.0,117.0,11.79846,140038.67244856374,117.0,11.79846,148710.6007597335,117.0,11.79846,159036.39766786457,117.0,11.79846,162545.0,117.0,11.79846,146615.7223546154,117.0,1.3043159577914274
85,86,#86 179.0000@8.7928 MS1+,1,+,8.7928,3148.3168002298103,179.0,,,0.00045679606203474776,179.0,8.789860000000001,7812.114842943896,179.0,,,,8.784960000000002,6727.395349119558,179.0,,,,,,,8.789860000000001,4011.8838251489274,179.0,8.784960000000002,6443.917679911715,179.0,8.7879,5863.169588311008,179.0,,,,,,,8.784960000000002,5448.424166379631,179.0,,,,8.78202,7305.0,179.0,8.783,5867.550240797721,179.0,,,,8.785940000000002,5085.572134951126,179.0,8.80064,4283.569729534502,98.0,,,,8.7928,3148.3168002298103,179.0,8.783980000000001,7010.995994591305,179.0,8.785940000000002,4803.376455309886,179.0,,,,,,,8.78692,3643.275902761428,179.0,,,,8.78692,5081.486610411689,179.0,8.78692,4554.624788469322,179.0,8.7879,4109.420554619398,179.0,1.3188338251084193
2,3,#3 147.0000@12.0013 MS1+,1,+,12.00132,1289476.862622291,147.0,,,0.0670059469216046,147.0,12.00328,2468386.5001301747,147.0,12.00328,2383480.468325276,147.0,12.00132,1330940.0,147.0,12.00328,1658619.0,147.0,12.00524,3516614.0,147.0,12.0023,1009867.0,147.0,12.00132,1289476.862622291,147.0,12.00132,1004810.0,147.0,12.00132,823011.0,147.0,12.00132,1080603.0,147.0,12.0023,1055901.0,147.0,12.00328,1525717.7234660978,147.0,12.00622,3478716.0,147.0,12.00328,2519858.2496275054,147.0,12.00034,680122.0,147.0,12.00132,1054740.0,147.0,12.00328,2653304.023120532,147.0,12.00426,3155995.2350643016,147.0,12.00132,1066843.0,147.0,12.0023,2191614.7064815657,147.0,12.00132,1518163.951208069,147.0,12.00034,1483645.9189631878,147.0,12.0023,2111055.4063352467,147.0,12.00034,934883.0,147.0,12.00034,1527690.223649358,147.0,12.00132,1985222.543099188,147.0,12.00034,1038175.0,147.0,12.00034,1420979.6806841225,147.0,1.338294056874417
65,66,#66 174.0000@10.2246 MS1+,1,+,10.22458,13019.0,174.0,,,0.0006266977898302661,174.0,,,,10.22458,8225.0,217.0,,,,10.219680000000002,9517.156062770928,217.0,10.22654,14573.73916205168,174.0,,,,10.22458,15074.120588982109,174.0,,,,10.22654,11059.951450794386,174.0,,,,,,,10.2236,4979.0,174.0,10.22458,13019.0,174.0,,,,,,,,,,10.2236,9080.594589112094,217.0,10.2236,10096.0,174.0,10.22262,5415.73991729959,217.0,10.22458,28755.0,174.0,10.2236,26949.0,174.0,10.22262,7406.0,174.0,10.2236,7868.985488310243,174.0,,,,10.220660000000002,12499.0,217.0,,,,,,,10.22262,7359.0,174.0,1.3449665159060138
69,70,#70 120.0000@9.1730 MS1+,1,+,9.17304,14296.467066716285,120.0,,,0.0339842261244687,120.0,,,,9.175,11036.93895174278,120.0,9.17402,11580.0,120.0,,,,9.17696,11501.0,120.0,9.17402,11571.758636029985,120.0,9.18382,7416.0,120.0,9.17304,18185.397604862028,120.0,,,,,,,9.17206,20975.586649874276,120.0,9.17304,14296.467066716285,120.0,9.175,13558.873146884382,120.0,9.17206,17728.616710239523,120.0,9.17304,12261.0,120.0,,,,,,,9.175,7367.719706167471,120.0,,,,9.17108,24727.0,120.0,9.17108,17463.381777990355,120.0,9.17206,10060.549768410392,120.0,9.17206,11118.35009018138,120.0,,,,9.17304,11263.462923931716,120.0,9.17206,20385.0,120.0,9.17304,16731.0,120.0,9.17304,11876.0,120.0,1.34751390027199
38,39,#39 218.0000@9.5944 MS1+,1,+,9.59444,71907.56152214788,218.0,,,0.0099345887759897,218.0,9.59542,94683.4373237759,218.0,9.59542,45186.08375571091,218.0,9.59444,68349.85445278851,218.0,9.59444,38916.80806265599,218.0,9.59444,134280.7920242731,218.0,9.59444,44105.26622469004,218.0,9.59444,88439.39896966697,218.0,9.59444,74386.0,218.0,9.59444,53663.0,218.0,9.59444,59323.0,218.0,9.59444,71907.56152214788,218.0,9.59444,34590.7856863647,218.0,9.59444,89162.7959838167,218.0,9.59444,54961.670507194,218.0,9.59248,24552.0,218.0,9.59346,59946.0,218.0,9.59542,60878.00671090337,218.0,9.59542,61476.09799441212,218.0,9.59444,29649.105694451548,218.0,9.59346,107082.0,218.0,9.59248,82942.02180825802,218.0,9.59346,31078.295308817276,218.0,9.59444,41719.0,218.0,9.59346,40765.0,218.0,9.59248,27111.0,218.0,9.59444,134179.50917864486,218.0,9.59444,81710.0,218.0,9.59346,34232.130220547566,218.0,1.3563947031581405
93,94,#94 456.0000@16.7749 MS1+,1,+,16.7749,1862.0,456.0,,,7.20278725552248e-10,456.0,16.7749,1866.0,456.0,16.7749,1548.0,456.0,16.77392,1691.9873819418403,456.0,16.781760000000002,1627.0,456.0,16.77784,1687.5616074478366,456.0,16.77588,1466.0,456.0,16.77392,1522.0,456.0,,,,,,,16.776860000000003,1582.7402749696298,456.0,,,,16.781760000000002,1319.0,457.0,16.7798,1833.8238702327328,456.0,16.7749,1862.0,456.0,16.7749,1829.0,456.0,16.7798,1511.0,456.0,16.77392,1855.982826539079,456.0,,,,16.776860000000003,1452.0,456.0,16.776860000000003,1879.8970957394688,456.0,16.778820000000003,1479.0,456.0,16.77098,1486.0,456.0,16.776860000000003,1858.5694864309817,456.0,16.7749,1943.0,456.0,16.772940000000002,1689.0,456.0,,,,,,,16.77,1514.0,456.0,1.3880770819452715
83,84,#84 146.0000@5.9704 MS1+,1,+,5.9704,8686.332177419374,146.0,,,0.1533827973238397,146.0,,,,,,,5.97628,7168.528343360886,116.0,,,,5.97138,10154.076222294318,146.0,,,,5.96942,7726.59873107474,146.0,,,,,,,,,,5.97726,8921.05777149789,116.0,,,,,,,,,,,,,,,,,,,,,,,,,5.97236,10976.4517084217,146.0,5.9704,8686.332177419374,146.0,,,,,,,,,,,,,5.97236,9931.620381123994,130.0,5.975300000000001,7087.382101290031,146.0,,,,1.392867405854803
63,64,#64 103.0000@14.0515 MS1+,1,+,14.05148,35442.583185004245,103.0,,,1.0415120987872226e-09,103.0,14.0505,23559.255413571635,103.0,14.04952,28339.98917905755,103.0,14.04854,13659.953442345535,103.0,14.05148,35442.583185004245,103.0,14.04952,22833.0,103.0,14.0505,18950.762604190244,103.0,14.04756,4337.069495347732,103.0,14.0505,10945.853214832496,103.0,14.0505,2558.0,147.0,14.04952,14322.0,103.0,14.05148,11458.762719607135,103.0,14.05344,19666.0,103.0,14.05148,21769.0,103.0,14.05148,30768.07109002364,103.0,14.0505,15182.0,103.0,14.04952,8791.638707071004,103.0,14.0505,22001.568005085,103.0,14.05148,19293.0,103.0,14.0505,18112.202614055663,103.0,14.04952,6855.1022577135045,103.0,14.04952,12371.757621619492,103.0,14.04854,36629.0,103.0,14.04952,21264.81525241504,103.0,14.04952,19105.0,103.0,14.04854,34152.0,103.0,14.04756,12227.0,103.0,14.04756,18576.650326765957,103.0,14.04854,25514.0,103.0,1.3971688533040438
49,50,#50 116.0000@9.7924 MS1+,1,+,9.792400000000002,39569.64614713271,116.0,,,0.0053605636362615,116.0,9.79338,31506.294154763757,116.0,9.79142,22538.87068980682,116.0,9.792400000000002,39569.64614713271,116.0,9.792400000000002,18987.0,116.0,9.79338,66268.999902352,116.0,9.792400000000002,24355.0,116.0,9.792400000000002,25532.0,116.0,9.792400000000002,45424.0,116.0,9.792400000000002,11708.614737763057,116.0,9.79142,26955.483472590324,116.0,9.792400000000002,39545.0,116.0,9.792400000000002,19078.0,116.0,9.792400000000002,45592.101802720106,116.0,9.792400000000002,28955.0,116.0,9.79142,12649.0,116.0,9.792400000000002,32546.407322535604,116.0,9.79142,33446.0,116.0,9.792400000000002,33286.339584298155,116.0,9.792400000000002,14500.340892135277,116.0,9.79142,27970.0,116.0,9.79044,22256.0,116.0,9.79044,16275.657310452289,116.0,9.79142,18775.0,116.0,9.79142,18795.0,116.0,9.79044,14126.0,116.0,9.792400000000002,74532.0,116.0,9.79142,44817.0,116.0,9.79142,19424.0,116.0,1.422183696868956
60,61,#61 147.0000@10.7273 MS1+,1,+,10.72732,27017.0,147.0,,,8.70174037392868e-06,147.0,10.7283,37492.0,147.0,,,,10.72634,28724.0,147.0,,,,10.7283,46916.17740322676,147.0,,,,10.72634,26135.0,147.0,10.72732,28664.0,147.0,,,,10.72732,28795.0,147.0,10.72732,37850.0,147.0,,,,10.72732,33020.01583269232,147.0,10.7283,21618.0,147.0,,,,10.72732,27017.0,147.0,,,,10.72732,24489.117847633544,147.0,,,,10.72634,31379.28779108593,147.0,,,,,,,10.72732,21614.0,147.0,10.72634,26673.042196341044,147.0,,,,10.72732,42014.0,147.0,10.72732,36802.0,147.0,10.72732,22514.0,147.0,1.4253365201727957
64,65,#65 147.0000@14.4631 MS1+,1,+,14.46308,29887.0,147.0,,,0.0030609153445076,147.0,14.4621,22201.19764395377,147.0,14.4621,18655.0,147.0,14.46112,18856.27993668588,147.0,14.46406,18112.0,147.0,14.46406,19467.0,147.0,14.46308,22934.0,147.0,14.4621,17277.758820462677,147.0,14.4621,18864.82217903772,147.0,14.46308,17298.0,147.0,14.46308,24665.0,147.0,14.46308,24647.44921945985,147.0,14.46504,30779.34254375797,147.0,14.46406,31706.69091721214,147.0,14.46308,30010.0,147.0,14.4621,26526.746598046637,147.0,14.46308,19573.0,147.0,14.46308,21418.137441350045,147.0,14.46308,24807.965565982337,147.0,14.46308,20422.41631064396,147.0,14.46112,24898.0,147.0,14.4621,18931.0,147.0,14.46014,19636.45689010445,147.0,14.46308,29887.0,147.0,14.4621,28335.0,147.0,14.46112,21892.94995993835,147.0,14.46014,22577.0,147.0,14.46014,25035.529120063384,147.0,14.46014,22792.0,147.0,1.430952058073299
18,19,#19 218.0000@11.2663 MS1+,1,+,11.26632,177985.69487239514,218.0,,,0.0012033438414508,218.0,11.2673,197280.9135292229,218.0,11.26632,121009.25354879882,218.0,11.26632,177985.69487239514,218.0,11.2673,91210.47801820152,218.0,11.26828,311270.9596595932,218.0,11.2673,120609.3092158473,218.0,11.2673,241961.00597266288,218.0,11.26632,208305.78330126437,218.0,11.2673,140617.0,218.0,11.26632,140874.57149639862,218.0,11.2673,206361.7274069289,218.0,11.26632,107767.2523150578,218.0,11.2673,214160.3431969194,218.0,11.26632,157796.0,218.0,11.26632,94479.76270251756,218.0,11.26534,154444.0,218.0,11.26632,146898.10431582486,218.0,11.26632,149078.8396165686,218.0,11.26632,77427.0,218.0,11.26632,312431.988303614,218.0,11.26632,236506.0,218.0,11.26436,87312.0,218.0,11.26534,117448.63398864745,218.0,11.26534,115398.0,218.0,11.26436,88113.08358357586,218.0,11.26632,349532.2572679948,218.0,11.26534,234186.65345517595,218.0,11.26436,101386.94824307342,218.0,1.4626972113717447
72,73,#73 147.0000@13.4184 MS1+,1,+,13.4184,19519.887661451958,147.0,,,0.0012256195799177,147.0,13.41644,16175.0,147.0,13.41742,14696.882627333362,147.0,13.41644,11211.52945891141,147.0,13.4184,13524.7630397421,147.0,13.4184,18401.05776005506,147.0,13.4184,11781.509742911694,147.0,13.41546,12176.215496027567,147.0,13.4184,12028.432163737323,147.0,13.42036,11018.141485896873,147.0,13.41938,13646.625094907156,147.0,13.41938,14192.560109624852,147.0,13.42036,14970.0,147.0,13.42036,17842.439937322855,147.0,13.4184,19519.887661451958,147.0,13.4184,10643.979855378955,147.0,13.41644,12060.970268713512,147.0,13.4184,17524.86488832951,147.0,13.41938,23754.80867411764,147.0,13.41938,12931.210051905286,147.0,13.41644,19920.05647878805,147.0,13.41938,15013.29704451205,147.0,13.4135,14247.0,147.0,13.41546,21641.15862938081,147.0,13.41742,13788.0,147.0,13.41546,15493.83553969483,147.0,13.41742,14294.33781468131,147.0,13.41742,13835.397978704625,147.0,13.41546,15788.0,147.0,1.4663463401926065
70,71,#71 160.0000@8.2999 MS1+,1,+,8.29986,14985.0,160.0,,,0.1131218063329981,160.0,,,,8.29888,22290.671348237687,160.0,8.29986,15991.230691275712,160.0,8.30084,12513.865183549404,160.0,8.29986,14985.0,160.0,,,,,,,8.29986,8452.0,160.0,,,,,,,8.30084,8612.061228533086,160.0,8.29888,17319.531589771217,160.0,8.29986,22439.28953716162,160.0,8.29986,18727.336089723965,160.0,8.29888,21029.58380256037,160.0,8.29888,10789.116253058544,160.0,8.29888,15316.5858028842,160.0,8.29888,20469.32902769195,160.0,8.29986,8067.0,160.0,8.30084,8509.739373733746,160.0,8.2979,19978.0,160.0,8.2979,11802.452196494824,160.0,8.29888,11567.70639620817,160.0,8.29986,10809.0,160.0,8.29692,13877.58263875483,160.0,8.29986,8524.0,160.0,,,,8.29692,24451.685829402584,160.0,1.5288551081223472
28,29,#29 86.0000@6.4545 MS1+,1,+,6.4545200000000005,75268.29324407731,86.0,,,0.0003545260394260952,86.0,6.4545200000000005,95595.08123639003,86.0,6.4545200000000005,77552.83018322587,86.0,6.4555,138010.0,86.0,6.4545200000000005,59800.0,86.0,6.45354,182667.39778100932,86.0,6.45354,72681.16393077403,86.0,6.45354,152360.26591116813,86.0,6.45354,130305.0,86.0,6.4545200000000005,75268.29324407731,86.0,6.45354,67957.85681899023,86.0,6.45648,167487.35008657805,86.0,6.4555,90239.358247248,86.0,6.4545200000000005,99308.21977313983,86.0,6.45648,108196.76383460643,86.0,6.4555,59562.81160502041,86.0,6.45354,69514.07785128245,86.0,6.4545200000000005,62763.15981102039,147.0,6.45648,45446.39200706484,86.0,6.45354,49931.92070201525,86.0,6.45354,211720.0,86.0,6.45354,158049.0,86.0,6.4555,64789.0,86.0,6.45256,69860.0,86.0,6.45354,72694.55883598726,86.0,6.4555,56040.67658459122,86.0,6.45256,197286.14444694316,86.0,6.45354,150083.0392549776,86.0,6.4545200000000005,57282.434485285536,86.0,1.5790605858874462
56,57,#57 241.0000@7.8638 MS1+,1,+,7.86376,46410.86460905241,241.0,,,0.0009516813626599953,241.0,7.86376,50276.91920831095,241.0,7.86376,19616.0,241.0,7.86376,25143.0,241.0,7.86376,19502.0,241.0,7.86376,46410.86460905241,241.0,7.86376,22958.23853176945,241.0,7.86474,11559.0,241.0,7.86376,14332.095905647167,241.0,,,,7.86376,23221.0,241.0,7.86376,18385.215342050964,241.0,7.86376,24496.0,241.0,7.86278,38222.78972916357,241.0,7.86376,26862.13221912436,241.0,7.86376,12513.491622058153,241.0,7.86376,17912.0,241.0,7.86376,23625.964070898463,241.0,7.86278,31619.597757750747,241.0,7.86376,18491.0,241.0,7.86376,15804.0,241.0,7.86376,12990.948020126334,241.0,7.86376,17270.209421389663,241.0,7.86278,31191.0,241.0,7.86278,21527.0,241.0,7.86474,17460.0,241.0,7.86278,22977.0,241.0,7.86278,16959.6612372091,241.0,7.86278,21908.59078960217,241.0,1.589110470308914
19,20,#20 147.0000@10.2697 MS1+,1,+,10.26966,169172.02701967862,147.0,,,2.535545194914945e-06,299.0,10.270639999999998,164604.41458887188,147.0,10.26966,78475.94965114711,101.0,10.26868,150830.0,101.0,10.26868,77098.09680842451,101.0,10.270639999999998,192499.8820327015,299.0,10.26868,109034.12595153513,101.0,10.26966,200241.2959058334,147.0,10.26966,169172.02701967862,147.0,10.26868,158944.0,147.0,10.26868,156513.5215082441,147.0,10.26966,210736.2523047618,299.0,10.26868,83781.0,101.0,10.270639999999998,143297.22011022005,147.0,10.26868,113471.26810773338,101.0,10.2677,117743.03566698312,147.0,10.26868,142686.7945206822,147.0,10.26966,101908.29061585553,147.0,10.26868,124425.75973513168,147.0,10.2677,74202.54946496221,101.0,10.26966,332804.2873710198,299.0,10.26966,257584.3673017173,299.0,10.26672,75142.887251442,101.0,10.2677,113984.58920524232,101.0,10.2677,107440.0212016857,147.0,10.2677,74506.9921671775,101.0,10.26966,287251.64781955624,299.0,10.26868,220569.0,147.0,10.26672,90706.30122275552,147.0,1.5911388777698656
24,25,#25 86.0000@6.6192 MS1+,1,+,6.61916,73158.936953465,86.0,,,0.0004401060035384985,86.0,6.61818,102899.79058862012,86.0,6.61916,85398.0,86.0,6.61916,159352.33793646484,86.0,6.61916,62703.40307760298,86.0,6.61916,206548.97057836867,86.0,6.61916,74952.78964227517,86.0,6.61818,172406.84857834683,86.0,6.6172,145101.51174993915,86.0,6.61916,82278.77384623785,86.0,6.6172,73948.44980348533,86.0,6.62014,182240.3101742096,86.0,6.62014,89559.36613760647,86.0,6.61818,106975.55513304049,86.0,6.62112,117560.13126295772,86.0,6.62112,65034.42017149202,86.0,6.61818,78983.59058808043,86.0,6.62014,60101.38354541104,86.0,6.6221000000000005,46772.73601619686,86.0,6.62014,57261.83583846969,86.0,6.61818,247990.0,86.0,6.6172,193486.8623978068,86.0,6.62112,67911.70475071862,86.0,6.61916,73158.936953465,86.0,6.61818,78397.0,86.0,6.62014,61944.37124441615,86.0,6.6172,201137.35674392155,86.0,6.61818,162009.354003879,86.0,6.62112,65943.35246871978,86.0,1.6219857625546708
54,55,#55 99.0000@7.7236 MS1+,1,+,7.723619999999999,54988.0,99.0,,,1.1767670726747781e-08,99.0,7.7246,46639.97730536908,99.0,7.72558,41041.0,99.0,7.7246,25663.0872698206,99.0,7.72264,55106.00136686048,99.0,7.723619999999999,46886.0,99.0,7.72264,37421.0,99.0,7.7246,14032.431454344216,99.0,7.7246,21939.0,99.0,7.726560000000001,10667.044850736942,99.0,7.723619999999999,29277.69312207636,99.0,7.7246,24830.0,99.0,7.72264,40562.77709985546,99.0,7.72264,49520.0,99.0,7.723619999999999,54988.0,99.0,7.72264,27314.0,99.0,7.723619999999999,20659.36578033224,99.0,7.72264,35671.0,99.0,7.723619999999999,45209.0,99.0,7.72264,43595.44220306609,99.0,7.723619999999999,21517.0,99.0,7.723619999999999,23621.632305123625,99.0,7.72264,60178.0,99.0,7.72264,56160.0,99.0,7.72264,33407.8805009931,99.0,7.72166,52017.04668572168,99.0,7.723619999999999,21214.0,99.0,7.723619999999999,34416.78029147865,99.0,7.72264,42703.0,99.0,1.6294653317545276
79,80,#80 103.0000@12.3943 MS1+,1,+,12.3943,9574.231656141836,103.0,,,0.00029686852879684533,103.0,12.39528,7323.554555147986,103.0,12.396260000000002,11598.0,103.0,12.39528,5537.6140509448505,103.0,12.39724,9447.656243566817,103.0,12.3943,9319.768731481585,103.0,12.39332,5051.215485382872,103.0,12.3943,8704.145240333857,103.0,,,,12.3943,6361.0,103.0,,,,,,,12.39528,8782.535488196787,103.0,12.3943,11191.807875855431,103.0,12.3943,11076.051147483406,103.0,,,,,,,12.3943,8930.61077899746,103.0,12.39528,13239.06712612112,103.0,12.3943,5634.0,103.0,12.3943,13002.87937792094,103.0,12.3943,9574.231656141836,103.0,12.39332,9304.0,103.0,12.3943,11206.424586778394,103.0,12.3943,4590.966763334442,103.0,12.39332,10485.0,103.0,12.39234,5594.229925817633,103.0,12.39332,4515.022070598317,103.0,12.39234,7775.543786558478,103.0,1.649102804890016
48,49,#49 147.0000@12.5295 MS1+,1,+,12.52954,55948.0,147.0,,,0.0187418753731315,147.0,12.53052,71746.0,147.0,12.53052,63581.0,147.0,12.52954,55658.21839744911,147.0,12.5315,61434.0,147.0,12.53052,75156.89358367848,147.0,12.5315,54097.0,147.0,12.52954,55948.0,147.0,12.53052,51662.0,147.0,12.53052,47155.627370679074,147.0,12.52954,49702.0,147.0,12.53052,58441.0,147.0,12.5315,66553.0,147.0,12.53052,62152.0,147.0,12.53052,72076.0,147.0,12.53052,66949.0,147.0,12.53052,56220.0,147.0,12.53052,69811.3831194019,147.0,12.53052,65605.0,147.0,12.52954,56171.0,147.0,12.52856,61996.0,147.0,12.53052,66522.99628917425,147.0,12.52856,68229.0,147.0,12.53052,66883.90351150607,147.0,12.52954,61251.0,147.0,12.52856,68311.0,147.0,12.52954,58760.57299083835,147.0,12.52856,56118.6331032131,147.0,12.52856,62223.0,147.0,1.6571784585601992
9,10,#10 147.0000@8.6664 MS1+,1,+,8.66638,544452.5810188465,147.0,,,2.248774236257578e-05,147.0,8.66834,766380.3493930465,147.0,8.66736,584621.6872301365,147.0,8.66736,598276.6504243294,147.0,8.66736,499176.6286224408,147.0,8.66834,911847.287942588,147.0,8.66736,552578.9490793187,147.0,8.66638,355361.32746838016,147.0,8.66638,331681.0,147.0,8.66638,287561.0,147.0,8.66638,579670.3476518155,147.0,8.66638,435094.690754094,147.0,8.66638,590786.1429520623,147.0,8.66736,755622.955844869,147.0,8.66736,713004.7904429999,147.0,8.66638,491868.0,147.0,8.66638,536670.0,147.0,8.66736,651043.1830570917,147.0,8.66736,734961.5147778027,147.0,8.6654,440172.03450156143,147.0,8.6654,391243.7553032112,147.0,8.6654,313686.3597212367,147.0,8.6654,443409.7587754909,147.0,8.66736,775625.5787360603,147.0,8.6654,516516.6425811954,147.0,8.6654,493896.50743083376,147.0,8.66638,496133.0141669992,147.0,8.6654,448661.8051659286,147.0,8.66638,544452.5810188465,147.0,1.659809260342651
41,42,#42 147.0000@10.6744 MS1+,1,+,10.6744,73616.52680632682,147.0,,,6.92536753584827e-05,147.0,10.67538,93306.6825241363,147.0,10.6744,40497.21650226028,147.0,10.6744,73616.52680632682,147.0,10.67538,32290.682757558163,147.0,10.6744,108177.0030388564,147.0,10.6744,54335.94956674139,147.0,10.67342,54565.0,147.0,10.6744,75243.0,147.0,10.6744,43880.85204481606,147.0,10.67342,68135.52814683731,147.0,10.6744,92779.06848199684,147.0,10.67342,46192.50964862469,147.0,10.6744,78422.24971587941,147.0,10.6744,49303.63594317365,147.0,10.67342,56556.84011414315,147.0,10.67342,67802.34385493583,147.0,10.67342,61970.41683343455,147.0,10.6744,58619.90045570158,147.0,10.67342,39544.83124242511,147.0,10.67342,82175.29656001023,147.0,10.6744,55362.52351144576,147.0,10.67244,28497.13101291887,147.0,10.67342,50961.754242596064,147.0,10.67244,55506.68859166537,147.0,10.67244,37183.92269937389,147.0,10.67342,105092.0,147.0,10.67342,90035.60680655303,147.0,10.67244,42684.50739462068,147.0,1.6859631817767031
39,40,#40 245.0000@7.7854 MS1+,1,+,7.78536,68209.0,245.0,,,3.0418455767122765e-05,147.0,7.78634,119836.01130816064,147.0,7.78536,73933.63098826417,147.0,7.78536,80032.0,245.0,7.78634,61790.0,245.0,7.78536,118837.0,245.0,7.78536,68209.0,245.0,7.78634,43623.0,245.0,7.78536,49591.68971578717,147.0,7.78634,34443.98409520659,245.0,7.78438,77746.0551887801,147.0,7.78634,54202.02505700738,245.0,7.78536,82255.60022358362,245.0,7.78438,96291.83145112405,245.0,7.78536,102613.67191068268,245.0,7.78438,56406.65420245281,245.0,7.78536,69533.60901210844,245.0,7.78536,76400.0,245.0,7.78438,98974.2420346294,147.0,7.78438,58657.79928392054,147.0,7.78438,52072.0365620863,147.0,7.78438,42979.0,245.0,7.78536,58502.80184580857,147.0,7.78438,106993.08819508852,245.0,7.78438,64453.58348264867,147.0,7.78438,60461.766253303336,245.0,7.78536,66259.0,245.0,7.78438,56144.44095734525,147.0,7.78438,68809.33224674345,245.0,1.711763670238439
67,68,#68 147.0000@14.2426 MS1+,1,+,14.24258,15794.96850505969,147.0,,,7.687819714163881e-09,147.0,14.24258,15794.96850505969,147.0,14.24258,22080.168642420023,147.0,14.241600000000002,10731.0,147.0,14.24552,18337.013640036133,147.0,14.24454,16256.762845890167,147.0,14.24356,9624.541778052517,147.0,14.24258,7806.1338345649565,147.0,14.24454,8905.59032201894,147.0,14.241600000000002,6283.086150162098,147.0,14.241600000000002,10164.311907062063,147.0,14.24552,12158.771760104495,147.0,14.2465,18413.3039355373,147.0,14.24454,18998.51059450028,147.0,14.24454,24019.705048591022,147.0,14.24454,9133.0,147.0,14.241600000000002,9598.692140961466,147.0,14.24356,16413.995701406446,147.0,14.24454,25691.06117159419,147.0,14.24356,12035.424794065304,147.0,14.24356,10997.94112011783,147.0,14.24454,10448.302206133289,147.0,14.240620000000002,19056.492472442584,147.0,14.24258,22276.444936169253,147.0,14.24356,11943.357619716246,147.0,14.24258,17609.072265446106,147.0,14.241600000000002,10047.0,147.0,14.240620000000002,11147.351971943017,147.0,14.240620000000002,13329.53598173316,147.0,1.724844973907239
62,63,#63 169.0000@14.3798 MS1+,1,+,14.379780000000002,26682.0,169.0,,,,169.0,,,,,,,,,,,,,,,,,,,,,,,,,,,,,,,,,,14.379780000000002,24135.0,169.0,,,,14.379780000000002,26682.0,169.0,,,,,,,,,,14.380760000000002,37798.59258784104,169.0,,,,,,,,,,,,,14.378800000000002,28101.30309115775,169.0,,,,,,,,,,,,,,,,1.7743262570735514
