,SpectrumId,Score,Comment,PlsdaId
0,365808.0,0.7685333018787746,Reduction vs. LumA,7
1,365809.0,1.560116934942181,Reduction vs. LumA,7
2,365810.0,0.7258783582702909,Reduction vs. LumA,7
3,365811.0,1.3306827015669347,Reduction vs. LumA,7
4,365812.0,0.4969561486325872,Reduction vs. LumA,7
5,365813.0,0.5931034317039406,Reduction vs. LumA,7
6,365814.0,1.5628847013519929,Reduction vs. LumA,7
7,365815.0,0.8776783662216979,Reduction vs. LumA,7
8,365816.0,0.6818641304669049,Reduction vs. LumA,7
9,365817.0,0.8308783688757435,Reduction vs. LumA,7
10,365818.0,0.8277639457888729,Reduction vs. LumA,7
11,365819.0,0.4636289529668422,Reduction vs. LumA,7
12,365820.0,0.7108889025527887,Reduction vs. LumA,7
13,365821.0,0.6013598066743572,Reduction vs. LumA,7
14,365822.0,0.5138341111329408,Reduction vs. LumA,7
15,365823.0,0.680228796567086,Reduction vs. LumA,7
16,365824.0,1.429406311735837,Reduction vs. LumA,7
17,365825.0,0.9082649112904512,Reduction vs. LumA,7
18,365826.0,0.4157271056678998,Reduction vs. LumA,7
19,365827.0,0.2402095601826185,Reduction vs. LumA,7
20,365828.0,0.8645329615015617,Reduction vs. LumA,7
21,365829.0,0.9195230344217594,Reduction vs. LumA,7
22,365830.0,0.4291067317834816,Reduction vs. LumA,7
23,365831.0,0.5625566376303476,Reduction vs. LumA,7
24,365832.0,1.4175690479382912,Reduction vs. LumA,7
25,365833.0,0.3977598761432339,Reduction vs. LumA,7
26,365834.0,1.1719407910421942,Reduction vs. LumA,7
27,365835.0,0.5526438826201608,Reduction vs. LumA,7
28,365836.0,0.8831076803837313,Reduction vs. LumA,7
29,365837.0,0.4444325189296441,Reduction vs. LumA,7
30,365838.0,1.0247549350772995,Reduction vs. LumA,7
31,365839.0,0.4659850879027716,Reduction vs. LumA,7
32,365840.0,0.723519458374516,Reduction vs. LumA,7
33,365841.0,0.5097026256885661,Reduction vs. LumA,7
34,365842.0,0.1846041819795428,Reduction vs. LumA,7
35,365843.0,1.3664975002313355,Reduction vs. LumA,7
36,365844.0,1.6034384835354976,Reduction vs. LumA,7
37,365845.0,1.4751423815678015,Reduction vs. LumA,7
38,365846.0,0.2077460730465619,Reduction vs. LumA,7
39,365847.0,0.7259084076070554,Reduction vs. LumA,7
40,365848.0,0.7397211127120658,Reduction vs. LumA,7
41,365849.0,0.3259672825986709,Reduction vs. LumA,7
42,365850.0,0.1622949036382217,Reduction vs. LumA,7
43,365851.0,0.7805349769367514,Reduction vs. LumA,7
44,365852.0,1.430915877937622,Reduction vs. LumA,7
45,365853.0,0.2537001862486679,Reduction vs. LumA,7
46,365854.0,1.5152417853808438,Reduction vs. LumA,7
47,365855.0,0.7749626453529037,Reduction vs. LumA,7
48,365856.0,1.3068463635748482,Reduction vs. LumA,7
49,365857.0,1.1943486810763122,Reduction vs. LumA,7
50,365858.0,0.4273289397489149,Reduction vs. LumA,7
51,365859.0,0.8529195914477569,Reduction vs. LumA,7
52,365860.0,1.314196656803062,Reduction vs. LumA,7
53,365861.0,1.0890712269541791,Reduction vs. LumA,7
54,365862.0,1.2525689148695474,Reduction vs. LumA,7
55,365863.0,1.9617637348885708,Reduction vs. LumA,7
56,365864.0,0.6284539672502137,Reduction vs. LumA,7
57,365865.0,1.3651952474567068,Reduction vs. LumA,7
58,365866.0,0.7314863626735283,Reduction vs. LumA,7
59,365867.0,0.587272117374463,Reduction vs. LumA,7
60,365868.0,0.5103445221187293,Reduction vs. LumA,7
61,365869.0,0.7485303216835341,Reduction vs. LumA,7
62,365870.0,0.4976612669447683,Reduction vs. LumA,7
63,365871.0,1.165599623526931,Reduction vs. LumA,7
64,365872.0,0.3671483242668197,Reduction vs. LumA,7
65,365873.0,1.2597295536660875,Reduction vs. LumA,7
66,365874.0,0.7475890331417007,Reduction vs. LumA,7
67,365875.0,1.1527477384975635,Reduction vs. LumA,7
68,365876.0,0.3283848584071124,Reduction vs. LumA,7
69,365877.0,0.7855747251449302,Reduction vs. LumA,7
70,365878.0,1.0587817272623463,Reduction vs. LumA,7
71,365879.0,1.2906345309233282,Reduction vs. LumA,7
72,365880.0,0.8089615613162481,Reduction vs. LumA,7
73,365881.0,1.438531607402203,Reduction vs. LumA,7
74,365882.0,1.6075300197546811,Reduction vs. LumA,7
75,365883.0,1.1999513112229383,Reduction vs. LumA,7
76,365884.0,0.5027198294097829,Reduction vs. LumA,7
77,365885.0,0.2157531505026123,Reduction vs. LumA,7
78,365886.0,0.8105928725552445,Reduction vs. LumA,7
79,365887.0,1.0867766228899194,Reduction vs. LumA,7
80,365888.0,1.0544692905874475,Reduction vs. LumA,7
81,365889.0,0.6273970575013886,Reduction vs. LumA,7
82,365890.0,0.9059231125798622,Reduction vs. LumA,7
83,365891.0,0.9587841441822532,Reduction vs. LumA,7
84,365892.0,1.7004624565402098,Reduction vs. LumA,7
85,365893.0,0.3756189420304104,Reduction vs. LumA,7
86,365894.0,1.7692743958534771,Reduction vs. LumA,7
87,365895.0,0.6365243039432384,Reduction vs. LumA,7
88,365896.0,1.2978557164855242,Reduction vs. LumA,7
89,365897.0,1.158901452591619,Reduction vs. LumA,7
90,365898.0,1.1431138081648538,Reduction vs. LumA,7
91,365899.0,0.5216013810557755,Reduction vs. LumA,7
92,365900.0,1.891412817994524,Reduction vs. LumA,7
93,365901.0,0.6544807716886601,Reduction vs. LumA,7
94,365902.0,1.4095279200465365,Reduction vs. LumA,7
95,365903.0,0.4815229879404401,Reduction vs. LumA,7
96,365904.0,0.7673918294723809,Reduction vs. LumA,7
97,365905.0,0.7024144403753757,Reduction vs. LumA,7
98,365906.0,1.548750430910207,Reduction vs. LumA,7
99,365907.0,0.6140700942509638,Reduction vs. LumA,7
100,365908.0,1.1814302751901005,Reduction vs. LumA,7
101,365909.0,0.7479486921634297,Reduction vs. LumA,7
102,365910.0,1.2134116912455657,Reduction vs. LumA,7
103,365911.0,1.0611254392403922,Reduction vs. LumA,7
104,365912.0,1.0395121115379529,Reduction vs. LumA,7
105,365913.0,0.7700384771671804,Reduction vs. LumA,7
106,365914.0,1.1054658045791823,Reduction vs. LumA,7
107,365915.0,1.150996069861571,Reduction vs. LumA,7
108,365916.0,0.53858088921067,Reduction vs. LumA,7
109,365917.0,0.5650028650826812,Reduction vs. LumA,7
110,365918.0,1.2268955572820286,Reduction vs. LumA,7
111,365919.0,0.9916244627974832,Reduction vs. LumA,7
112,365920.0,0.307061422010487,Reduction vs. LumA,7
113,365921.0,1.0745630915178843,Reduction vs. LumA,7
114,365922.0,0.5872343801308403,Reduction vs. LumA,7
115,365923.0,0.5249432300583582,Reduction vs. LumA,7
116,365924.0,0.2781710071782574,Reduction vs. LumA,7
117,365925.0,0.2706195332654328,Reduction vs. LumA,7
118,365926.0,0.5925157466044431,Reduction vs. LumA,7
119,365927.0,1.902361672553872,Reduction vs. LumA,7
120,365928.0,1.0978916592376176,Reduction vs. LumA,7
121,365929.0,1.6894780318892555,Reduction vs. LumA,7
122,365930.0,1.0130110194705435,Reduction vs. LumA,7
123,365931.0,0.7228742479588903,Reduction vs. LumA,7
124,365932.0,0.9580744195282506,Reduction vs. LumA,7
125,365933.0,0.8870062082188085,Reduction vs. LumA,7
126,365934.0,1.1597654654716898,Reduction vs. LumA,7
127,365935.0,0.549187757797897,Reduction vs. LumA,7
128,365936.0,0.774175962282682,Reduction vs. LumA,7
129,365937.0,0.5290454699097051,Reduction vs. LumA,7
130,365938.0,0.5824880214075892,Reduction vs. LumA,7
131,365939.0,1.3354499838530445,Reduction vs. LumA,7
132,365940.0,1.0736529088834637,Reduction vs. LumA,7
133,365941.0,1.058365686718033,Reduction vs. LumA,7
134,365942.0,1.2435826622268942,Reduction vs. LumA,7
135,365943.0,0.9929915233696948,Reduction vs. LumA,7
136,365944.0,0.8306615486566014,Reduction vs. LumA,7
137,365945.0,0.6883754860320739,Reduction vs. LumA,7
138,365946.0,0.3192736417632251,Reduction vs. LumA,7
139,365947.0,1.1325057270629562,Reduction vs. LumA,7
140,365948.0,0.7034616224622026,Reduction vs. LumA,7
141,365949.0,0.8068448763993316,Reduction vs. LumA,7
142,365950.0,0.3436822423708318,Reduction vs. LumA,7
143,365951.0,0.5648866565253007,Reduction vs. LumA,7
144,365952.0,1.091122536699905,Reduction vs. LumA,7
145,365953.0,0.7463271447326446,Reduction vs. LumA,7
146,365954.0,1.0019811829203151,Reduction vs. LumA,7
147,365955.0,1.1415203990530702,Reduction vs. LumA,7
148,365956.0,0.9932520984918752,Reduction vs. LumA,7
149,365957.0,1.147651625231887,Reduction vs. LumA,7
150,365958.0,1.7121535719223544,Reduction vs. LumA,7
151,365959.0,0.8648967745969339,Reduction vs. LumA,7
152,365960.0,1.6014382118205794,Reduction vs. LumA,7
153,365961.0,1.3765501051973428,Reduction vs. LumA,7
154,365962.0,1.4410812769906012,Reduction vs. LumA,7
155,365963.0,0.5582148174326188,Reduction vs. LumA,7
156,365964.0,1.2450319123199505,Reduction vs. LumA,7
157,365965.0,1.501833054670367,Reduction vs. LumA,7
158,365966.0,0.7890565814808993,Reduction vs. LumA,7
159,365967.0,0.1926809600019864,Reduction vs. LumA,7
160,365968.0,1.0763264660502063,Reduction vs. LumA,7
161,365969.0,0.4983952112814497,Reduction vs. LumA,7
162,365970.0,1.850402021965596,Reduction vs. LumA,7
163,365971.0,1.0445353182585226,Reduction vs. LumA,7
164,365972.0,0.4922682155475519,Reduction vs. LumA,7
165,365973.0,1.1351605262052162,Reduction vs. LumA,7
166,365974.0,1.1401447955865698,Reduction vs. LumA,7
167,365975.0,1.034838780663745,Reduction vs. LumA,7
168,365976.0,0.7115263526444127,Reduction vs. LumA,7
169,365977.0,1.6563323310342697,Reduction vs. LumA,7
