CPD_ID	CPD_NAME	mz_row_Statistic	From_mz_row	From_EmpiricalCompound
C00286	dGTP	0.3850827983281504	row509	E69
C05385		0.9469168126578846	row298	E55
C00459	dTTP	0.22880923973404224	row484	E45
C04392	P1,P4-Bis(5'-xanthosyl) tetraphosphate; XppppX	0.0011149180166324065	row940	E58
C00288	Bicarbonate	0.668636138592412	row63	E2
C06198	P1,P4-Bis(5'-uridyl) tetraphosphate; UppppU	0.6835752409384714	row792	E80
